%!PS-Adobe-3.0
%%Creator: Model Technology ModelSim ALTERA STARTER EDITION vsim 10.1d Simulator 2012.11 Nov  2 2012
%%Title: first1000.ps
%%CreationDate: 2016-01-26 03:37:22 PM
%%DocumentData: Clean8Bit
%%DocumentNeededResources: font Helvetica
%%Orientation: Landscape
%%PageOrder: ascend
%%Pages: 1
%%EndComments
%%BeginSetup
%%BeginFeature: *PageSize 8.5x11.0
<< /PageSize [612.0 792.0]
/ImagingBBox null
>> setpagedevice
%%EndFeature
%%EndSetup
%%Page: 1 1
gsave
90 rotate 0.12 dup neg scale
% dump string table
/NP {newpath} def/SD {setdash} def/CL {setrgbcolor} def/GR {setgray} def
/SX {exch LEdge sub XScale mul MaxLabelWidth add LMargin add LEdge LabelWidth sub add exch} def/CSX {exch dup LabelWidth gt {exch SX} {exch} ifelse} def
/MT {SX moveto} def/LS {SX lineto stroke} def/LT {SX lineto} def/LFS {SX lineto fill stroke} def/RSS {rmoveto show stroke} def/ST {stroke} def/WT {CSX moveto dup stringwidth pop} def/TSW {pop 0 originOffset} def
/TSE {MaxLabelWidth LabelWidth sub LMargin add 0 rmoveto neg originOffset} def/TS {-2 div originOffset CSX} def
/MLW {stringwidth pop dup MaxLabelWidth gt {/MaxLabelWidth exch def}{pop} ifelse XS} def
/XS {/XScale LabelWidth LMargin sub MaxLabelWidth LEdge LabelWidth sub add sub REdge LEdge sub div 1 add def} def
/ARC {5 -2 roll SX 5 2 roll arc} def/LC {1 index stringwidth pop lt {pop ()} if} def
/SW {stringwidth pop} def
/ESTR {   dup 3 add string   /CurrentStr exch def   exch 0 2 index getinterval   0 1 3 index 1 sub {     dup     2 index exch get exch     CurrentStr exch 3 -1 roll put   } for   pop   dup 1 2 2 index add {     CurrentStr exch 46 put   } for   pop} def
/LC {   exch  dup dup /CurrentStr exch def   SW 2 index gt {     CurrentStr length     dup     {       2 div cvi       3 index       CurrentStr SW       sub       dup 0 lt {         1 index         4 -1 roll         exch sub         3 1 roll       }       {         dup 5 index gt {           1 index 4 -1 roll add 3 1 roll         }         {           exit         } ifelse       } ifelse       3 index 2 index ESTR       1 index 0 eq {         exit       } if       pop     } loop     pop pop pop pop pop     CurrentStr   }   {     CurrentStr   } ifelse} def
/XScale 1 def/MaxLabelWidth 0 def/LMargin 75 def/LEdge 953 def/REdge 6374 def/LabelWidth 916 def
/Helvetica findfont [100 0 0 -100 0 0] makefont setfont
/originOffset   currentfont   /FontBBox get 1 get   currentfont  /FontMatrix get 3 get   mul   currentfont   /FontType get   42 eq {     1000000 div   } {     neg   } ifelse def
(clk) MLW
(pc_out) MLW
([15]) MLW
([14]) MLW
([13]) MLW
([12]) MLW
([11]) MLW
([10]) MLW
([9]) MLW
([8]) MLW
([7]) MLW
([6]) MLW
([5]) MLW
([4]) MLW
([3]) MLW
([2]) MLW
([1]) MLW
([0]) MLW
(mem_address) MLW
(mem_read) MLW
(mem_rdata) MLW
(mem_write) MLW
(mem_byte_enable) MLW
(mem_wdata) MLW
(regfile) MLW
([7]) MLW
([6]) MLW
([5]) MLW
([4]) MLW
([3]) MLW
([2]) MLW
([1]) MLW
([0]) MLW
% draw waveform shading
[] 0 SD
3 setlinewidth
0 setlinejoin
0 setlinecap
0 0 0 CL
953 225 MT 953 170 LS
954 225 MT 980 225 LS
980 225 MT 980 115 LS
981 115 MT 1008 115 LS
1008 225 MT 1008 115 LS
1009 225 MT 1036 225 LS
1036 225 MT 1036 115 LS
1037 115 MT 1064 115 LS
1064 225 MT 1064 115 LS
1065 225 MT 1092 225 LS
1092 225 MT 1092 115 LS
1093 115 MT 1120 115 LS
1120 225 MT 1120 115 LS
1121 225 MT 1147 225 LS
1147 225 MT 1147 115 LS
1148 115 MT 1175 115 LS
1175 225 MT 1175 115 LS
1176 225 MT 1203 225 LS
1203 225 MT 1203 115 LS
1204 115 MT 1231 115 LS
1231 225 MT 1231 115 LS
1232 225 MT 1259 225 LS
1259 225 MT 1259 115 LS
1260 115 MT 1287 115 LS
1287 225 MT 1287 115 LS
1288 225 MT 1315 225 LS
1315 225 MT 1315 115 LS
1316 115 MT 1342 115 LS
1342 225 MT 1342 115 LS
1343 225 MT 1370 225 LS
1370 225 MT 1370 115 LS
1371 115 MT 1398 115 LS
1398 225 MT 1398 115 LS
1399 225 MT 1426 225 LS
1426 225 MT 1426 115 LS
1427 115 MT 1454 115 LS
1454 225 MT 1454 115 LS
1455 225 MT 1482 225 LS
1482 225 MT 1482 115 LS
1483 115 MT 1510 115 LS
1510 225 MT 1510 115 LS
1511 225 MT 1537 225 LS
1537 225 MT 1537 115 LS
1538 115 MT 1565 115 LS
1565 225 MT 1565 115 LS
1566 225 MT 1593 225 LS
1593 225 MT 1593 115 LS
1594 115 MT 1621 115 LS
1621 225 MT 1621 115 LS
1622 225 MT 1649 225 LS
1649 225 MT 1649 115 LS
1650 115 MT 1677 115 LS
1677 225 MT 1677 115 LS
1678 225 MT 1704 225 LS
1704 225 MT 1704 115 LS
1705 115 MT 1732 115 LS
1732 225 MT 1732 115 LS
1733 225 MT 1760 225 LS
1760 225 MT 1760 115 LS
1761 115 MT 1788 115 LS
1788 225 MT 1788 115 LS
1789 225 MT 1816 225 LS
1816 225 MT 1816 115 LS
1817 115 MT 1844 115 LS
1844 225 MT 1844 115 LS
1845 225 MT 1872 225 LS
1872 225 MT 1872 115 LS
1873 115 MT 1899 115 LS
1899 225 MT 1899 115 LS
1900 225 MT 1927 225 LS
1927 225 MT 1927 115 LS
1928 115 MT 1955 115 LS
1955 225 MT 1955 115 LS
1956 225 MT 1983 225 LS
1983 225 MT 1983 115 LS
1984 115 MT 2011 115 LS
2011 225 MT 2011 115 LS
2012 225 MT 2039 225 LS
2039 225 MT 2039 115 LS
2040 115 MT 2067 115 LS
2067 225 MT 2067 115 LS
2068 225 MT 2094 225 LS
2094 225 MT 2094 115 LS
2095 115 MT 2122 115 LS
2122 225 MT 2122 115 LS
2123 225 MT 2150 225 LS
2150 225 MT 2150 115 LS
2151 115 MT 2178 115 LS
2178 225 MT 2178 115 LS
2179 225 MT 2206 225 LS
2206 225 MT 2206 115 LS
2207 115 MT 2234 115 LS
2234 225 MT 2234 115 LS
2235 225 MT 2261 225 LS
2261 225 MT 2261 115 LS
2262 115 MT 2289 115 LS
2289 225 MT 2289 115 LS
2290 225 MT 2317 225 LS
2317 225 MT 2317 115 LS
2318 115 MT 2345 115 LS
2345 225 MT 2345 115 LS
2346 225 MT 2373 225 LS
2373 225 MT 2373 115 LS
2374 115 MT 2401 115 LS
2401 225 MT 2401 115 LS
2402 225 MT 2429 225 LS
2429 225 MT 2429 115 LS
2430 115 MT 2456 115 LS
2456 225 MT 2456 115 LS
2457 225 MT 2484 225 LS
2484 225 MT 2484 115 LS
2485 115 MT 2512 115 LS
2512 225 MT 2512 115 LS
2513 225 MT 2540 225 LS
2540 225 MT 2540 115 LS
2541 115 MT 2568 115 LS
2568 225 MT 2568 115 LS
2569 225 MT 2596 225 LS
2596 225 MT 2596 115 LS
2597 115 MT 2624 115 LS
2624 225 MT 2624 115 LS
2625 225 MT 2651 225 LS
2651 225 MT 2651 115 LS
2652 115 MT 2679 115 LS
2679 225 MT 2679 115 LS
2680 225 MT 2707 225 LS
2707 225 MT 2707 115 LS
2708 115 MT 2735 115 LS
2735 225 MT 2735 115 LS
2736 225 MT 2763 225 LS
2763 225 MT 2763 115 LS
2764 115 MT 2791 115 LS
2791 225 MT 2791 115 LS
2792 225 MT 2818 225 LS
2818 225 MT 2818 115 LS
2819 115 MT 2846 115 LS
2846 225 MT 2846 115 LS
2847 225 MT 2874 225 LS
2874 225 MT 2874 115 LS
2875 115 MT 2902 115 LS
2902 225 MT 2902 115 LS
2903 225 MT 2930 225 LS
2930 225 MT 2930 115 LS
2931 115 MT 2958 115 LS
2958 225 MT 2958 115 LS
2959 225 MT 2986 225 LS
2986 225 MT 2986 115 LS
2987 115 MT 3013 115 LS
3013 225 MT 3013 115 LS
3014 225 MT 3041 225 LS
3041 225 MT 3041 115 LS
3042 115 MT 3069 115 LS
3069 225 MT 3069 115 LS
3070 225 MT 3097 225 LS
3097 225 MT 3097 115 LS
3098 115 MT 3125 115 LS
3125 225 MT 3125 115 LS
3126 225 MT 3153 225 LS
3153 225 MT 3153 115 LS
3154 115 MT 3181 115 LS
3181 225 MT 3181 115 LS
3182 225 MT 3208 225 LS
3208 225 MT 3208 115 LS
3209 115 MT 3236 115 LS
3236 225 MT 3236 115 LS
3237 225 MT 3264 225 LS
3264 225 MT 3264 115 LS
3265 115 MT 3292 115 LS
3292 225 MT 3292 115 LS
3293 225 MT 3320 225 LS
3320 225 MT 3320 115 LS
3321 115 MT 3348 115 LS
3348 225 MT 3348 115 LS
3349 225 MT 3375 225 LS
3375 225 MT 3375 115 LS
3376 115 MT 3403 115 LS
3403 225 MT 3403 115 LS
3404 225 MT 3431 225 LS
3431 225 MT 3431 115 LS
3432 115 MT 3459 115 LS
3459 225 MT 3459 115 LS
3460 225 MT 3487 225 LS
3487 225 MT 3487 115 LS
3488 115 MT 3515 115 LS
3515 225 MT 3515 115 LS
3516 225 MT 3543 225 LS
3543 225 MT 3543 115 LS
3544 115 MT 3570 115 LS
3570 225 MT 3570 115 LS
3571 225 MT 3598 225 LS
3598 225 MT 3598 115 LS
3599 115 MT 3626 115 LS
3626 225 MT 3626 115 LS
3627 225 MT 3654 225 LS
3654 225 MT 3654 115 LS
3655 115 MT 3682 115 LS
3682 225 MT 3682 115 LS
3683 225 MT 3710 225 LS
3710 225 MT 3710 115 LS
3711 115 MT 3738 115 LS
3738 225 MT 3738 115 LS
3739 225 MT 3765 225 LS
3765 225 MT 3765 115 LS
3766 115 MT 3793 115 LS
3793 225 MT 3793 115 LS
3794 225 MT 3821 225 LS
3821 225 MT 3821 115 LS
3822 115 MT 3849 115 LS
3849 225 MT 3849 115 LS
3850 225 MT 3877 225 LS
3877 225 MT 3877 115 LS
3878 115 MT 3905 115 LS
3905 225 MT 3905 115 LS
3906 225 MT 3932 225 LS
3932 225 MT 3932 115 LS
3933 115 MT 3960 115 LS
3960 225 MT 3960 115 LS
3961 225 MT 3988 225 LS
3988 225 MT 3988 115 LS
3989 115 MT 4016 115 LS
4016 225 MT 4016 115 LS
4017 225 MT 4044 225 LS
4044 225 MT 4044 115 LS
4045 115 MT 4072 115 LS
4072 225 MT 4072 115 LS
4073 225 MT 4100 225 LS
4100 225 MT 4100 115 LS
4101 115 MT 4127 115 LS
4127 225 MT 4127 115 LS
4128 225 MT 4155 225 LS
4155 225 MT 4155 115 LS
4156 115 MT 4183 115 LS
4183 225 MT 4183 115 LS
4184 225 MT 4211 225 LS
4211 225 MT 4211 115 LS
4212 115 MT 4239 115 LS
4239 225 MT 4239 115 LS
4240 225 MT 4267 225 LS
4267 225 MT 4267 115 LS
4268 115 MT 4295 115 LS
4295 225 MT 4295 115 LS
4296 225 MT 4322 225 LS
4322 225 MT 4322 115 LS
4323 115 MT 4350 115 LS
4350 225 MT 4350 115 LS
4351 225 MT 4378 225 LS
4378 225 MT 4378 115 LS
4379 115 MT 4406 115 LS
4406 225 MT 4406 115 LS
4407 225 MT 4434 225 LS
4434 225 MT 4434 115 LS
4435 115 MT 4462 115 LS
4462 225 MT 4462 115 LS
4463 225 MT 4489 225 LS
4489 225 MT 4489 115 LS
4490 115 MT 4517 115 LS
4517 225 MT 4517 115 LS
4518 225 MT 4545 225 LS
4545 225 MT 4545 115 LS
4546 115 MT 4573 115 LS
4573 225 MT 4573 115 LS
4574 225 MT 4601 225 LS
4601 225 MT 4601 115 LS
4602 115 MT 4629 115 LS
4629 225 MT 4629 115 LS
4630 225 MT 4657 225 LS
4657 225 MT 4657 115 LS
4658 115 MT 4684 115 LS
4684 225 MT 4684 115 LS
4685 225 MT 4712 225 LS
4712 225 MT 4712 115 LS
4713 115 MT 4740 115 LS
4740 225 MT 4740 115 LS
4741 225 MT 4768 225 LS
4768 225 MT 4768 115 LS
4769 115 MT 4796 115 LS
4796 225 MT 4796 115 LS
4797 225 MT 4824 225 LS
4824 225 MT 4824 115 LS
4825 115 MT 4852 115 LS
4852 225 MT 4852 115 LS
4853 225 MT 4879 225 LS
4879 225 MT 4879 115 LS
4880 115 MT 4907 115 LS
4907 225 MT 4907 115 LS
4908 225 MT 4935 225 LS
4935 225 MT 4935 115 LS
4936 115 MT 4963 115 LS
4963 225 MT 4963 115 LS
4964 225 MT 4991 225 LS
4991 225 MT 4991 115 LS
4992 115 MT 5019 115 LS
5019 225 MT 5019 115 LS
5020 225 MT 5046 225 LS
5046 225 MT 5046 115 LS
5047 115 MT 5074 115 LS
5074 225 MT 5074 115 LS
5075 225 MT 5102 225 LS
5102 225 MT 5102 115 LS
5103 115 MT 5130 115 LS
5130 225 MT 5130 115 LS
5131 225 MT 5158 225 LS
5158 225 MT 5158 115 LS
5159 115 MT 5186 115 LS
5186 225 MT 5186 115 LS
5187 225 MT 5214 225 LS
5214 225 MT 5214 115 LS
5215 115 MT 5241 115 LS
5241 225 MT 5241 115 LS
5242 225 MT 5269 225 LS
5269 225 MT 5269 115 LS
5270 115 MT 5297 115 LS
5297 225 MT 5297 115 LS
5298 225 MT 5325 225 LS
5325 225 MT 5325 115 LS
5326 115 MT 5353 115 LS
5353 225 MT 5353 115 LS
5354 225 MT 5381 225 LS
5381 225 MT 5381 115 LS
5382 115 MT 5409 115 LS
5409 225 MT 5409 115 LS
5410 225 MT 5436 225 LS
5436 225 MT 5436 115 LS
5437 115 MT 5464 115 LS
5464 225 MT 5464 115 LS
5465 225 MT 5492 225 LS
5492 225 MT 5492 115 LS
5493 115 MT 5520 115 LS
5520 225 MT 5520 115 LS
5521 225 MT 5548 225 LS
5548 225 MT 5548 115 LS
5549 115 MT 5576 115 LS
5576 225 MT 5576 115 LS
5577 225 MT 5603 225 LS
5603 225 MT 5603 115 LS
5604 115 MT 5631 115 LS
5631 225 MT 5631 115 LS
5632 225 MT 5659 225 LS
5659 225 MT 5659 115 LS
5660 115 MT 5687 115 LS
5687 225 MT 5687 115 LS
5688 225 MT 5715 225 LS
5715 225 MT 5715 115 LS
5716 115 MT 5743 115 LS
5743 225 MT 5743 115 LS
5744 225 MT 5771 225 LS
5771 225 MT 5771 115 LS
5772 115 MT 5798 115 LS
5798 225 MT 5798 115 LS
5799 225 MT 5826 225 LS
5826 225 MT 5826 115 LS
5827 115 MT 5854 115 LS
5854 225 MT 5854 115 LS
5855 225 MT 5882 225 LS
5882 225 MT 5882 115 LS
5883 115 MT 5910 115 LS
5910 225 MT 5910 115 LS
5911 225 MT 5938 225 LS
5938 225 MT 5938 115 LS
5939 115 MT 5966 115 LS
5966 225 MT 5966 115 LS
5967 225 MT 5993 225 LS
5993 225 MT 5993 115 LS
5994 115 MT 6021 115 LS
6021 225 MT 6021 115 LS
6022 225 MT 6049 225 LS
6049 225 MT 6049 115 LS
6050 115 MT 6077 115 LS
6077 225 MT 6077 115 LS
6078 225 MT 6105 225 LS
6105 225 MT 6105 115 LS
6106 115 MT 6133 115 LS
6133 225 MT 6133 115 LS
6134 225 MT 6160 225 LS
6160 225 MT 6160 115 LS
6161 115 MT 6188 115 LS
6188 225 MT 6188 115 LS
6189 225 MT 6216 225 LS
6216 225 MT 6216 115 LS
6217 115 MT 6244 115 LS
6244 225 MT 6244 115 LS
6245 225 MT 6272 225 LS
6272 225 MT 6272 115 LS
6273 115 MT 6300 115 LS
6300 225 MT 6300 115 LS
6301 225 MT 6328 225 LS
6328 225 MT 6328 115 LS
6329 115 MT 6355 115 LS
6355 225 MT 6355 115 LS
6356 225 MT 6383 225 LS
6383 225 MT 6383 115 LS
6384 115 MT 6411 115 LS
6411 225 MT 6411 115 LS
6412 225 MT 6439 225 LS
6439 225 MT 6439 115 LS
6440 115 MT 6467 115 LS
6467 225 MT 6467 115 LS
6468 225 MT 6495 225 LS
6495 225 MT 6495 115 LS
6496 115 MT 6523 115 LS
6523 225 MT 6523 115 LS
6523 225 MT 6523 225 LS
(0000) -1 LC 967 368 WT pop 0 originOffset 50 add RSS
953 368 MT 953 368 LT 960 313 LT 973 313 LT 980 368 LT ST
953 368 MT 953 368 LT 960 423 LT 973 423 LT 980 368 LT ST
(0002) 362 LC 994 368 WT pop 0 originOffset 50 add RSS
980 368 MT 980 368 LT 987 313 LT 1363 313 LT 1370 368 LT ST
980 368 MT 980 368 LT 987 423 LT 1363 423 LT 1370 368 LT ST
(0004) 362 LC 1384 368 WT pop 0 originOffset 50 add RSS
1370 368 MT 1370 368 LT 1377 313 LT 1753 313 LT 1760 368 LT ST
1370 368 MT 1370 368 LT 1377 423 LT 1753 423 LT 1760 368 LT ST
(0006) 251 LC 1774 368 WT pop 0 originOffset 50 add RSS
1760 368 MT 1760 368 LT 1767 313 LT 2032 313 LT 2039 368 LT ST
1760 368 MT 1760 368 LT 1767 423 LT 2032 423 LT 2039 368 LT ST
(0008) 362 LC 2053 368 WT pop 0 originOffset 50 add RSS
2039 368 MT 2039 368 LT 2046 313 LT 2422 313 LT 2429 368 LT ST
2039 368 MT 2039 368 LT 2046 423 LT 2422 423 LT 2429 368 LT ST
(000a) 250 LC 2443 368 WT pop 0 originOffset 50 add RSS
2429 368 MT 2429 368 LT 2436 313 LT 2700 313 LT 2707 368 LT ST
2429 368 MT 2429 368 LT 2436 423 LT 2700 423 LT 2707 368 LT ST
(000c) 251 LC 2721 368 WT pop 0 originOffset 50 add RSS
2707 368 MT 2707 368 LT 2714 313 LT 2979 313 LT 2986 368 LT ST
2707 368 MT 2707 368 LT 2714 423 LT 2979 423 LT 2986 368 LT ST
(000e) 250 LC 3000 368 WT pop 0 originOffset 50 add RSS
2986 368 MT 2986 368 LT 2993 313 LT 3257 313 LT 3264 368 LT ST
2986 368 MT 2986 368 LT 2993 423 LT 3257 423 LT 3264 368 LT ST
(0010) 251 LC 3278 368 WT pop 0 originOffset 50 add RSS
3264 368 MT 3264 368 LT 3271 313 LT 3536 313 LT 3543 368 LT ST
3264 368 MT 3264 368 LT 3271 423 LT 3536 423 LT 3543 368 LT ST
(0012) 250 LC 3557 368 WT pop 0 originOffset 50 add RSS
3543 368 MT 3543 368 LT 3550 313 LT 3814 313 LT 3821 368 LT ST
3543 368 MT 3543 368 LT 3550 423 LT 3814 423 LT 3821 368 LT ST
(000c) 28 LC 3835 368 WT pop 0 originOffset 50 add RSS
3821 368 MT 3821 368 LT 3828 313 LT 3870 313 LT 3877 368 LT ST
3821 368 MT 3821 368 LT 3828 423 LT 3870 423 LT 3877 368 LT ST
(000e) 250 LC 3891 368 WT pop 0 originOffset 50 add RSS
3877 368 MT 3877 368 LT 3884 313 LT 4148 313 LT 4155 368 LT ST
3877 368 MT 3877 368 LT 3884 423 LT 4148 423 LT 4155 368 LT ST
(0010) 251 LC 4169 368 WT pop 0 originOffset 50 add RSS
4155 368 MT 4155 368 LT 4162 313 LT 4427 313 LT 4434 368 LT ST
4155 368 MT 4155 368 LT 4162 423 LT 4427 423 LT 4434 368 LT ST
(0012) 250 LC 4448 368 WT pop 0 originOffset 50 add RSS
4434 368 MT 4434 368 LT 4441 313 LT 4705 313 LT 4712 368 LT ST
4434 368 MT 4434 368 LT 4441 423 LT 4705 423 LT 4712 368 LT ST
(000c) 28 LC 4726 368 WT pop 0 originOffset 50 add RSS
4712 368 MT 4712 368 LT 4719 313 LT 4761 313 LT 4768 368 LT ST
4712 368 MT 4712 368 LT 4719 423 LT 4761 423 LT 4768 368 LT ST
(000e) 250 LC 4782 368 WT pop 0 originOffset 50 add RSS
4768 368 MT 4768 368 LT 4775 313 LT 5039 313 LT 5046 368 LT ST
4768 368 MT 4768 368 LT 4775 423 LT 5039 423 LT 5046 368 LT ST
(0010) 251 LC 5060 368 WT pop 0 originOffset 50 add RSS
5046 368 MT 5046 368 LT 5053 313 LT 5318 313 LT 5325 368 LT ST
5046 368 MT 5046 368 LT 5053 423 LT 5318 423 LT 5325 368 LT ST
(0012) 250 LC 5339 368 WT pop 0 originOffset 50 add RSS
5325 368 MT 5325 368 LT 5332 313 LT 5596 313 LT 5603 368 LT ST
5325 368 MT 5325 368 LT 5332 423 LT 5596 423 LT 5603 368 LT ST
(000c) 28 LC 5617 368 WT pop 0 originOffset 50 add RSS
5603 368 MT 5603 368 LT 5610 313 LT 5652 313 LT 5659 368 LT ST
5603 368 MT 5603 368 LT 5610 423 LT 5652 423 LT 5659 368 LT ST
(000e) 251 LC 5673 368 WT pop 0 originOffset 50 add RSS
5659 368 MT 5659 368 LT 5666 313 LT 5931 313 LT 5938 368 LT ST
5659 368 MT 5659 368 LT 5666 423 LT 5931 423 LT 5938 368 LT ST
(0010) 250 LC 5952 368 WT pop 0 originOffset 50 add RSS
5938 368 MT 5938 368 LT 5945 313 LT 6209 313 LT 6216 368 LT ST
5938 368 MT 5938 368 LT 5945 423 LT 6209 423 LT 6216 368 LT ST
(0012) 251 LC 6230 368 WT pop 0 originOffset 50 add RSS
6216 368 MT 6216 368 LT 6223 313 LT 6488 313 LT 6495 368 LT ST
6216 368 MT 6216 368 LT 6223 423 LT 6488 423 LT 6495 368 LT ST
(0014) 0 LC 6509 368 WT pop 0 originOffset 50 add RSS
6495 368 MT 6495 368 LT 6502 313 LT 6523 313 LT ST
6495 368 MT 6495 368 LT 6502 423 LT 6523 423 LT ST
(0000) 222 LC 967 566 WT pop 0 originOffset 50 add RSS
953 566 MT 953 566 LT 960 511 LT 1196 511 LT 1203 566 LT ST
953 566 MT 953 566 LT 960 621 LT 1196 621 LT 1203 566 LT ST
(001c) 139 LC 1217 566 WT pop 0 originOffset 50 add RSS
1203 566 MT 1203 566 LT 1210 511 LT 1363 511 LT 1370 566 LT ST
1203 566 MT 1203 566 LT 1210 621 LT 1363 621 LT 1370 566 LT ST
(0002) 195 LC 1384 566 WT pop 0 originOffset 50 add RSS
1370 566 MT 1370 566 LT 1377 511 LT 1586 511 LT 1593 566 LT ST
1370 566 MT 1370 566 LT 1377 621 LT 1586 621 LT 1593 566 LT ST
(001e) 139 LC 1607 566 WT pop 0 originOffset 50 add RSS
1593 566 MT 1593 566 LT 1600 511 LT 1753 511 LT 1760 566 LT ST
1593 566 MT 1593 566 LT 1600 621 LT 1753 621 LT 1760 566 LT ST
(0004) 251 LC 1774 566 WT pop 0 originOffset 50 add RSS
1760 566 MT 1760 566 LT 1767 511 LT 2032 511 LT 2039 566 LT ST
1760 566 MT 1760 566 LT 1767 621 LT 2032 621 LT 2039 566 LT ST
(0006) 194 LC 2053 566 WT pop 0 originOffset 50 add RSS
2039 566 MT 2039 566 LT 2046 511 LT 2254 511 LT 2261 566 LT ST
2039 566 MT 2039 566 LT 2046 621 LT 2254 621 LT 2261 566 LT ST
(001a) 140 LC 2275 566 WT pop 0 originOffset 50 add RSS
2261 566 MT 2261 566 LT 2268 511 LT 2422 511 LT 2429 566 LT ST
2261 566 MT 2261 566 LT 2268 621 LT 2422 621 LT 2429 566 LT ST
(0008) 250 LC 2443 566 WT pop 0 originOffset 50 add RSS
2429 566 MT 2429 566 LT 2436 511 LT 2700 511 LT 2707 566 LT ST
2429 566 MT 2429 566 LT 2436 621 LT 2700 621 LT 2707 566 LT ST
(000a) 251 LC 2721 566 WT pop 0 originOffset 50 add RSS
2707 566 MT 2707 566 LT 2714 511 LT 2979 511 LT 2986 566 LT ST
2707 566 MT 2707 566 LT 2714 621 LT 2979 621 LT 2986 566 LT ST
(000c) 250 LC 3000 566 WT pop 0 originOffset 50 add RSS
2986 566 MT 2986 566 LT 2993 511 LT 3257 511 LT 3264 566 LT ST
2986 566 MT 2986 566 LT 2993 621 LT 3257 621 LT 3264 566 LT ST
(000e) 251 LC 3278 566 WT pop 0 originOffset 50 add RSS
3264 566 MT 3264 566 LT 3271 511 LT 3536 511 LT 3543 566 LT ST
3264 566 MT 3264 566 LT 3271 621 LT 3536 621 LT 3543 566 LT ST
(0010) 306 LC 3557 566 WT pop 0 originOffset 50 add RSS
3543 566 MT 3543 566 LT 3550 511 LT 3870 511 LT 3877 566 LT ST
3543 566 MT 3543 566 LT 3550 621 LT 3870 621 LT 3877 566 LT ST
(000c) 250 LC 3891 566 WT pop 0 originOffset 50 add RSS
3877 566 MT 3877 566 LT 3884 511 LT 4148 511 LT 4155 566 LT ST
3877 566 MT 3877 566 LT 3884 621 LT 4148 621 LT 4155 566 LT ST
(000e) 251 LC 4169 566 WT pop 0 originOffset 50 add RSS
4155 566 MT 4155 566 LT 4162 511 LT 4427 511 LT 4434 566 LT ST
4155 566 MT 4155 566 LT 4162 621 LT 4427 621 LT 4434 566 LT ST
(0010) 306 LC 4448 566 WT pop 0 originOffset 50 add RSS
4434 566 MT 4434 566 LT 4441 511 LT 4761 511 LT 4768 566 LT ST
4434 566 MT 4434 566 LT 4441 621 LT 4761 621 LT 4768 566 LT ST
(000c) 250 LC 4782 566 WT pop 0 originOffset 50 add RSS
4768 566 MT 4768 566 LT 4775 511 LT 5039 511 LT 5046 566 LT ST
4768 566 MT 4768 566 LT 4775 621 LT 5039 621 LT 5046 566 LT ST
(000e) 251 LC 5060 566 WT pop 0 originOffset 50 add RSS
5046 566 MT 5046 566 LT 5053 511 LT 5318 511 LT 5325 566 LT ST
5046 566 MT 5046 566 LT 5053 621 LT 5318 621 LT 5325 566 LT ST
(0010) 306 LC 5339 566 WT pop 0 originOffset 50 add RSS
5325 566 MT 5325 566 LT 5332 511 LT 5652 511 LT 5659 566 LT ST
5325 566 MT 5325 566 LT 5332 621 LT 5652 621 LT 5659 566 LT ST
(000c) 251 LC 5673 566 WT pop 0 originOffset 50 add RSS
5659 566 MT 5659 566 LT 5666 511 LT 5931 511 LT 5938 566 LT ST
5659 566 MT 5659 566 LT 5666 621 LT 5931 621 LT 5938 566 LT ST
(000e) 250 LC 5952 566 WT pop 0 originOffset 50 add RSS
5938 566 MT 5938 566 LT 5945 511 LT 6209 511 LT 6216 566 LT ST
5938 566 MT 5938 566 LT 5945 621 LT 6209 621 LT 6216 566 LT ST
(0010) 251 LC 6230 566 WT pop 0 originOffset 50 add RSS
6216 566 MT 6216 566 LT 6223 511 LT 6488 511 LT 6495 566 LT ST
6216 566 MT 6216 566 LT 6223 621 LT 6488 621 LT 6495 566 LT ST
(0012) 0 LC 6509 566 WT pop 0 originOffset 50 add RSS
6495 566 MT 6495 566 LT 6502 511 LT 6523 511 LT ST
6495 566 MT 6495 566 LT 6502 621 LT 6523 621 LT ST
953 819 MT 953 764 LS
954 819 MT 980 819 LS
980 819 MT 980 709 LS
981 709 MT 1036 709 LS
1036 819 MT 1036 709 LS
1037 819 MT 1203 819 LS
1203 819 MT 1203 709 LS
1204 709 MT 1259 709 LS
1259 819 MT 1259 709 LS
1260 819 MT 1370 819 LS
1370 819 MT 1370 709 LS
1371 709 MT 1426 709 LS
1426 819 MT 1426 709 LS
1427 819 MT 1593 819 LS
1593 819 MT 1593 709 LS
1594 709 MT 1649 709 LS
1649 819 MT 1649 709 LS
1650 819 MT 1760 819 LS
1760 819 MT 1760 709 LS
1761 709 MT 1816 709 LS
1816 819 MT 1816 709 LS
1817 819 MT 2039 819 LS
2039 819 MT 2039 709 LS
2040 709 MT 2094 709 LS
2094 819 MT 2094 709 LS
2095 819 MT 2261 819 LS
2261 819 MT 2261 709 LS
2262 709 MT 2317 709 LS
2317 819 MT 2317 709 LS
2318 819 MT 2429 819 LS
2429 819 MT 2429 709 LS
2430 709 MT 2484 709 LS
2484 819 MT 2484 709 LS
2485 819 MT 2707 819 LS
2707 819 MT 2707 709 LS
2708 709 MT 2763 709 LS
2763 819 MT 2763 709 LS
2764 819 MT 2986 819 LS
2986 819 MT 2986 709 LS
2987 709 MT 3041 709 LS
3041 819 MT 3041 709 LS
3042 819 MT 3264 819 LS
3264 819 MT 3264 709 LS
3265 709 MT 3320 709 LS
3320 819 MT 3320 709 LS
3321 819 MT 3543 819 LS
3543 819 MT 3543 709 LS
3544 709 MT 3598 709 LS
3598 819 MT 3598 709 LS
3599 819 MT 3877 819 LS
3877 819 MT 3877 709 LS
3878 709 MT 3932 709 LS
3932 819 MT 3932 709 LS
3933 819 MT 4155 819 LS
4155 819 MT 4155 709 LS
4156 709 MT 4211 709 LS
4211 819 MT 4211 709 LS
4212 819 MT 4434 819 LS
4434 819 MT 4434 709 LS
4435 709 MT 4489 709 LS
4489 819 MT 4489 709 LS
4490 819 MT 4768 819 LS
4768 819 MT 4768 709 LS
4769 709 MT 4824 709 LS
4824 819 MT 4824 709 LS
4825 819 MT 5046 819 LS
5046 819 MT 5046 709 LS
5047 709 MT 5102 709 LS
5102 819 MT 5102 709 LS
5103 819 MT 5325 819 LS
5325 819 MT 5325 709 LS
5326 709 MT 5381 709 LS
5381 819 MT 5381 709 LS
5382 819 MT 5659 819 LS
5659 819 MT 5659 709 LS
5660 709 MT 5715 709 LS
5715 819 MT 5715 709 LS
5716 819 MT 5938 819 LS
5938 819 MT 5938 709 LS
5939 709 MT 5993 709 LS
5993 819 MT 5993 709 LS
5994 819 MT 6216 819 LS
6216 819 MT 6216 709 LS
6217 709 MT 6272 709 LS
6272 819 MT 6272 709 LS
6273 819 MT 6495 819 LS
6495 819 MT 6495 709 LS
6496 709 MT 6523 709 LS
6523 709 MT 6523 709 LS
(620e) 222 LC 967 962 WT pop 0 originOffset 50 add RSS
953 962 MT 953 962 LT 960 907 LT 1196 907 LT 1203 962 LT ST
953 962 MT 953 962 LT 960 1017 LT 1196 1017 LT 1203 962 LT ST
(0005) 139 LC 1217 962 WT pop 0 originOffset 50 add RSS
1203 962 MT 1203 962 LT 1210 907 LT 1363 907 LT 1370 962 LT ST
1203 962 MT 1203 962 LT 1210 1017 LT 1363 1017 LT 1370 962 LT ST
(6a0f) 195 LC 1384 962 WT pop 0 originOffset 50 add RSS
1370 962 MT 1370 962 LT 1377 907 LT 1586 907 LT 1593 962 LT ST
1370 962 MT 1370 962 LT 1377 1017 LT 1586 1017 LT 1593 962 LT ST
(ffff) 139 LC 1607 962 WT pop 0 originOffset 50 add RSS
1593 962 MT 1593 962 LT 1600 907 LT 1753 907 LT 1760 962 LT ST
1593 962 MT 1593 962 LT 1600 1017 LT 1753 1017 LT 1760 962 LT ST
(1245) 251 LC 1774 962 WT pop 0 originOffset 50 add RSS
1760 962 MT 1760 962 LT 1767 907 LT 2032 907 LT 2039 962 LT ST
1760 962 MT 1760 962 LT 1767 1017 LT 2032 1017 LT 2039 962 LT ST
(640d) 194 LC 2053 962 WT pop 0 originOffset 50 add RSS
2039 962 MT 2039 962 LT 2046 907 LT 2254 907 LT 2261 962 LT ST
2039 962 MT 2039 962 LT 2046 1017 LT 2254 1017 LT 2261 962 LT ST
(0001) 140 LC 2275 962 WT pop 0 originOffset 50 add RSS
2261 962 MT 2261 962 LT 2268 907 LT 2422 907 LT 2429 962 LT ST
2261 962 MT 2261 962 LT 2268 1017 LT 2422 1017 LT 2429 962 LT ST
(1640) 250 LC 2443 962 WT pop 0 originOffset 50 add RSS
2429 962 MT 2429 962 LT 2436 907 LT 2700 907 LT 2707 962 LT ST
2429 962 MT 2429 962 LT 2436 1017 LT 2700 1017 LT 2707 962 LT ST
(1880) 251 LC 2721 962 WT pop 0 originOffset 50 add RSS
2707 962 MT 2707 962 LT 2714 907 LT 2979 907 LT 2986 962 LT ST
2707 962 MT 2707 962 LT 2714 1017 LT 2979 1017 LT 2986 962 LT ST
(1484) 250 LC 3000 962 WT pop 0 originOffset 50 add RSS
2986 962 MT 2986 962 LT 2993 907 LT 3257 907 LT 3264 962 LT ST
2986 962 MT 2986 962 LT 2993 1017 LT 3257 1017 LT 3264 962 LT ST
(16c5) 251 LC 3278 962 WT pop 0 originOffset 50 add RSS
3264 962 MT 3264 962 LT 3271 907 LT 3536 907 LT 3543 962 LT ST
3264 962 MT 3264 962 LT 3271 1017 LT 3536 1017 LT 3543 962 LT ST
(03fd) 306 LC 3557 962 WT pop 0 originOffset 50 add RSS
3543 962 MT 3543 962 LT 3550 907 LT 3870 907 LT 3877 962 LT ST
3543 962 MT 3543 962 LT 3550 1017 LT 3870 1017 LT 3877 962 LT ST
(1484) 250 LC 3891 962 WT pop 0 originOffset 50 add RSS
3877 962 MT 3877 962 LT 3884 907 LT 4148 907 LT 4155 962 LT ST
3877 962 MT 3877 962 LT 3884 1017 LT 4148 1017 LT 4155 962 LT ST
(16c5) 251 LC 4169 962 WT pop 0 originOffset 50 add RSS
4155 962 MT 4155 962 LT 4162 907 LT 4427 907 LT 4434 962 LT ST
4155 962 MT 4155 962 LT 4162 1017 LT 4427 1017 LT 4434 962 LT ST
(03fd) 306 LC 4448 962 WT pop 0 originOffset 50 add RSS
4434 962 MT 4434 962 LT 4441 907 LT 4761 907 LT 4768 962 LT ST
4434 962 MT 4434 962 LT 4441 1017 LT 4761 1017 LT 4768 962 LT ST
(1484) 250 LC 4782 962 WT pop 0 originOffset 50 add RSS
4768 962 MT 4768 962 LT 4775 907 LT 5039 907 LT 5046 962 LT ST
4768 962 MT 4768 962 LT 4775 1017 LT 5039 1017 LT 5046 962 LT ST
(16c5) 251 LC 5060 962 WT pop 0 originOffset 50 add RSS
5046 962 MT 5046 962 LT 5053 907 LT 5318 907 LT 5325 962 LT ST
5046 962 MT 5046 962 LT 5053 1017 LT 5318 1017 LT 5325 962 LT ST
(03fd) 306 LC 5339 962 WT pop 0 originOffset 50 add RSS
5325 962 MT 5325 962 LT 5332 907 LT 5652 907 LT 5659 962 LT ST
5325 962 MT 5325 962 LT 5332 1017 LT 5652 1017 LT 5659 962 LT ST
(1484) 251 LC 5673 962 WT pop 0 originOffset 50 add RSS
5659 962 MT 5659 962 LT 5666 907 LT 5931 907 LT 5938 962 LT ST
5659 962 MT 5659 962 LT 5666 1017 LT 5931 1017 LT 5938 962 LT ST
(16c5) 250 LC 5952 962 WT pop 0 originOffset 50 add RSS
5938 962 MT 5938 962 LT 5945 907 LT 6209 907 LT 6216 962 LT ST
5938 962 MT 5938 962 LT 5945 1017 LT 6209 1017 LT 6216 962 LT ST
(03fd) 251 LC 6230 962 WT pop 0 originOffset 50 add RSS
6216 962 MT 6216 962 LT 6223 907 LT 6488 907 LT 6495 962 LT ST
6216 962 MT 6216 962 LT 6223 1017 LT 6488 1017 LT 6495 962 LT ST
(1245) 0 LC 6509 962 WT pop 0 originOffset 50 add RSS
6495 962 MT 6495 962 LT 6502 907 LT 6523 907 LT ST
6495 962 MT 6495 962 LT 6502 1017 LT 6523 1017 LT ST
953 1215 MT 953 1160 LS
954 1215 MT 6523 1215 LS
6523 1215 MT 6523 1215 LS
(3) 5542 LC 967 1358 WT pop 0 originOffset 50 add RSS
953 1358 MT 953 1358 LT 960 1303 LT 6523 1303 LT ST
953 1358 MT 953 1358 LT 960 1413 LT 6523 1413 LT ST
(0000) 55 LC 967 1556 WT pop 0 originOffset 50 add RSS
953 1556 MT 953 1556 LT 960 1501 LT 1029 1501 LT 1036 1556 LT ST
953 1556 MT 953 1556 LT 960 1611 LT 1029 1611 LT 1036 1556 LT ST
(620e) 195 LC 1050 1556 WT pop 0 originOffset 50 add RSS
1036 1556 MT 1036 1556 LT 1043 1501 LT 1252 1501 LT 1259 1556 LT ST
1036 1556 MT 1036 1556 LT 1043 1611 LT 1252 1611 LT 1259 1556 LT ST
(0005) 139 LC 1273 1556 WT pop 0 originOffset 50 add RSS
1259 1556 MT 1259 1556 LT 1266 1501 LT 1419 1501 LT 1426 1556 LT ST
1259 1556 MT 1259 1556 LT 1266 1611 LT 1419 1611 LT 1426 1556 LT ST
(6a0f) 195 LC 1440 1556 WT pop 0 originOffset 50 add RSS
1426 1556 MT 1426 1556 LT 1433 1501 LT 1642 1501 LT 1649 1556 LT ST
1426 1556 MT 1426 1556 LT 1433 1611 LT 1642 1611 LT 1649 1556 LT ST
(ffff) 139 LC 1663 1556 WT pop 0 originOffset 50 add RSS
1649 1556 MT 1649 1556 LT 1656 1501 LT 1809 1501 LT 1816 1556 LT ST
1649 1556 MT 1649 1556 LT 1656 1611 LT 1809 1611 LT 1816 1556 LT ST
(1245) 250 LC 1830 1556 WT pop 0 originOffset 50 add RSS
1816 1556 MT 1816 1556 LT 1823 1501 LT 2087 1501 LT 2094 1556 LT ST
1816 1556 MT 1816 1556 LT 1823 1611 LT 2087 1611 LT 2094 1556 LT ST
(640d) 195 LC 2108 1556 WT pop 0 originOffset 50 add RSS
2094 1556 MT 2094 1556 LT 2101 1501 LT 2310 1501 LT 2317 1556 LT ST
2094 1556 MT 2094 1556 LT 2101 1611 LT 2310 1611 LT 2317 1556 LT ST
(0001) 139 LC 2331 1556 WT pop 0 originOffset 50 add RSS
2317 1556 MT 2317 1556 LT 2324 1501 LT 2477 1501 LT 2484 1556 LT ST
2317 1556 MT 2317 1556 LT 2324 1611 LT 2477 1611 LT 2484 1556 LT ST
(1640) 251 LC 2498 1556 WT pop 0 originOffset 50 add RSS
2484 1556 MT 2484 1556 LT 2491 1501 LT 2756 1501 LT 2763 1556 LT ST
2484 1556 MT 2484 1556 LT 2491 1611 LT 2756 1611 LT 2763 1556 LT ST
(1880) 250 LC 2777 1556 WT pop 0 originOffset 50 add RSS
2763 1556 MT 2763 1556 LT 2770 1501 LT 3034 1501 LT 3041 1556 LT ST
2763 1556 MT 2763 1556 LT 2770 1611 LT 3034 1611 LT 3041 1556 LT ST
(1484) 251 LC 3055 1556 WT pop 0 originOffset 50 add RSS
3041 1556 MT 3041 1556 LT 3048 1501 LT 3313 1501 LT 3320 1556 LT ST
3041 1556 MT 3041 1556 LT 3048 1611 LT 3313 1611 LT 3320 1556 LT ST
(16c5) 250 LC 3334 1556 WT pop 0 originOffset 50 add RSS
3320 1556 MT 3320 1556 LT 3327 1501 LT 3591 1501 LT 3598 1556 LT ST
3320 1556 MT 3320 1556 LT 3327 1611 LT 3591 1611 LT 3598 1556 LT ST
(03fd) 306 LC 3612 1556 WT pop 0 originOffset 50 add RSS
3598 1556 MT 3598 1556 LT 3605 1501 LT 3925 1501 LT 3932 1556 LT ST
3598 1556 MT 3598 1556 LT 3605 1611 LT 3925 1611 LT 3932 1556 LT ST
(1484) 251 LC 3946 1556 WT pop 0 originOffset 50 add RSS
3932 1556 MT 3932 1556 LT 3939 1501 LT 4204 1501 LT 4211 1556 LT ST
3932 1556 MT 3932 1556 LT 3939 1611 LT 4204 1611 LT 4211 1556 LT ST
(16c5) 250 LC 4225 1556 WT pop 0 originOffset 50 add RSS
4211 1556 MT 4211 1556 LT 4218 1501 LT 4482 1501 LT 4489 1556 LT ST
4211 1556 MT 4211 1556 LT 4218 1611 LT 4482 1611 LT 4489 1556 LT ST
(03fd) 307 LC 4503 1556 WT pop 0 originOffset 50 add RSS
4489 1556 MT 4489 1556 LT 4496 1501 LT 4817 1501 LT 4824 1556 LT ST
4489 1556 MT 4489 1556 LT 4496 1611 LT 4817 1611 LT 4824 1556 LT ST
(1484) 250 LC 4838 1556 WT pop 0 originOffset 50 add RSS
4824 1556 MT 4824 1556 LT 4831 1501 LT 5095 1501 LT 5102 1556 LT ST
4824 1556 MT 4824 1556 LT 4831 1611 LT 5095 1611 LT 5102 1556 LT ST
(16c5) 251 LC 5116 1556 WT pop 0 originOffset 50 add RSS
5102 1556 MT 5102 1556 LT 5109 1501 LT 5374 1501 LT 5381 1556 LT ST
5102 1556 MT 5102 1556 LT 5109 1611 LT 5374 1611 LT 5381 1556 LT ST
(03fd) 306 LC 5395 1556 WT pop 0 originOffset 50 add RSS
5381 1556 MT 5381 1556 LT 5388 1501 LT 5708 1501 LT 5715 1556 LT ST
5381 1556 MT 5381 1556 LT 5388 1611 LT 5708 1611 LT 5715 1556 LT ST
(1484) 250 LC 5729 1556 WT pop 0 originOffset 50 add RSS
5715 1556 MT 5715 1556 LT 5722 1501 LT 5986 1501 LT 5993 1556 LT ST
5715 1556 MT 5715 1556 LT 5722 1611 LT 5986 1611 LT 5993 1556 LT ST
(16c5) 251 LC 6007 1556 WT pop 0 originOffset 50 add RSS
5993 1556 MT 5993 1556 LT 6000 1501 LT 6265 1501 LT 6272 1556 LT ST
5993 1556 MT 5993 1556 LT 6000 1611 LT 6265 1611 LT 6272 1556 LT ST
(03fd) 223 LC 6286 1556 WT pop 0 originOffset 50 add RSS
6272 1556 MT 6272 1556 LT 6279 1501 LT 6523 1501 LT ST
6272 1556 MT 6272 1556 LT 6279 1611 LT 6523 1611 LT ST
(0000 0000 0000 0000 0000 0000 0000 0000) 334 LC 967 1754 WT pop 0 originOffset 50 add RSS
953 1754 MT 953 1754 LT 960 1699 LT 1308 1699 LT 1315 1754 LT ST
953 1754 MT 953 1754 LT 960 1809 LT 1308 1809 LT 1315 1754 LT ST
(0000 0000 0000 0000 0000 0000 0005 0000) 361 LC 1329 1754 WT pop 0 originOffset 50 add RSS
1315 1754 MT 1315 1754 LT 1322 1699 LT 1697 1699 LT 1704 1754 LT ST
1315 1754 MT 1315 1754 LT 1322 1809 LT 1697 1809 LT 1704 1754 LT ST
(0000 0000 ffff 0000 0000 0000 0005 0000) 251 LC 1718 1754 WT pop 0 originOffset 50 add RSS
1704 1754 MT 1704 1754 LT 1711 1699 LT 1976 1699 LT 1983 1754 LT ST
1704 1754 MT 1704 1754 LT 1711 1809 LT 1976 1809 LT 1983 1754 LT ST
(0000 0000 ffff 0000 0000 0000 0004 0000) 362 LC 1997 1754 WT pop 0 originOffset 50 add RSS
1983 1754 MT 1983 1754 LT 1990 1699 LT 2366 1699 LT 2373 1754 LT ST
1983 1754 MT 1983 1754 LT 1990 1809 LT 2366 1809 LT 2373 1754 LT ST
(0000 0000 ffff 0000 0000 0001 0004 0000) 250 LC 2387 1754 WT pop 0 originOffset 50 add RSS
2373 1754 MT 2373 1754 LT 2380 1699 LT 2644 1699 LT 2651 1754 LT ST
2373 1754 MT 2373 1754 LT 2380 1809 LT 2644 1809 LT 2651 1754 LT ST
(0000 0000 ffff 0000 0004 0001 0004 0000) 251 LC 2665 1754 WT pop 0 originOffset 50 add RSS
2651 1754 MT 2651 1754 LT 2658 1699 LT 2923 1699 LT 2930 1754 LT ST
2651 1754 MT 2651 1754 LT 2658 1809 LT 2923 1809 LT 2930 1754 LT ST
(0000 0000 ffff 0001 0004 0001 0004 0000) 250 LC 2944 1754 WT pop 0 originOffset 50 add RSS
2930 1754 MT 2930 1754 LT 2937 1699 LT 3201 1699 LT 3208 1754 LT ST
2930 1754 MT 2930 1754 LT 2937 1809 LT 3201 1809 LT 3208 1754 LT ST
(0000 0000 ffff 0001 0004 0002 0004 0000) 251 LC 3222 1754 WT pop 0 originOffset 50 add RSS
3208 1754 MT 3208 1754 LT 3215 1699 LT 3480 1699 LT 3487 1754 LT ST
3208 1754 MT 3208 1754 LT 3215 1809 LT 3480 1809 LT 3487 1754 LT ST
(0000 0000 ffff 0001 0003 0002 0004 0000) 585 LC 3501 1754 WT pop 0 originOffset 50 add RSS
3487 1754 MT 3487 1754 LT 3494 1699 LT 4093 1699 LT 4100 1754 LT ST
3487 1754 MT 3487 1754 LT 3494 1809 LT 4093 1809 LT 4100 1754 LT ST
(0000 0000 ffff 0001 0003 0003 0004 0000) 250 LC 4114 1754 WT pop 0 originOffset 50 add RSS
4100 1754 MT 4100 1754 LT 4107 1699 LT 4371 1699 LT 4378 1754 LT ST
4100 1754 MT 4100 1754 LT 4107 1809 LT 4371 1809 LT 4378 1754 LT ST
(0000 0000 ffff 0001 0002 0003 0004 0000) 585 LC 4392 1754 WT pop 0 originOffset 50 add RSS
4378 1754 MT 4378 1754 LT 4385 1699 LT 4984 1699 LT 4991 1754 LT ST
4378 1754 MT 4378 1754 LT 4385 1809 LT 4984 1809 LT 4991 1754 LT ST
(0000 0000 ffff 0001 0002 0004 0004 0000) 250 LC 5005 1754 WT pop 0 originOffset 50 add RSS
4991 1754 MT 4991 1754 LT 4998 1699 LT 5262 1699 LT 5269 1754 LT ST
4991 1754 MT 4991 1754 LT 4998 1809 LT 5262 1809 LT 5269 1754 LT ST
(0000 0000 ffff 0001 0001 0004 0004 0000) 585 LC 5283 1754 WT pop 0 originOffset 50 add RSS
5269 1754 MT 5269 1754 LT 5276 1699 LT 5875 1699 LT 5882 1754 LT ST
5269 1754 MT 5269 1754 LT 5276 1809 LT 5875 1809 LT 5882 1754 LT ST
(0000 0000 ffff 0001 0001 0005 0004 0000) 250 LC 5896 1754 WT pop 0 originOffset 50 add RSS
5882 1754 MT 5882 1754 LT 5889 1699 LT 6153 1699 LT 6160 1754 LT ST
5882 1754 MT 5882 1754 LT 5889 1809 LT 6153 1809 LT 6160 1754 LT ST
(0000 0000 ffff 0001 0000 0005 0004 0000) 335 LC 6174 1754 WT pop 0 originOffset 50 add RSS
6160 1754 MT 6160 1754 LT 6167 1699 LT 6523 1699 LT ST
6160 1754 MT 6160 1754 LT 6167 1809 LT 6523 1809 LT ST
(0000) 5542 LC 967 1941 WT pop 0 originOffset 50 add RSS
953 1941 MT 953 1941 LT 960 1886 LT 6523 1886 LT ST
953 1941 MT 953 1941 LT 960 1996 LT 6523 1996 LT ST
(0000) 5542 LC 967 2117 WT pop 0 originOffset 50 add RSS
953 2117 MT 953 2117 LT 960 2062 LT 6523 2062 LT ST
953 2117 MT 953 2117 LT 960 2172 LT 6523 2172 LT ST
(0000) 723 LC 967 2293 WT pop 0 originOffset 50 add RSS
953 2293 MT 953 2293 LT 960 2238 LT 1697 2238 LT 1704 2293 LT ST
953 2293 MT 953 2293 LT 960 2348 LT 1697 2348 LT 1704 2293 LT ST
(ffff) 4791 LC 1718 2293 WT pop 0 originOffset 50 add RSS
1704 2293 MT 1704 2293 LT 1711 2238 LT 6523 2238 LT ST
1704 2293 MT 1704 2293 LT 1711 2348 LT 6523 2348 LT ST
(0000) 1949 LC 967 2469 WT pop 0 originOffset 50 add RSS
953 2469 MT 953 2469 LT 960 2414 LT 2923 2414 LT 2930 2469 LT ST
953 2469 MT 953 2469 LT 960 2524 LT 2923 2524 LT 2930 2469 LT ST
(0001) 3565 LC 2944 2469 WT pop 0 originOffset 50 add RSS
2930 2469 MT 2930 2469 LT 2937 2414 LT 6523 2414 LT ST
2930 2469 MT 2930 2469 LT 2937 2524 LT 6523 2524 LT ST
(0000) 1670 LC 967 2645 WT pop 0 originOffset 50 add RSS
953 2645 MT 953 2645 LT 960 2590 LT 2644 2590 LT 2651 2645 LT ST
953 2645 MT 953 2645 LT 960 2700 LT 2644 2700 LT 2651 2645 LT ST
(0004) 808 LC 2665 2645 WT pop 0 originOffset 50 add RSS
2651 2645 MT 2651 2645 LT 2658 2590 LT 3480 2590 LT 3487 2645 LT ST
2651 2645 MT 2651 2645 LT 2658 2700 LT 3480 2700 LT 3487 2645 LT ST
(0003) 863 LC 3501 2645 WT pop 0 originOffset 50 add RSS
3487 2645 MT 3487 2645 LT 3494 2590 LT 4371 2590 LT 4378 2645 LT ST
3487 2645 MT 3487 2645 LT 3494 2700 LT 4371 2700 LT 4378 2645 LT ST
(0002) 863 LC 4392 2645 WT pop 0 originOffset 50 add RSS
4378 2645 MT 4378 2645 LT 4385 2590 LT 5262 2590 LT 5269 2645 LT ST
4378 2645 MT 4378 2645 LT 4385 2700 LT 5262 2700 LT 5269 2645 LT ST
(0001) 863 LC 5283 2645 WT pop 0 originOffset 50 add RSS
5269 2645 MT 5269 2645 LT 5276 2590 LT 6153 2590 LT 6160 2645 LT ST
5269 2645 MT 5269 2645 LT 5276 2700 LT 6153 2700 LT 6160 2645 LT ST
(0000) 335 LC 6174 2645 WT pop 0 originOffset 50 add RSS
6160 2645 MT 6160 2645 LT 6167 2590 LT 6523 2590 LT ST
6160 2645 MT 6160 2645 LT 6167 2700 LT 6523 2700 LT ST
(0000) 1392 LC 967 2821 WT pop 0 originOffset 50 add RSS
953 2821 MT 953 2821 LT 960 2766 LT 2366 2766 LT 2373 2821 LT ST
953 2821 MT 953 2821 LT 960 2876 LT 2366 2876 LT 2373 2821 LT ST
(0001) 807 LC 2387 2821 WT pop 0 originOffset 50 add RSS
2373 2821 MT 2373 2821 LT 2380 2766 LT 3201 2766 LT 3208 2821 LT ST
2373 2821 MT 2373 2821 LT 2380 2876 LT 3201 2876 LT 3208 2821 LT ST
(0002) 864 LC 3222 2821 WT pop 0 originOffset 50 add RSS
3208 2821 MT 3208 2821 LT 3215 2766 LT 4093 2766 LT 4100 2821 LT ST
3208 2821 MT 3208 2821 LT 3215 2876 LT 4093 2876 LT 4100 2821 LT ST
(0003) 863 LC 4114 2821 WT pop 0 originOffset 50 add RSS
4100 2821 MT 4100 2821 LT 4107 2766 LT 4984 2766 LT 4991 2821 LT ST
4100 2821 MT 4100 2821 LT 4107 2876 LT 4984 2876 LT 4991 2821 LT ST
(0004) 863 LC 5005 2821 WT pop 0 originOffset 50 add RSS
4991 2821 MT 4991 2821 LT 4998 2766 LT 5875 2766 LT 5882 2821 LT ST
4991 2821 MT 4991 2821 LT 4998 2876 LT 5875 2876 LT 5882 2821 LT ST
(0005) 613 LC 5896 2821 WT pop 0 originOffset 50 add RSS
5882 2821 MT 5882 2821 LT 5889 2766 LT 6523 2766 LT ST
5882 2821 MT 5882 2821 LT 5889 2876 LT 6523 2876 LT ST
(0000) 334 LC 967 2997 WT pop 0 originOffset 50 add RSS
953 2997 MT 953 2997 LT 960 2942 LT 1308 2942 LT 1315 2997 LT ST
953 2997 MT 953 2997 LT 960 3052 LT 1308 3052 LT 1315 2997 LT ST
(0005) 640 LC 1329 2997 WT pop 0 originOffset 50 add RSS
1315 2997 MT 1315 2997 LT 1322 2942 LT 1976 2942 LT 1983 2997 LT ST
1315 2997 MT 1315 2997 LT 1322 3052 LT 1976 3052 LT 1983 2997 LT ST
(0004) 4512 LC 1997 2997 WT pop 0 originOffset 50 add RSS
1983 2997 MT 1983 2997 LT 1990 2942 LT 6523 2942 LT ST
1983 2997 MT 1983 2997 LT 1990 3052 LT 6523 3052 LT ST
(0000) 5542 LC 967 3173 WT pop 0 originOffset 50 add RSS
953 3173 MT 953 3173 LT 960 3118 LT 6523 3118 LT ST
953 3173 MT 953 3173 LT 960 3228 LT 6523 3228 LT ST
% draw timeline
(0.00 ns) 9999 LC 953 4822 WT TS RSS
1003 4680 MT 1003 4717 LS
1002 4699 MT 1004 4699 LS
1009 4680 MT 1009 4717 LS
1064 4680 MT 1064 4717 LS
1120 4680 MT 1120 4717 LS
1176 4680 MT 1176 4717 LS
1232 4680 MT 1232 4717 LS
1287 4680 MT 1287 4717 LS
1343 4680 MT 1343 4717 LS
1399 4680 MT 1399 4717 LS
1454 4680 MT 1454 4717 LS
1510 4653 MT 1510 4717 LS
1566 4680 MT 1566 4717 LS
1621 4680 MT 1621 4717 LS
1677 4680 MT 1677 4717 LS
1733 4680 MT 1733 4717 LS
1789 4680 MT 1789 4717 LS
1844 4680 MT 1844 4717 LS
1900 4680 MT 1900 4717 LS
1956 4680 MT 1956 4717 LS
2011 4680 MT 2011 4717 LS
2067 4653 MT 2067 4717 LS
(200 ns) 9999 LC 2067 4822 WT TS RSS
2123 4680 MT 2123 4717 LS
2178 4680 MT 2178 4717 LS
2234 4680 MT 2234 4717 LS
2290 4680 MT 2290 4717 LS
2346 4680 MT 2346 4717 LS
2401 4680 MT 2401 4717 LS
2457 4680 MT 2457 4717 LS
2513 4680 MT 2513 4717 LS
2568 4680 MT 2568 4717 LS
2624 4653 MT 2624 4717 LS
2680 4680 MT 2680 4717 LS
2735 4680 MT 2735 4717 LS
2791 4680 MT 2791 4717 LS
2847 4680 MT 2847 4717 LS
2903 4680 MT 2903 4717 LS
2958 4680 MT 2958 4717 LS
3014 4680 MT 3014 4717 LS
3070 4680 MT 3070 4717 LS
3125 4680 MT 3125 4717 LS
3181 4653 MT 3181 4717 LS
(400 ns) 9999 LC 3181 4822 WT TS RSS
3237 4680 MT 3237 4717 LS
3292 4680 MT 3292 4717 LS
3348 4680 MT 3348 4717 LS
3404 4680 MT 3404 4717 LS
3460 4680 MT 3460 4717 LS
3515 4680 MT 3515 4717 LS
3571 4680 MT 3571 4717 LS
3627 4680 MT 3627 4717 LS
3682 4680 MT 3682 4717 LS
3738 4653 MT 3738 4717 LS
3794 4680 MT 3794 4717 LS
3849 4680 MT 3849 4717 LS
3905 4680 MT 3905 4717 LS
3961 4680 MT 3961 4717 LS
4017 4680 MT 4017 4717 LS
4072 4680 MT 4072 4717 LS
4128 4680 MT 4128 4717 LS
4184 4680 MT 4184 4717 LS
4239 4680 MT 4239 4717 LS
4295 4653 MT 4295 4717 LS
(600 ns) 9999 LC 4295 4822 WT TS RSS
4351 4680 MT 4351 4717 LS
4406 4680 MT 4406 4717 LS
4462 4680 MT 4462 4717 LS
4518 4680 MT 4518 4717 LS
4574 4680 MT 4574 4717 LS
4629 4680 MT 4629 4717 LS
4685 4680 MT 4685 4717 LS
4741 4680 MT 4741 4717 LS
4796 4680 MT 4796 4717 LS
4852 4653 MT 4852 4717 LS
4908 4680 MT 4908 4717 LS
4963 4680 MT 4963 4717 LS
5019 4680 MT 5019 4717 LS
5075 4680 MT 5075 4717 LS
5131 4680 MT 5131 4717 LS
5186 4680 MT 5186 4717 LS
5242 4680 MT 5242 4717 LS
5298 4680 MT 5298 4717 LS
5353 4680 MT 5353 4717 LS
5409 4653 MT 5409 4717 LS
(800 ns) 9999 LC 5409 4822 WT TS RSS
5465 4680 MT 5465 4717 LS
5520 4680 MT 5520 4717 LS
5576 4680 MT 5576 4717 LS
5632 4680 MT 5632 4717 LS
5688 4680 MT 5688 4717 LS
5743 4680 MT 5743 4717 LS
5799 4680 MT 5799 4717 LS
5855 4680 MT 5855 4717 LS
5910 4680 MT 5910 4717 LS
5966 4653 MT 5966 4717 LS
6022 4680 MT 6022 4717 LS
6077 4680 MT 6077 4717 LS
6133 4680 MT 6133 4717 LS
6189 4680 MT 6189 4717 LS
6245 4680 MT 6245 4717 LS
6300 4680 MT 6300 4717 LS
6356 4680 MT 6356 4717 LS
6412 4680 MT 6412 4717 LS
6467 4680 MT 6467 4717 LS
6523 4653 MT 6523 4717 LS
(1000 ns) 9999 LC 6523 4822 WT TS RSS
6579 4680 MT 6579 4717 LS
6634 4680 MT 6634 4717 LS
6690 4680 MT 6690 4717 LS
6746 4680 MT 6746 4717 LS
6802 4680 MT 6802 4717 LS
6857 4680 MT 6857 4717 LS
6913 4680 MT 6913 4717 LS
6969 4680 MT 6969 4717 LS
7024 4680 MT 7024 4717 LS
% draw grid
1510 75 MT 1510 4653 LS
2067 75 MT 2067 4653 LS
2624 75 MT 2624 4653 LS
3181 75 MT 3181 4653 LS
3738 75 MT 3738 4653 LS
4295 75 MT 4295 4653 LS
4852 75 MT 4852 4653 LS
5409 75 MT 5409 4653 LS
5966 75 MT 5966 4653 LS
6523 75 MT 6523 4653 LS
% draw waveforms
(clk) 9999 LC 916 224 WT TSE RSS
1503 75 MT 1517 75 LS
2060 75 MT 2074 75 LS
2617 75 MT 2631 75 LS
3174 75 MT 3188 75 LS
3731 75 MT 3745 75 LS
4288 75 MT 4302 75 LS
4845 75 MT 4859 75 LS
5402 75 MT 5416 75 LS
5959 75 MT 5973 75 LS
6516 75 MT 6530 75 LS
953 225 MT 953 170 LS
954 225 MT 980 225 LS
980 225 MT 980 115 LS
981 115 MT 1008 115 LS
1008 225 MT 1008 115 LS
1009 225 MT 1036 225 LS
1036 225 MT 1036 115 LS
1037 115 MT 1064 115 LS
1064 225 MT 1064 115 LS
1065 225 MT 1092 225 LS
1092 225 MT 1092 115 LS
1093 115 MT 1120 115 LS
1120 225 MT 1120 115 LS
1121 225 MT 1147 225 LS
1147 225 MT 1147 115 LS
1148 115 MT 1175 115 LS
1175 225 MT 1175 115 LS
1176 225 MT 1203 225 LS
1203 225 MT 1203 115 LS
1204 115 MT 1231 115 LS
1231 225 MT 1231 115 LS
1232 225 MT 1259 225 LS
1259 225 MT 1259 115 LS
1260 115 MT 1287 115 LS
1287 225 MT 1287 115 LS
1288 225 MT 1315 225 LS
1315 225 MT 1315 115 LS
1316 115 MT 1342 115 LS
1342 225 MT 1342 115 LS
1343 225 MT 1370 225 LS
1370 225 MT 1370 115 LS
1371 115 MT 1398 115 LS
1398 225 MT 1398 115 LS
1399 225 MT 1426 225 LS
1426 225 MT 1426 115 LS
1427 115 MT 1454 115 LS
1454 225 MT 1454 115 LS
1455 225 MT 1482 225 LS
1482 225 MT 1482 115 LS
1483 115 MT 1510 115 LS
1510 225 MT 1510 115 LS
1511 225 MT 1537 225 LS
1537 225 MT 1537 115 LS
1538 115 MT 1565 115 LS
1565 225 MT 1565 115 LS
1566 225 MT 1593 225 LS
1593 225 MT 1593 115 LS
1594 115 MT 1621 115 LS
1621 225 MT 1621 115 LS
1622 225 MT 1649 225 LS
1649 225 MT 1649 115 LS
1650 115 MT 1677 115 LS
1677 225 MT 1677 115 LS
1678 225 MT 1704 225 LS
1704 225 MT 1704 115 LS
1705 115 MT 1732 115 LS
1732 225 MT 1732 115 LS
1733 225 MT 1760 225 LS
1760 225 MT 1760 115 LS
1761 115 MT 1788 115 LS
1788 225 MT 1788 115 LS
1789 225 MT 1816 225 LS
1816 225 MT 1816 115 LS
1817 115 MT 1844 115 LS
1844 225 MT 1844 115 LS
1845 225 MT 1872 225 LS
1872 225 MT 1872 115 LS
1873 115 MT 1899 115 LS
1899 225 MT 1899 115 LS
1900 225 MT 1927 225 LS
1927 225 MT 1927 115 LS
1928 115 MT 1955 115 LS
1955 225 MT 1955 115 LS
1956 225 MT 1983 225 LS
1983 225 MT 1983 115 LS
1984 115 MT 2011 115 LS
2011 225 MT 2011 115 LS
2012 225 MT 2039 225 LS
2039 225 MT 2039 115 LS
2040 115 MT 2067 115 LS
2067 225 MT 2067 115 LS
2068 225 MT 2094 225 LS
2094 225 MT 2094 115 LS
2095 115 MT 2122 115 LS
2122 225 MT 2122 115 LS
2123 225 MT 2150 225 LS
2150 225 MT 2150 115 LS
2151 115 MT 2178 115 LS
2178 225 MT 2178 115 LS
2179 225 MT 2206 225 LS
2206 225 MT 2206 115 LS
2207 115 MT 2234 115 LS
2234 225 MT 2234 115 LS
2235 225 MT 2261 225 LS
2261 225 MT 2261 115 LS
2262 115 MT 2289 115 LS
2289 225 MT 2289 115 LS
2290 225 MT 2317 225 LS
2317 225 MT 2317 115 LS
2318 115 MT 2345 115 LS
2345 225 MT 2345 115 LS
2346 225 MT 2373 225 LS
2373 225 MT 2373 115 LS
2374 115 MT 2401 115 LS
2401 225 MT 2401 115 LS
2402 225 MT 2429 225 LS
2429 225 MT 2429 115 LS
2430 115 MT 2456 115 LS
2456 225 MT 2456 115 LS
2457 225 MT 2484 225 LS
2484 225 MT 2484 115 LS
2485 115 MT 2512 115 LS
2512 225 MT 2512 115 LS
2513 225 MT 2540 225 LS
2540 225 MT 2540 115 LS
2541 115 MT 2568 115 LS
2568 225 MT 2568 115 LS
2569 225 MT 2596 225 LS
2596 225 MT 2596 115 LS
2597 115 MT 2624 115 LS
2624 225 MT 2624 115 LS
2625 225 MT 2651 225 LS
2651 225 MT 2651 115 LS
2652 115 MT 2679 115 LS
2679 225 MT 2679 115 LS
2680 225 MT 2707 225 LS
2707 225 MT 2707 115 LS
2708 115 MT 2735 115 LS
2735 225 MT 2735 115 LS
2736 225 MT 2763 225 LS
2763 225 MT 2763 115 LS
2764 115 MT 2791 115 LS
2791 225 MT 2791 115 LS
2792 225 MT 2818 225 LS
2818 225 MT 2818 115 LS
2819 115 MT 2846 115 LS
2846 225 MT 2846 115 LS
2847 225 MT 2874 225 LS
2874 225 MT 2874 115 LS
2875 115 MT 2902 115 LS
2902 225 MT 2902 115 LS
2903 225 MT 2930 225 LS
2930 225 MT 2930 115 LS
2931 115 MT 2958 115 LS
2958 225 MT 2958 115 LS
2959 225 MT 2986 225 LS
2986 225 MT 2986 115 LS
2987 115 MT 3013 115 LS
3013 225 MT 3013 115 LS
3014 225 MT 3041 225 LS
3041 225 MT 3041 115 LS
3042 115 MT 3069 115 LS
3069 225 MT 3069 115 LS
3070 225 MT 3097 225 LS
3097 225 MT 3097 115 LS
3098 115 MT 3125 115 LS
3125 225 MT 3125 115 LS
3126 225 MT 3153 225 LS
3153 225 MT 3153 115 LS
3154 115 MT 3181 115 LS
3181 225 MT 3181 115 LS
3182 225 MT 3208 225 LS
3208 225 MT 3208 115 LS
3209 115 MT 3236 115 LS
3236 225 MT 3236 115 LS
3237 225 MT 3264 225 LS
3264 225 MT 3264 115 LS
3265 115 MT 3292 115 LS
3292 225 MT 3292 115 LS
3293 225 MT 3320 225 LS
3320 225 MT 3320 115 LS
3321 115 MT 3348 115 LS
3348 225 MT 3348 115 LS
3349 225 MT 3375 225 LS
3375 225 MT 3375 115 LS
3376 115 MT 3403 115 LS
3403 225 MT 3403 115 LS
3404 225 MT 3431 225 LS
3431 225 MT 3431 115 LS
3432 115 MT 3459 115 LS
3459 225 MT 3459 115 LS
3460 225 MT 3487 225 LS
3487 225 MT 3487 115 LS
3488 115 MT 3515 115 LS
3515 225 MT 3515 115 LS
3516 225 MT 3543 225 LS
3543 225 MT 3543 115 LS
3544 115 MT 3570 115 LS
3570 225 MT 3570 115 LS
3571 225 MT 3598 225 LS
3598 225 MT 3598 115 LS
3599 115 MT 3626 115 LS
3626 225 MT 3626 115 LS
3627 225 MT 3654 225 LS
3654 225 MT 3654 115 LS
3655 115 MT 3682 115 LS
3682 225 MT 3682 115 LS
3683 225 MT 3710 225 LS
3710 225 MT 3710 115 LS
3711 115 MT 3738 115 LS
3738 225 MT 3738 115 LS
3739 225 MT 3765 225 LS
3765 225 MT 3765 115 LS
3766 115 MT 3793 115 LS
3793 225 MT 3793 115 LS
3794 225 MT 3821 225 LS
3821 225 MT 3821 115 LS
3822 115 MT 3849 115 LS
3849 225 MT 3849 115 LS
3850 225 MT 3877 225 LS
3877 225 MT 3877 115 LS
3878 115 MT 3905 115 LS
3905 225 MT 3905 115 LS
3906 225 MT 3932 225 LS
3932 225 MT 3932 115 LS
3933 115 MT 3960 115 LS
3960 225 MT 3960 115 LS
3961 225 MT 3988 225 LS
3988 225 MT 3988 115 LS
3989 115 MT 4016 115 LS
4016 225 MT 4016 115 LS
4017 225 MT 4044 225 LS
4044 225 MT 4044 115 LS
4045 115 MT 4072 115 LS
4072 225 MT 4072 115 LS
4073 225 MT 4100 225 LS
4100 225 MT 4100 115 LS
4101 115 MT 4127 115 LS
4127 225 MT 4127 115 LS
4128 225 MT 4155 225 LS
4155 225 MT 4155 115 LS
4156 115 MT 4183 115 LS
4183 225 MT 4183 115 LS
4184 225 MT 4211 225 LS
4211 225 MT 4211 115 LS
4212 115 MT 4239 115 LS
4239 225 MT 4239 115 LS
4240 225 MT 4267 225 LS
4267 225 MT 4267 115 LS
4268 115 MT 4295 115 LS
4295 225 MT 4295 115 LS
4296 225 MT 4322 225 LS
4322 225 MT 4322 115 LS
4323 115 MT 4350 115 LS
4350 225 MT 4350 115 LS
4351 225 MT 4378 225 LS
4378 225 MT 4378 115 LS
4379 115 MT 4406 115 LS
4406 225 MT 4406 115 LS
4407 225 MT 4434 225 LS
4434 225 MT 4434 115 LS
4435 115 MT 4462 115 LS
4462 225 MT 4462 115 LS
4463 225 MT 4489 225 LS
4489 225 MT 4489 115 LS
4490 115 MT 4517 115 LS
4517 225 MT 4517 115 LS
4518 225 MT 4545 225 LS
4545 225 MT 4545 115 LS
4546 115 MT 4573 115 LS
4573 225 MT 4573 115 LS
4574 225 MT 4601 225 LS
4601 225 MT 4601 115 LS
4602 115 MT 4629 115 LS
4629 225 MT 4629 115 LS
4630 225 MT 4657 225 LS
4657 225 MT 4657 115 LS
4658 115 MT 4684 115 LS
4684 225 MT 4684 115 LS
4685 225 MT 4712 225 LS
4712 225 MT 4712 115 LS
4713 115 MT 4740 115 LS
4740 225 MT 4740 115 LS
4741 225 MT 4768 225 LS
4768 225 MT 4768 115 LS
4769 115 MT 4796 115 LS
4796 225 MT 4796 115 LS
4797 225 MT 4824 225 LS
4824 225 MT 4824 115 LS
4825 115 MT 4852 115 LS
4852 225 MT 4852 115 LS
4853 225 MT 4879 225 LS
4879 225 MT 4879 115 LS
4880 115 MT 4907 115 LS
4907 225 MT 4907 115 LS
4908 225 MT 4935 225 LS
4935 225 MT 4935 115 LS
4936 115 MT 4963 115 LS
4963 225 MT 4963 115 LS
4964 225 MT 4991 225 LS
4991 225 MT 4991 115 LS
4992 115 MT 5019 115 LS
5019 225 MT 5019 115 LS
5020 225 MT 5046 225 LS
5046 225 MT 5046 115 LS
5047 115 MT 5074 115 LS
5074 225 MT 5074 115 LS
5075 225 MT 5102 225 LS
5102 225 MT 5102 115 LS
5103 115 MT 5130 115 LS
5130 225 MT 5130 115 LS
5131 225 MT 5158 225 LS
5158 225 MT 5158 115 LS
5159 115 MT 5186 115 LS
5186 225 MT 5186 115 LS
5187 225 MT 5214 225 LS
5214 225 MT 5214 115 LS
5215 115 MT 5241 115 LS
5241 225 MT 5241 115 LS
5242 225 MT 5269 225 LS
5269 225 MT 5269 115 LS
5270 115 MT 5297 115 LS
5297 225 MT 5297 115 LS
5298 225 MT 5325 225 LS
5325 225 MT 5325 115 LS
5326 115 MT 5353 115 LS
5353 225 MT 5353 115 LS
5354 225 MT 5381 225 LS
5381 225 MT 5381 115 LS
5382 115 MT 5409 115 LS
5409 225 MT 5409 115 LS
5410 225 MT 5436 225 LS
5436 225 MT 5436 115 LS
5437 115 MT 5464 115 LS
5464 225 MT 5464 115 LS
5465 225 MT 5492 225 LS
5492 225 MT 5492 115 LS
5493 115 MT 5520 115 LS
5520 225 MT 5520 115 LS
5521 225 MT 5548 225 LS
5548 225 MT 5548 115 LS
5549 115 MT 5576 115 LS
5576 225 MT 5576 115 LS
5577 225 MT 5603 225 LS
5603 225 MT 5603 115 LS
5604 115 MT 5631 115 LS
5631 225 MT 5631 115 LS
5632 225 MT 5659 225 LS
5659 225 MT 5659 115 LS
5660 115 MT 5687 115 LS
5687 225 MT 5687 115 LS
5688 225 MT 5715 225 LS
5715 225 MT 5715 115 LS
5716 115 MT 5743 115 LS
5743 225 MT 5743 115 LS
5744 225 MT 5771 225 LS
5771 225 MT 5771 115 LS
5772 115 MT 5798 115 LS
5798 225 MT 5798 115 LS
5799 225 MT 5826 225 LS
5826 225 MT 5826 115 LS
5827 115 MT 5854 115 LS
5854 225 MT 5854 115 LS
5855 225 MT 5882 225 LS
5882 225 MT 5882 115 LS
5883 115 MT 5910 115 LS
5910 225 MT 5910 115 LS
5911 225 MT 5938 225 LS
5938 225 MT 5938 115 LS
5939 115 MT 5966 115 LS
5966 225 MT 5966 115 LS
5967 225 MT 5993 225 LS
5993 225 MT 5993 115 LS
5994 115 MT 6021 115 LS
6021 225 MT 6021 115 LS
6022 225 MT 6049 225 LS
6049 225 MT 6049 115 LS
6050 115 MT 6077 115 LS
6077 225 MT 6077 115 LS
6078 225 MT 6105 225 LS
6105 225 MT 6105 115 LS
6106 115 MT 6133 115 LS
6133 225 MT 6133 115 LS
6134 225 MT 6160 225 LS
6160 225 MT 6160 115 LS
6161 115 MT 6188 115 LS
6188 225 MT 6188 115 LS
6189 225 MT 6216 225 LS
6216 225 MT 6216 115 LS
6217 115 MT 6244 115 LS
6244 225 MT 6244 115 LS
6245 225 MT 6272 225 LS
6272 225 MT 6272 115 LS
6273 115 MT 6300 115 LS
6300 225 MT 6300 115 LS
6301 225 MT 6328 225 LS
6328 225 MT 6328 115 LS
6329 115 MT 6355 115 LS
6355 225 MT 6355 115 LS
6356 225 MT 6383 225 LS
6383 225 MT 6383 115 LS
6384 115 MT 6411 115 LS
6411 225 MT 6411 115 LS
6412 225 MT 6439 225 LS
6439 225 MT 6439 115 LS
6440 115 MT 6467 115 LS
6467 225 MT 6467 115 LS
6468 225 MT 6495 225 LS
6495 225 MT 6495 115 LS
6496 115 MT 6523 115 LS
6523 225 MT 6523 115 LS
6523 225 MT 6523 225 LS
(pc_out) 9999 LC 916 422 WT TSE RSS
1503 273 MT 1517 273 LS
2060 273 MT 2074 273 LS
2617 273 MT 2631 273 LS
3174 273 MT 3188 273 LS
3731 273 MT 3745 273 LS
4288 273 MT 4302 273 LS
4845 273 MT 4859 273 LS
5402 273 MT 5416 273 LS
5959 273 MT 5973 273 LS
6516 273 MT 6530 273 LS
(0000) -1 LC 967 368 WT pop 0 originOffset 50 add RSS
953 368 MT 953 368 LT 960 313 LT 973 313 LT 980 368 LT ST
953 368 MT 953 368 LT 960 423 LT 973 423 LT 980 368 LT ST
(0002) 362 LC 994 368 WT pop 0 originOffset 50 add RSS
980 368 MT 980 368 LT 987 313 LT 1363 313 LT 1370 368 LT ST
980 368 MT 980 368 LT 987 423 LT 1363 423 LT 1370 368 LT ST
(0004) 362 LC 1384 368 WT pop 0 originOffset 50 add RSS
1370 368 MT 1370 368 LT 1377 313 LT 1753 313 LT 1760 368 LT ST
1370 368 MT 1370 368 LT 1377 423 LT 1753 423 LT 1760 368 LT ST
(0006) 251 LC 1774 368 WT pop 0 originOffset 50 add RSS
1760 368 MT 1760 368 LT 1767 313 LT 2032 313 LT 2039 368 LT ST
1760 368 MT 1760 368 LT 1767 423 LT 2032 423 LT 2039 368 LT ST
(0008) 362 LC 2053 368 WT pop 0 originOffset 50 add RSS
2039 368 MT 2039 368 LT 2046 313 LT 2422 313 LT 2429 368 LT ST
2039 368 MT 2039 368 LT 2046 423 LT 2422 423 LT 2429 368 LT ST
(000a) 250 LC 2443 368 WT pop 0 originOffset 50 add RSS
2429 368 MT 2429 368 LT 2436 313 LT 2700 313 LT 2707 368 LT ST
2429 368 MT 2429 368 LT 2436 423 LT 2700 423 LT 2707 368 LT ST
(000c) 251 LC 2721 368 WT pop 0 originOffset 50 add RSS
2707 368 MT 2707 368 LT 2714 313 LT 2979 313 LT 2986 368 LT ST
2707 368 MT 2707 368 LT 2714 423 LT 2979 423 LT 2986 368 LT ST
(000e) 250 LC 3000 368 WT pop 0 originOffset 50 add RSS
2986 368 MT 2986 368 LT 2993 313 LT 3257 313 LT 3264 368 LT ST
2986 368 MT 2986 368 LT 2993 423 LT 3257 423 LT 3264 368 LT ST
(0010) 251 LC 3278 368 WT pop 0 originOffset 50 add RSS
3264 368 MT 3264 368 LT 3271 313 LT 3536 313 LT 3543 368 LT ST
3264 368 MT 3264 368 LT 3271 423 LT 3536 423 LT 3543 368 LT ST
(0012) 250 LC 3557 368 WT pop 0 originOffset 50 add RSS
3543 368 MT 3543 368 LT 3550 313 LT 3814 313 LT 3821 368 LT ST
3543 368 MT 3543 368 LT 3550 423 LT 3814 423 LT 3821 368 LT ST
(000c) 28 LC 3835 368 WT pop 0 originOffset 50 add RSS
3821 368 MT 3821 368 LT 3828 313 LT 3870 313 LT 3877 368 LT ST
3821 368 MT 3821 368 LT 3828 423 LT 3870 423 LT 3877 368 LT ST
(000e) 250 LC 3891 368 WT pop 0 originOffset 50 add RSS
3877 368 MT 3877 368 LT 3884 313 LT 4148 313 LT 4155 368 LT ST
3877 368 MT 3877 368 LT 3884 423 LT 4148 423 LT 4155 368 LT ST
(0010) 251 LC 4169 368 WT pop 0 originOffset 50 add RSS
4155 368 MT 4155 368 LT 4162 313 LT 4427 313 LT 4434 368 LT ST
4155 368 MT 4155 368 LT 4162 423 LT 4427 423 LT 4434 368 LT ST
(0012) 250 LC 4448 368 WT pop 0 originOffset 50 add RSS
4434 368 MT 4434 368 LT 4441 313 LT 4705 313 LT 4712 368 LT ST
4434 368 MT 4434 368 LT 4441 423 LT 4705 423 LT 4712 368 LT ST
(000c) 28 LC 4726 368 WT pop 0 originOffset 50 add RSS
4712 368 MT 4712 368 LT 4719 313 LT 4761 313 LT 4768 368 LT ST
4712 368 MT 4712 368 LT 4719 423 LT 4761 423 LT 4768 368 LT ST
(000e) 250 LC 4782 368 WT pop 0 originOffset 50 add RSS
4768 368 MT 4768 368 LT 4775 313 LT 5039 313 LT 5046 368 LT ST
4768 368 MT 4768 368 LT 4775 423 LT 5039 423 LT 5046 368 LT ST
(0010) 251 LC 5060 368 WT pop 0 originOffset 50 add RSS
5046 368 MT 5046 368 LT 5053 313 LT 5318 313 LT 5325 368 LT ST
5046 368 MT 5046 368 LT 5053 423 LT 5318 423 LT 5325 368 LT ST
(0012) 250 LC 5339 368 WT pop 0 originOffset 50 add RSS
5325 368 MT 5325 368 LT 5332 313 LT 5596 313 LT 5603 368 LT ST
5325 368 MT 5325 368 LT 5332 423 LT 5596 423 LT 5603 368 LT ST
(000c) 28 LC 5617 368 WT pop 0 originOffset 50 add RSS
5603 368 MT 5603 368 LT 5610 313 LT 5652 313 LT 5659 368 LT ST
5603 368 MT 5603 368 LT 5610 423 LT 5652 423 LT 5659 368 LT ST
(000e) 251 LC 5673 368 WT pop 0 originOffset 50 add RSS
5659 368 MT 5659 368 LT 5666 313 LT 5931 313 LT 5938 368 LT ST
5659 368 MT 5659 368 LT 5666 423 LT 5931 423 LT 5938 368 LT ST
(0010) 250 LC 5952 368 WT pop 0 originOffset 50 add RSS
5938 368 MT 5938 368 LT 5945 313 LT 6209 313 LT 6216 368 LT ST
5938 368 MT 5938 368 LT 5945 423 LT 6209 423 LT 6216 368 LT ST
(0012) 251 LC 6230 368 WT pop 0 originOffset 50 add RSS
6216 368 MT 6216 368 LT 6223 313 LT 6488 313 LT 6495 368 LT ST
6216 368 MT 6216 368 LT 6223 423 LT 6488 423 LT 6495 368 LT ST
(0014) 0 LC 6509 368 WT pop 0 originOffset 50 add RSS
6495 368 MT 6495 368 LT 6502 313 LT 6523 313 LT ST
6495 368 MT 6495 368 LT 6502 423 LT 6523 423 LT ST
(mem_address) 9999 LC 916 620 WT TSE RSS
1503 471 MT 1517 471 LS
2060 471 MT 2074 471 LS
2617 471 MT 2631 471 LS
3174 471 MT 3188 471 LS
3731 471 MT 3745 471 LS
4288 471 MT 4302 471 LS
4845 471 MT 4859 471 LS
5402 471 MT 5416 471 LS
5959 471 MT 5973 471 LS
6516 471 MT 6530 471 LS
(0000) 222 LC 967 566 WT pop 0 originOffset 50 add RSS
953 566 MT 953 566 LT 960 511 LT 1196 511 LT 1203 566 LT ST
953 566 MT 953 566 LT 960 621 LT 1196 621 LT 1203 566 LT ST
(001c) 139 LC 1217 566 WT pop 0 originOffset 50 add RSS
1203 566 MT 1203 566 LT 1210 511 LT 1363 511 LT 1370 566 LT ST
1203 566 MT 1203 566 LT 1210 621 LT 1363 621 LT 1370 566 LT ST
(0002) 195 LC 1384 566 WT pop 0 originOffset 50 add RSS
1370 566 MT 1370 566 LT 1377 511 LT 1586 511 LT 1593 566 LT ST
1370 566 MT 1370 566 LT 1377 621 LT 1586 621 LT 1593 566 LT ST
(001e) 139 LC 1607 566 WT pop 0 originOffset 50 add RSS
1593 566 MT 1593 566 LT 1600 511 LT 1753 511 LT 1760 566 LT ST
1593 566 MT 1593 566 LT 1600 621 LT 1753 621 LT 1760 566 LT ST
(0004) 251 LC 1774 566 WT pop 0 originOffset 50 add RSS
1760 566 MT 1760 566 LT 1767 511 LT 2032 511 LT 2039 566 LT ST
1760 566 MT 1760 566 LT 1767 621 LT 2032 621 LT 2039 566 LT ST
(0006) 194 LC 2053 566 WT pop 0 originOffset 50 add RSS
2039 566 MT 2039 566 LT 2046 511 LT 2254 511 LT 2261 566 LT ST
2039 566 MT 2039 566 LT 2046 621 LT 2254 621 LT 2261 566 LT ST
(001a) 140 LC 2275 566 WT pop 0 originOffset 50 add RSS
2261 566 MT 2261 566 LT 2268 511 LT 2422 511 LT 2429 566 LT ST
2261 566 MT 2261 566 LT 2268 621 LT 2422 621 LT 2429 566 LT ST
(0008) 250 LC 2443 566 WT pop 0 originOffset 50 add RSS
2429 566 MT 2429 566 LT 2436 511 LT 2700 511 LT 2707 566 LT ST
2429 566 MT 2429 566 LT 2436 621 LT 2700 621 LT 2707 566 LT ST
(000a) 251 LC 2721 566 WT pop 0 originOffset 50 add RSS
2707 566 MT 2707 566 LT 2714 511 LT 2979 511 LT 2986 566 LT ST
2707 566 MT 2707 566 LT 2714 621 LT 2979 621 LT 2986 566 LT ST
(000c) 250 LC 3000 566 WT pop 0 originOffset 50 add RSS
2986 566 MT 2986 566 LT 2993 511 LT 3257 511 LT 3264 566 LT ST
2986 566 MT 2986 566 LT 2993 621 LT 3257 621 LT 3264 566 LT ST
(000e) 251 LC 3278 566 WT pop 0 originOffset 50 add RSS
3264 566 MT 3264 566 LT 3271 511 LT 3536 511 LT 3543 566 LT ST
3264 566 MT 3264 566 LT 3271 621 LT 3536 621 LT 3543 566 LT ST
(0010) 306 LC 3557 566 WT pop 0 originOffset 50 add RSS
3543 566 MT 3543 566 LT 3550 511 LT 3870 511 LT 3877 566 LT ST
3543 566 MT 3543 566 LT 3550 621 LT 3870 621 LT 3877 566 LT ST
(000c) 250 LC 3891 566 WT pop 0 originOffset 50 add RSS
3877 566 MT 3877 566 LT 3884 511 LT 4148 511 LT 4155 566 LT ST
3877 566 MT 3877 566 LT 3884 621 LT 4148 621 LT 4155 566 LT ST
(000e) 251 LC 4169 566 WT pop 0 originOffset 50 add RSS
4155 566 MT 4155 566 LT 4162 511 LT 4427 511 LT 4434 566 LT ST
4155 566 MT 4155 566 LT 4162 621 LT 4427 621 LT 4434 566 LT ST
(0010) 306 LC 4448 566 WT pop 0 originOffset 50 add RSS
4434 566 MT 4434 566 LT 4441 511 LT 4761 511 LT 4768 566 LT ST
4434 566 MT 4434 566 LT 4441 621 LT 4761 621 LT 4768 566 LT ST
(000c) 250 LC 4782 566 WT pop 0 originOffset 50 add RSS
4768 566 MT 4768 566 LT 4775 511 LT 5039 511 LT 5046 566 LT ST
4768 566 MT 4768 566 LT 4775 621 LT 5039 621 LT 5046 566 LT ST
(000e) 251 LC 5060 566 WT pop 0 originOffset 50 add RSS
5046 566 MT 5046 566 LT 5053 511 LT 5318 511 LT 5325 566 LT ST
5046 566 MT 5046 566 LT 5053 621 LT 5318 621 LT 5325 566 LT ST
(0010) 306 LC 5339 566 WT pop 0 originOffset 50 add RSS
5325 566 MT 5325 566 LT 5332 511 LT 5652 511 LT 5659 566 LT ST
5325 566 MT 5325 566 LT 5332 621 LT 5652 621 LT 5659 566 LT ST
(000c) 251 LC 5673 566 WT pop 0 originOffset 50 add RSS
5659 566 MT 5659 566 LT 5666 511 LT 5931 511 LT 5938 566 LT ST
5659 566 MT 5659 566 LT 5666 621 LT 5931 621 LT 5938 566 LT ST
(000e) 250 LC 5952 566 WT pop 0 originOffset 50 add RSS
5938 566 MT 5938 566 LT 5945 511 LT 6209 511 LT 6216 566 LT ST
5938 566 MT 5938 566 LT 5945 621 LT 6209 621 LT 6216 566 LT ST
(0010) 251 LC 6230 566 WT pop 0 originOffset 50 add RSS
6216 566 MT 6216 566 LT 6223 511 LT 6488 511 LT 6495 566 LT ST
6216 566 MT 6216 566 LT 6223 621 LT 6488 621 LT 6495 566 LT ST
(0012) 0 LC 6509 566 WT pop 0 originOffset 50 add RSS
6495 566 MT 6495 566 LT 6502 511 LT 6523 511 LT ST
6495 566 MT 6495 566 LT 6502 621 LT 6523 621 LT ST
(mem_read) 9999 LC 916 818 WT TSE RSS
1503 669 MT 1517 669 LS
2060 669 MT 2074 669 LS
2617 669 MT 2631 669 LS
3174 669 MT 3188 669 LS
3731 669 MT 3745 669 LS
4288 669 MT 4302 669 LS
4845 669 MT 4859 669 LS
5402 669 MT 5416 669 LS
5959 669 MT 5973 669 LS
6516 669 MT 6530 669 LS
953 819 MT 953 764 LS
954 819 MT 980 819 LS
980 819 MT 980 709 LS
981 709 MT 1036 709 LS
1036 819 MT 1036 709 LS
1037 819 MT 1203 819 LS
1203 819 MT 1203 709 LS
1204 709 MT 1259 709 LS
1259 819 MT 1259 709 LS
1260 819 MT 1370 819 LS
1370 819 MT 1370 709 LS
1371 709 MT 1426 709 LS
1426 819 MT 1426 709 LS
1427 819 MT 1593 819 LS
1593 819 MT 1593 709 LS
1594 709 MT 1649 709 LS
1649 819 MT 1649 709 LS
1650 819 MT 1760 819 LS
1760 819 MT 1760 709 LS
1761 709 MT 1816 709 LS
1816 819 MT 1816 709 LS
1817 819 MT 2039 819 LS
2039 819 MT 2039 709 LS
2040 709 MT 2094 709 LS
2094 819 MT 2094 709 LS
2095 819 MT 2261 819 LS
2261 819 MT 2261 709 LS
2262 709 MT 2317 709 LS
2317 819 MT 2317 709 LS
2318 819 MT 2429 819 LS
2429 819 MT 2429 709 LS
2430 709 MT 2484 709 LS
2484 819 MT 2484 709 LS
2485 819 MT 2707 819 LS
2707 819 MT 2707 709 LS
2708 709 MT 2763 709 LS
2763 819 MT 2763 709 LS
2764 819 MT 2986 819 LS
2986 819 MT 2986 709 LS
2987 709 MT 3041 709 LS
3041 819 MT 3041 709 LS
3042 819 MT 3264 819 LS
3264 819 MT 3264 709 LS
3265 709 MT 3320 709 LS
3320 819 MT 3320 709 LS
3321 819 MT 3543 819 LS
3543 819 MT 3543 709 LS
3544 709 MT 3598 709 LS
3598 819 MT 3598 709 LS
3599 819 MT 3877 819 LS
3877 819 MT 3877 709 LS
3878 709 MT 3932 709 LS
3932 819 MT 3932 709 LS
3933 819 MT 4155 819 LS
4155 819 MT 4155 709 LS
4156 709 MT 4211 709 LS
4211 819 MT 4211 709 LS
4212 819 MT 4434 819 LS
4434 819 MT 4434 709 LS
4435 709 MT 4489 709 LS
4489 819 MT 4489 709 LS
4490 819 MT 4768 819 LS
4768 819 MT 4768 709 LS
4769 709 MT 4824 709 LS
4824 819 MT 4824 709 LS
4825 819 MT 5046 819 LS
5046 819 MT 5046 709 LS
5047 709 MT 5102 709 LS
5102 819 MT 5102 709 LS
5103 819 MT 5325 819 LS
5325 819 MT 5325 709 LS
5326 709 MT 5381 709 LS
5381 819 MT 5381 709 LS
5382 819 MT 5659 819 LS
5659 819 MT 5659 709 LS
5660 709 MT 5715 709 LS
5715 819 MT 5715 709 LS
5716 819 MT 5938 819 LS
5938 819 MT 5938 709 LS
5939 709 MT 5993 709 LS
5993 819 MT 5993 709 LS
5994 819 MT 6216 819 LS
6216 819 MT 6216 709 LS
6217 709 MT 6272 709 LS
6272 819 MT 6272 709 LS
6273 819 MT 6495 819 LS
6495 819 MT 6495 709 LS
6496 709 MT 6523 709 LS
6523 709 MT 6523 709 LS
(mem_rdata) 9999 LC 916 1016 WT TSE RSS
1503 867 MT 1517 867 LS
2060 867 MT 2074 867 LS
2617 867 MT 2631 867 LS
3174 867 MT 3188 867 LS
3731 867 MT 3745 867 LS
4288 867 MT 4302 867 LS
4845 867 MT 4859 867 LS
5402 867 MT 5416 867 LS
5959 867 MT 5973 867 LS
6516 867 MT 6530 867 LS
(620e) 222 LC 967 962 WT pop 0 originOffset 50 add RSS
953 962 MT 953 962 LT 960 907 LT 1196 907 LT 1203 962 LT ST
953 962 MT 953 962 LT 960 1017 LT 1196 1017 LT 1203 962 LT ST
(0005) 139 LC 1217 962 WT pop 0 originOffset 50 add RSS
1203 962 MT 1203 962 LT 1210 907 LT 1363 907 LT 1370 962 LT ST
1203 962 MT 1203 962 LT 1210 1017 LT 1363 1017 LT 1370 962 LT ST
(6a0f) 195 LC 1384 962 WT pop 0 originOffset 50 add RSS
1370 962 MT 1370 962 LT 1377 907 LT 1586 907 LT 1593 962 LT ST
1370 962 MT 1370 962 LT 1377 1017 LT 1586 1017 LT 1593 962 LT ST
(ffff) 139 LC 1607 962 WT pop 0 originOffset 50 add RSS
1593 962 MT 1593 962 LT 1600 907 LT 1753 907 LT 1760 962 LT ST
1593 962 MT 1593 962 LT 1600 1017 LT 1753 1017 LT 1760 962 LT ST
(1245) 251 LC 1774 962 WT pop 0 originOffset 50 add RSS
1760 962 MT 1760 962 LT 1767 907 LT 2032 907 LT 2039 962 LT ST
1760 962 MT 1760 962 LT 1767 1017 LT 2032 1017 LT 2039 962 LT ST
(640d) 194 LC 2053 962 WT pop 0 originOffset 50 add RSS
2039 962 MT 2039 962 LT 2046 907 LT 2254 907 LT 2261 962 LT ST
2039 962 MT 2039 962 LT 2046 1017 LT 2254 1017 LT 2261 962 LT ST
(0001) 140 LC 2275 962 WT pop 0 originOffset 50 add RSS
2261 962 MT 2261 962 LT 2268 907 LT 2422 907 LT 2429 962 LT ST
2261 962 MT 2261 962 LT 2268 1017 LT 2422 1017 LT 2429 962 LT ST
(1640) 250 LC 2443 962 WT pop 0 originOffset 50 add RSS
2429 962 MT 2429 962 LT 2436 907 LT 2700 907 LT 2707 962 LT ST
2429 962 MT 2429 962 LT 2436 1017 LT 2700 1017 LT 2707 962 LT ST
(1880) 251 LC 2721 962 WT pop 0 originOffset 50 add RSS
2707 962 MT 2707 962 LT 2714 907 LT 2979 907 LT 2986 962 LT ST
2707 962 MT 2707 962 LT 2714 1017 LT 2979 1017 LT 2986 962 LT ST
(1484) 250 LC 3000 962 WT pop 0 originOffset 50 add RSS
2986 962 MT 2986 962 LT 2993 907 LT 3257 907 LT 3264 962 LT ST
2986 962 MT 2986 962 LT 2993 1017 LT 3257 1017 LT 3264 962 LT ST
(16c5) 251 LC 3278 962 WT pop 0 originOffset 50 add RSS
3264 962 MT 3264 962 LT 3271 907 LT 3536 907 LT 3543 962 LT ST
3264 962 MT 3264 962 LT 3271 1017 LT 3536 1017 LT 3543 962 LT ST
(03fd) 306 LC 3557 962 WT pop 0 originOffset 50 add RSS
3543 962 MT 3543 962 LT 3550 907 LT 3870 907 LT 3877 962 LT ST
3543 962 MT 3543 962 LT 3550 1017 LT 3870 1017 LT 3877 962 LT ST
(1484) 250 LC 3891 962 WT pop 0 originOffset 50 add RSS
3877 962 MT 3877 962 LT 3884 907 LT 4148 907 LT 4155 962 LT ST
3877 962 MT 3877 962 LT 3884 1017 LT 4148 1017 LT 4155 962 LT ST
(16c5) 251 LC 4169 962 WT pop 0 originOffset 50 add RSS
4155 962 MT 4155 962 LT 4162 907 LT 4427 907 LT 4434 962 LT ST
4155 962 MT 4155 962 LT 4162 1017 LT 4427 1017 LT 4434 962 LT ST
(03fd) 306 LC 4448 962 WT pop 0 originOffset 50 add RSS
4434 962 MT 4434 962 LT 4441 907 LT 4761 907 LT 4768 962 LT ST
4434 962 MT 4434 962 LT 4441 1017 LT 4761 1017 LT 4768 962 LT ST
(1484) 250 LC 4782 962 WT pop 0 originOffset 50 add RSS
4768 962 MT 4768 962 LT 4775 907 LT 5039 907 LT 5046 962 LT ST
4768 962 MT 4768 962 LT 4775 1017 LT 5039 1017 LT 5046 962 LT ST
(16c5) 251 LC 5060 962 WT pop 0 originOffset 50 add RSS
5046 962 MT 5046 962 LT 5053 907 LT 5318 907 LT 5325 962 LT ST
5046 962 MT 5046 962 LT 5053 1017 LT 5318 1017 LT 5325 962 LT ST
(03fd) 306 LC 5339 962 WT pop 0 originOffset 50 add RSS
5325 962 MT 5325 962 LT 5332 907 LT 5652 907 LT 5659 962 LT ST
5325 962 MT 5325 962 LT 5332 1017 LT 5652 1017 LT 5659 962 LT ST
(1484) 251 LC 5673 962 WT pop 0 originOffset 50 add RSS
5659 962 MT 5659 962 LT 5666 907 LT 5931 907 LT 5938 962 LT ST
5659 962 MT 5659 962 LT 5666 1017 LT 5931 1017 LT 5938 962 LT ST
(16c5) 250 LC 5952 962 WT pop 0 originOffset 50 add RSS
5938 962 MT 5938 962 LT 5945 907 LT 6209 907 LT 6216 962 LT ST
5938 962 MT 5938 962 LT 5945 1017 LT 6209 1017 LT 6216 962 LT ST
(03fd) 251 LC 6230 962 WT pop 0 originOffset 50 add RSS
6216 962 MT 6216 962 LT 6223 907 LT 6488 907 LT 6495 962 LT ST
6216 962 MT 6216 962 LT 6223 1017 LT 6488 1017 LT 6495 962 LT ST
(1245) 0 LC 6509 962 WT pop 0 originOffset 50 add RSS
6495 962 MT 6495 962 LT 6502 907 LT 6523 907 LT ST
6495 962 MT 6495 962 LT 6502 1017 LT 6523 1017 LT ST
(mem_write) 9999 LC 916 1214 WT TSE RSS
1503 1065 MT 1517 1065 LS
2060 1065 MT 2074 1065 LS
2617 1065 MT 2631 1065 LS
3174 1065 MT 3188 1065 LS
3731 1065 MT 3745 1065 LS
4288 1065 MT 4302 1065 LS
4845 1065 MT 4859 1065 LS
5402 1065 MT 5416 1065 LS
5959 1065 MT 5973 1065 LS
6516 1065 MT 6530 1065 LS
953 1215 MT 953 1160 LS
954 1215 MT 6523 1215 LS
6523 1215 MT 6523 1215 LS
(mem_byte_enable) 9999 LC 916 1412 WT TSE RSS
1503 1263 MT 1517 1263 LS
2060 1263 MT 2074 1263 LS
2617 1263 MT 2631 1263 LS
3174 1263 MT 3188 1263 LS
3731 1263 MT 3745 1263 LS
4288 1263 MT 4302 1263 LS
4845 1263 MT 4859 1263 LS
5402 1263 MT 5416 1263 LS
5959 1263 MT 5973 1263 LS
6516 1263 MT 6530 1263 LS
(3) 5542 LC 967 1358 WT pop 0 originOffset 50 add RSS
953 1358 MT 953 1358 LT 960 1303 LT 6523 1303 LT ST
953 1358 MT 953 1358 LT 960 1413 LT 6523 1413 LT ST
(mem_wdata) 9999 LC 916 1610 WT TSE RSS
1503 1461 MT 1517 1461 LS
2060 1461 MT 2074 1461 LS
2617 1461 MT 2631 1461 LS
3174 1461 MT 3188 1461 LS
3731 1461 MT 3745 1461 LS
4288 1461 MT 4302 1461 LS
4845 1461 MT 4859 1461 LS
5402 1461 MT 5416 1461 LS
5959 1461 MT 5973 1461 LS
6516 1461 MT 6530 1461 LS
(0000) 55 LC 967 1556 WT pop 0 originOffset 50 add RSS
953 1556 MT 953 1556 LT 960 1501 LT 1029 1501 LT 1036 1556 LT ST
953 1556 MT 953 1556 LT 960 1611 LT 1029 1611 LT 1036 1556 LT ST
(620e) 195 LC 1050 1556 WT pop 0 originOffset 50 add RSS
1036 1556 MT 1036 1556 LT 1043 1501 LT 1252 1501 LT 1259 1556 LT ST
1036 1556 MT 1036 1556 LT 1043 1611 LT 1252 1611 LT 1259 1556 LT ST
(0005) 139 LC 1273 1556 WT pop 0 originOffset 50 add RSS
1259 1556 MT 1259 1556 LT 1266 1501 LT 1419 1501 LT 1426 1556 LT ST
1259 1556 MT 1259 1556 LT 1266 1611 LT 1419 1611 LT 1426 1556 LT ST
(6a0f) 195 LC 1440 1556 WT pop 0 originOffset 50 add RSS
1426 1556 MT 1426 1556 LT 1433 1501 LT 1642 1501 LT 1649 1556 LT ST
1426 1556 MT 1426 1556 LT 1433 1611 LT 1642 1611 LT 1649 1556 LT ST
(ffff) 139 LC 1663 1556 WT pop 0 originOffset 50 add RSS
1649 1556 MT 1649 1556 LT 1656 1501 LT 1809 1501 LT 1816 1556 LT ST
1649 1556 MT 1649 1556 LT 1656 1611 LT 1809 1611 LT 1816 1556 LT ST
(1245) 250 LC 1830 1556 WT pop 0 originOffset 50 add RSS
1816 1556 MT 1816 1556 LT 1823 1501 LT 2087 1501 LT 2094 1556 LT ST
1816 1556 MT 1816 1556 LT 1823 1611 LT 2087 1611 LT 2094 1556 LT ST
(640d) 195 LC 2108 1556 WT pop 0 originOffset 50 add RSS
2094 1556 MT 2094 1556 LT 2101 1501 LT 2310 1501 LT 2317 1556 LT ST
2094 1556 MT 2094 1556 LT 2101 1611 LT 2310 1611 LT 2317 1556 LT ST
(0001) 139 LC 2331 1556 WT pop 0 originOffset 50 add RSS
2317 1556 MT 2317 1556 LT 2324 1501 LT 2477 1501 LT 2484 1556 LT ST
2317 1556 MT 2317 1556 LT 2324 1611 LT 2477 1611 LT 2484 1556 LT ST
(1640) 251 LC 2498 1556 WT pop 0 originOffset 50 add RSS
2484 1556 MT 2484 1556 LT 2491 1501 LT 2756 1501 LT 2763 1556 LT ST
2484 1556 MT 2484 1556 LT 2491 1611 LT 2756 1611 LT 2763 1556 LT ST
(1880) 250 LC 2777 1556 WT pop 0 originOffset 50 add RSS
2763 1556 MT 2763 1556 LT 2770 1501 LT 3034 1501 LT 3041 1556 LT ST
2763 1556 MT 2763 1556 LT 2770 1611 LT 3034 1611 LT 3041 1556 LT ST
(1484) 251 LC 3055 1556 WT pop 0 originOffset 50 add RSS
3041 1556 MT 3041 1556 LT 3048 1501 LT 3313 1501 LT 3320 1556 LT ST
3041 1556 MT 3041 1556 LT 3048 1611 LT 3313 1611 LT 3320 1556 LT ST
(16c5) 250 LC 3334 1556 WT pop 0 originOffset 50 add RSS
3320 1556 MT 3320 1556 LT 3327 1501 LT 3591 1501 LT 3598 1556 LT ST
3320 1556 MT 3320 1556 LT 3327 1611 LT 3591 1611 LT 3598 1556 LT ST
(03fd) 306 LC 3612 1556 WT pop 0 originOffset 50 add RSS
3598 1556 MT 3598 1556 LT 3605 1501 LT 3925 1501 LT 3932 1556 LT ST
3598 1556 MT 3598 1556 LT 3605 1611 LT 3925 1611 LT 3932 1556 LT ST
(1484) 251 LC 3946 1556 WT pop 0 originOffset 50 add RSS
3932 1556 MT 3932 1556 LT 3939 1501 LT 4204 1501 LT 4211 1556 LT ST
3932 1556 MT 3932 1556 LT 3939 1611 LT 4204 1611 LT 4211 1556 LT ST
(16c5) 250 LC 4225 1556 WT pop 0 originOffset 50 add RSS
4211 1556 MT 4211 1556 LT 4218 1501 LT 4482 1501 LT 4489 1556 LT ST
4211 1556 MT 4211 1556 LT 4218 1611 LT 4482 1611 LT 4489 1556 LT ST
(03fd) 307 LC 4503 1556 WT pop 0 originOffset 50 add RSS
4489 1556 MT 4489 1556 LT 4496 1501 LT 4817 1501 LT 4824 1556 LT ST
4489 1556 MT 4489 1556 LT 4496 1611 LT 4817 1611 LT 4824 1556 LT ST
(1484) 250 LC 4838 1556 WT pop 0 originOffset 50 add RSS
4824 1556 MT 4824 1556 LT 4831 1501 LT 5095 1501 LT 5102 1556 LT ST
4824 1556 MT 4824 1556 LT 4831 1611 LT 5095 1611 LT 5102 1556 LT ST
(16c5) 251 LC 5116 1556 WT pop 0 originOffset 50 add RSS
5102 1556 MT 5102 1556 LT 5109 1501 LT 5374 1501 LT 5381 1556 LT ST
5102 1556 MT 5102 1556 LT 5109 1611 LT 5374 1611 LT 5381 1556 LT ST
(03fd) 306 LC 5395 1556 WT pop 0 originOffset 50 add RSS
5381 1556 MT 5381 1556 LT 5388 1501 LT 5708 1501 LT 5715 1556 LT ST
5381 1556 MT 5381 1556 LT 5388 1611 LT 5708 1611 LT 5715 1556 LT ST
(1484) 250 LC 5729 1556 WT pop 0 originOffset 50 add RSS
5715 1556 MT 5715 1556 LT 5722 1501 LT 5986 1501 LT 5993 1556 LT ST
5715 1556 MT 5715 1556 LT 5722 1611 LT 5986 1611 LT 5993 1556 LT ST
(16c5) 251 LC 6007 1556 WT pop 0 originOffset 50 add RSS
5993 1556 MT 5993 1556 LT 6000 1501 LT 6265 1501 LT 6272 1556 LT ST
5993 1556 MT 5993 1556 LT 6000 1611 LT 6265 1611 LT 6272 1556 LT ST
(03fd) 223 LC 6286 1556 WT pop 0 originOffset 50 add RSS
6272 1556 MT 6272 1556 LT 6279 1501 LT 6523 1501 LT ST
6272 1556 MT 6272 1556 LT 6279 1611 LT 6523 1611 LT ST
(regfile) 9999 LC 916 1808 WT TSE RSS
1503 1659 MT 1517 1659 LS
2060 1659 MT 2074 1659 LS
2617 1659 MT 2631 1659 LS
3174 1659 MT 3188 1659 LS
3731 1659 MT 3745 1659 LS
4288 1659 MT 4302 1659 LS
4845 1659 MT 4859 1659 LS
5402 1659 MT 5416 1659 LS
5959 1659 MT 5973 1659 LS
6516 1659 MT 6530 1659 LS
(0000 0000 0000 0000 0000 0000 0000 0000) 334 LC 967 1754 WT pop 0 originOffset 50 add RSS
953 1754 MT 953 1754 LT 960 1699 LT 1308 1699 LT 1315 1754 LT ST
953 1754 MT 953 1754 LT 960 1809 LT 1308 1809 LT 1315 1754 LT ST
(0000 0000 0000 0000 0000 0000 0005 0000) 361 LC 1329 1754 WT pop 0 originOffset 50 add RSS
1315 1754 MT 1315 1754 LT 1322 1699 LT 1697 1699 LT 1704 1754 LT ST
1315 1754 MT 1315 1754 LT 1322 1809 LT 1697 1809 LT 1704 1754 LT ST
(0000 0000 ffff 0000 0000 0000 0005 0000) 251 LC 1718 1754 WT pop 0 originOffset 50 add RSS
1704 1754 MT 1704 1754 LT 1711 1699 LT 1976 1699 LT 1983 1754 LT ST
1704 1754 MT 1704 1754 LT 1711 1809 LT 1976 1809 LT 1983 1754 LT ST
(0000 0000 ffff 0000 0000 0000 0004 0000) 362 LC 1997 1754 WT pop 0 originOffset 50 add RSS
1983 1754 MT 1983 1754 LT 1990 1699 LT 2366 1699 LT 2373 1754 LT ST
1983 1754 MT 1983 1754 LT 1990 1809 LT 2366 1809 LT 2373 1754 LT ST
(0000 0000 ffff 0000 0000 0001 0004 0000) 250 LC 2387 1754 WT pop 0 originOffset 50 add RSS
2373 1754 MT 2373 1754 LT 2380 1699 LT 2644 1699 LT 2651 1754 LT ST
2373 1754 MT 2373 1754 LT 2380 1809 LT 2644 1809 LT 2651 1754 LT ST
(0000 0000 ffff 0000 0004 0001 0004 0000) 251 LC 2665 1754 WT pop 0 originOffset 50 add RSS
2651 1754 MT 2651 1754 LT 2658 1699 LT 2923 1699 LT 2930 1754 LT ST
2651 1754 MT 2651 1754 LT 2658 1809 LT 2923 1809 LT 2930 1754 LT ST
(0000 0000 ffff 0001 0004 0001 0004 0000) 250 LC 2944 1754 WT pop 0 originOffset 50 add RSS
2930 1754 MT 2930 1754 LT 2937 1699 LT 3201 1699 LT 3208 1754 LT ST
2930 1754 MT 2930 1754 LT 2937 1809 LT 3201 1809 LT 3208 1754 LT ST
(0000 0000 ffff 0001 0004 0002 0004 0000) 251 LC 3222 1754 WT pop 0 originOffset 50 add RSS
3208 1754 MT 3208 1754 LT 3215 1699 LT 3480 1699 LT 3487 1754 LT ST
3208 1754 MT 3208 1754 LT 3215 1809 LT 3480 1809 LT 3487 1754 LT ST
(0000 0000 ffff 0001 0003 0002 0004 0000) 585 LC 3501 1754 WT pop 0 originOffset 50 add RSS
3487 1754 MT 3487 1754 LT 3494 1699 LT 4093 1699 LT 4100 1754 LT ST
3487 1754 MT 3487 1754 LT 3494 1809 LT 4093 1809 LT 4100 1754 LT ST
(0000 0000 ffff 0001 0003 0003 0004 0000) 250 LC 4114 1754 WT pop 0 originOffset 50 add RSS
4100 1754 MT 4100 1754 LT 4107 1699 LT 4371 1699 LT 4378 1754 LT ST
4100 1754 MT 4100 1754 LT 4107 1809 LT 4371 1809 LT 4378 1754 LT ST
(0000 0000 ffff 0001 0002 0003 0004 0000) 585 LC 4392 1754 WT pop 0 originOffset 50 add RSS
4378 1754 MT 4378 1754 LT 4385 1699 LT 4984 1699 LT 4991 1754 LT ST
4378 1754 MT 4378 1754 LT 4385 1809 LT 4984 1809 LT 4991 1754 LT ST
(0000 0000 ffff 0001 0002 0004 0004 0000) 250 LC 5005 1754 WT pop 0 originOffset 50 add RSS
4991 1754 MT 4991 1754 LT 4998 1699 LT 5262 1699 LT 5269 1754 LT ST
4991 1754 MT 4991 1754 LT 4998 1809 LT 5262 1809 LT 5269 1754 LT ST
(0000 0000 ffff 0001 0001 0004 0004 0000) 585 LC 5283 1754 WT pop 0 originOffset 50 add RSS
5269 1754 MT 5269 1754 LT 5276 1699 LT 5875 1699 LT 5882 1754 LT ST
5269 1754 MT 5269 1754 LT 5276 1809 LT 5875 1809 LT 5882 1754 LT ST
(0000 0000 ffff 0001 0001 0005 0004 0000) 250 LC 5896 1754 WT pop 0 originOffset 50 add RSS
5882 1754 MT 5882 1754 LT 5889 1699 LT 6153 1699 LT 6160 1754 LT ST
5882 1754 MT 5882 1754 LT 5889 1809 LT 6153 1809 LT 6160 1754 LT ST
(0000 0000 ffff 0001 0000 0005 0004 0000) 335 LC 6174 1754 WT pop 0 originOffset 50 add RSS
6160 1754 MT 6160 1754 LT 6167 1699 LT 6523 1699 LT ST
6160 1754 MT 6160 1754 LT 6167 1809 LT 6523 1809 LT ST
([7]) 9999 LC 916 1995 WT TSE RSS
1503 1857 MT 1517 1857 LS
2060 1857 MT 2074 1857 LS
2617 1857 MT 2631 1857 LS
3174 1857 MT 3188 1857 LS
3731 1857 MT 3745 1857 LS
4288 1857 MT 4302 1857 LS
4845 1857 MT 4859 1857 LS
5402 1857 MT 5416 1857 LS
5959 1857 MT 5973 1857 LS
6516 1857 MT 6530 1857 LS
(0000) 5542 LC 967 1941 WT pop 0 originOffset 50 add RSS
953 1941 MT 953 1941 LT 960 1886 LT 6523 1886 LT ST
953 1941 MT 953 1941 LT 960 1996 LT 6523 1996 LT ST
([6]) 9999 LC 916 2171 WT TSE RSS
1503 2033 MT 1517 2033 LS
2060 2033 MT 2074 2033 LS
2617 2033 MT 2631 2033 LS
3174 2033 MT 3188 2033 LS
3731 2033 MT 3745 2033 LS
4288 2033 MT 4302 2033 LS
4845 2033 MT 4859 2033 LS
5402 2033 MT 5416 2033 LS
5959 2033 MT 5973 2033 LS
6516 2033 MT 6530 2033 LS
(0000) 5542 LC 967 2117 WT pop 0 originOffset 50 add RSS
953 2117 MT 953 2117 LT 960 2062 LT 6523 2062 LT ST
953 2117 MT 953 2117 LT 960 2172 LT 6523 2172 LT ST
([5]) 9999 LC 916 2347 WT TSE RSS
1503 2209 MT 1517 2209 LS
2060 2209 MT 2074 2209 LS
2617 2209 MT 2631 2209 LS
3174 2209 MT 3188 2209 LS
3731 2209 MT 3745 2209 LS
4288 2209 MT 4302 2209 LS
4845 2209 MT 4859 2209 LS
5402 2209 MT 5416 2209 LS
5959 2209 MT 5973 2209 LS
6516 2209 MT 6530 2209 LS
(0000) 723 LC 967 2293 WT pop 0 originOffset 50 add RSS
953 2293 MT 953 2293 LT 960 2238 LT 1697 2238 LT 1704 2293 LT ST
953 2293 MT 953 2293 LT 960 2348 LT 1697 2348 LT 1704 2293 LT ST
(ffff) 4791 LC 1718 2293 WT pop 0 originOffset 50 add RSS
1704 2293 MT 1704 2293 LT 1711 2238 LT 6523 2238 LT ST
1704 2293 MT 1704 2293 LT 1711 2348 LT 6523 2348 LT ST
([4]) 9999 LC 916 2523 WT TSE RSS
1503 2385 MT 1517 2385 LS
2060 2385 MT 2074 2385 LS
2617 2385 MT 2631 2385 LS
3174 2385 MT 3188 2385 LS
3731 2385 MT 3745 2385 LS
4288 2385 MT 4302 2385 LS
4845 2385 MT 4859 2385 LS
5402 2385 MT 5416 2385 LS
5959 2385 MT 5973 2385 LS
6516 2385 MT 6530 2385 LS
(0000) 1949 LC 967 2469 WT pop 0 originOffset 50 add RSS
953 2469 MT 953 2469 LT 960 2414 LT 2923 2414 LT 2930 2469 LT ST
953 2469 MT 953 2469 LT 960 2524 LT 2923 2524 LT 2930 2469 LT ST
(0001) 3565 LC 2944 2469 WT pop 0 originOffset 50 add RSS
2930 2469 MT 2930 2469 LT 2937 2414 LT 6523 2414 LT ST
2930 2469 MT 2930 2469 LT 2937 2524 LT 6523 2524 LT ST
([3]) 9999 LC 916 2699 WT TSE RSS
1503 2561 MT 1517 2561 LS
2060 2561 MT 2074 2561 LS
2617 2561 MT 2631 2561 LS
3174 2561 MT 3188 2561 LS
3731 2561 MT 3745 2561 LS
4288 2561 MT 4302 2561 LS
4845 2561 MT 4859 2561 LS
5402 2561 MT 5416 2561 LS
5959 2561 MT 5973 2561 LS
6516 2561 MT 6530 2561 LS
(0000) 1670 LC 967 2645 WT pop 0 originOffset 50 add RSS
953 2645 MT 953 2645 LT 960 2590 LT 2644 2590 LT 2651 2645 LT ST
953 2645 MT 953 2645 LT 960 2700 LT 2644 2700 LT 2651 2645 LT ST
(0004) 808 LC 2665 2645 WT pop 0 originOffset 50 add RSS
2651 2645 MT 2651 2645 LT 2658 2590 LT 3480 2590 LT 3487 2645 LT ST
2651 2645 MT 2651 2645 LT 2658 2700 LT 3480 2700 LT 3487 2645 LT ST
(0003) 863 LC 3501 2645 WT pop 0 originOffset 50 add RSS
3487 2645 MT 3487 2645 LT 3494 2590 LT 4371 2590 LT 4378 2645 LT ST
3487 2645 MT 3487 2645 LT 3494 2700 LT 4371 2700 LT 4378 2645 LT ST
(0002) 863 LC 4392 2645 WT pop 0 originOffset 50 add RSS
4378 2645 MT 4378 2645 LT 4385 2590 LT 5262 2590 LT 5269 2645 LT ST
4378 2645 MT 4378 2645 LT 4385 2700 LT 5262 2700 LT 5269 2645 LT ST
(0001) 863 LC 5283 2645 WT pop 0 originOffset 50 add RSS
5269 2645 MT 5269 2645 LT 5276 2590 LT 6153 2590 LT 6160 2645 LT ST
5269 2645 MT 5269 2645 LT 5276 2700 LT 6153 2700 LT 6160 2645 LT ST
(0000) 335 LC 6174 2645 WT pop 0 originOffset 50 add RSS
6160 2645 MT 6160 2645 LT 6167 2590 LT 6523 2590 LT ST
6160 2645 MT 6160 2645 LT 6167 2700 LT 6523 2700 LT ST
([2]) 9999 LC 916 2875 WT TSE RSS
1503 2737 MT 1517 2737 LS
2060 2737 MT 2074 2737 LS
2617 2737 MT 2631 2737 LS
3174 2737 MT 3188 2737 LS
3731 2737 MT 3745 2737 LS
4288 2737 MT 4302 2737 LS
4845 2737 MT 4859 2737 LS
5402 2737 MT 5416 2737 LS
5959 2737 MT 5973 2737 LS
6516 2737 MT 6530 2737 LS
(0000) 1392 LC 967 2821 WT pop 0 originOffset 50 add RSS
953 2821 MT 953 2821 LT 960 2766 LT 2366 2766 LT 2373 2821 LT ST
953 2821 MT 953 2821 LT 960 2876 LT 2366 2876 LT 2373 2821 LT ST
(0001) 807 LC 2387 2821 WT pop 0 originOffset 50 add RSS
2373 2821 MT 2373 2821 LT 2380 2766 LT 3201 2766 LT 3208 2821 LT ST
2373 2821 MT 2373 2821 LT 2380 2876 LT 3201 2876 LT 3208 2821 LT ST
(0002) 864 LC 3222 2821 WT pop 0 originOffset 50 add RSS
3208 2821 MT 3208 2821 LT 3215 2766 LT 4093 2766 LT 4100 2821 LT ST
3208 2821 MT 3208 2821 LT 3215 2876 LT 4093 2876 LT 4100 2821 LT ST
(0003) 863 LC 4114 2821 WT pop 0 originOffset 50 add RSS
4100 2821 MT 4100 2821 LT 4107 2766 LT 4984 2766 LT 4991 2821 LT ST
4100 2821 MT 4100 2821 LT 4107 2876 LT 4984 2876 LT 4991 2821 LT ST
(0004) 863 LC 5005 2821 WT pop 0 originOffset 50 add RSS
4991 2821 MT 4991 2821 LT 4998 2766 LT 5875 2766 LT 5882 2821 LT ST
4991 2821 MT 4991 2821 LT 4998 2876 LT 5875 2876 LT 5882 2821 LT ST
(0005) 613 LC 5896 2821 WT pop 0 originOffset 50 add RSS
5882 2821 MT 5882 2821 LT 5889 2766 LT 6523 2766 LT ST
5882 2821 MT 5882 2821 LT 5889 2876 LT 6523 2876 LT ST
([1]) 9999 LC 916 3051 WT TSE RSS
1503 2913 MT 1517 2913 LS
2060 2913 MT 2074 2913 LS
2617 2913 MT 2631 2913 LS
3174 2913 MT 3188 2913 LS
3731 2913 MT 3745 2913 LS
4288 2913 MT 4302 2913 LS
4845 2913 MT 4859 2913 LS
5402 2913 MT 5416 2913 LS
5959 2913 MT 5973 2913 LS
6516 2913 MT 6530 2913 LS
(0000) 334 LC 967 2997 WT pop 0 originOffset 50 add RSS
953 2997 MT 953 2997 LT 960 2942 LT 1308 2942 LT 1315 2997 LT ST
953 2997 MT 953 2997 LT 960 3052 LT 1308 3052 LT 1315 2997 LT ST
(0005) 640 LC 1329 2997 WT pop 0 originOffset 50 add RSS
1315 2997 MT 1315 2997 LT 1322 2942 LT 1976 2942 LT 1983 2997 LT ST
1315 2997 MT 1315 2997 LT 1322 3052 LT 1976 3052 LT 1983 2997 LT ST
(0004) 4512 LC 1997 2997 WT pop 0 originOffset 50 add RSS
1983 2997 MT 1983 2997 LT 1990 2942 LT 6523 2942 LT ST
1983 2997 MT 1983 2997 LT 1990 3052 LT 6523 3052 LT ST
([0]) 9999 LC 916 3227 WT TSE RSS
1503 3089 MT 1517 3089 LS
2060 3089 MT 2074 3089 LS
2617 3089 MT 2631 3089 LS
3174 3089 MT 3188 3089 LS
3731 3089 MT 3745 3089 LS
4288 3089 MT 4302 3089 LS
4845 3089 MT 4859 3089 LS
5402 3089 MT 5416 3089 LS
5959 3089 MT 5973 3089 LS
6516 3089 MT 6530 3089 LS
(0000) 5542 LC 967 3173 WT pop 0 originOffset 50 add RSS
953 3173 MT 953 3173 LT 960 3118 LT 6523 3118 LT ST
953 3173 MT 953 3173 LT 960 3228 LT 6523 3228 LT ST
% draw footer
(Entity:mp0_tb  Architecture:  Date: Tue Jan 26 15:37:22 CST 2016   Row: 1 Page: 1) 9999 LC 75 5024 WT TSW RSS
grestore
showpage
%%EOF
