%!PS-Adobe-3.0
%%Creator: Model Technology ModelSim ALTERA STARTER EDITION vsim 10.1d Simulator 2012.11 Nov  2 2012
%%Title: last1000.ps
%%CreationDate: 2016-01-26 03:38:38 PM
%%DocumentData: Clean8Bit
%%DocumentNeededResources: font Helvetica
%%Orientation: Landscape
%%PageOrder: ascend
%%Pages: 1
%%EndComments
%%BeginSetup
%%BeginFeature: *PageSize 8.5x11.0
<< /PageSize [612.0 792.0]
/ImagingBBox null
>> setpagedevice
%%EndFeature
%%EndSetup
%%Page: 1 1
gsave
90 rotate 0.12 dup neg scale
% dump string table
/NP {newpath} def/SD {setdash} def/CL {setrgbcolor} def/GR {setgray} def
/SX {exch LEdge sub XScale mul MaxLabelWidth add LMargin add LEdge LabelWidth sub add exch} def/CSX {exch dup LabelWidth gt {exch SX} {exch} ifelse} def
/MT {SX moveto} def/LS {SX lineto stroke} def/LT {SX lineto} def/LFS {SX lineto fill stroke} def/RSS {rmoveto show stroke} def/ST {stroke} def/WT {CSX moveto dup stringwidth pop} def/TSW {pop 0 originOffset} def
/TSE {MaxLabelWidth LabelWidth sub LMargin add 0 rmoveto neg originOffset} def/TS {-2 div originOffset CSX} def
/MLW {stringwidth pop dup MaxLabelWidth gt {/MaxLabelWidth exch def}{pop} ifelse XS} def
/XS {/XScale LabelWidth LMargin sub MaxLabelWidth LEdge LabelWidth sub add sub REdge LEdge sub div 1 add def} def
/ARC {5 -2 roll SX 5 2 roll arc} def/LC {1 index stringwidth pop lt {pop ()} if} def
/SW {stringwidth pop} def
/ESTR {   dup 3 add string   /CurrentStr exch def   exch 0 2 index getinterval   0 1 3 index 1 sub {     dup     2 index exch get exch     CurrentStr exch 3 -1 roll put   } for   pop   dup 1 2 2 index add {     CurrentStr exch 46 put   } for   pop} def
/LC {   exch  dup dup /CurrentStr exch def   SW 2 index gt {     CurrentStr length     dup     {       2 div cvi       3 index       CurrentStr SW       sub       dup 0 lt {         1 index         4 -1 roll         exch sub         3 1 roll       }       {         dup 5 index gt {           1 index 4 -1 roll add 3 1 roll         }         {           exit         } ifelse       } ifelse       3 index 2 index ESTR       1 index 0 eq {         exit       } if       pop     } loop     pop pop pop pop pop     CurrentStr   }   {     CurrentStr   } ifelse} def
/XScale 1 def/MaxLabelWidth 0 def/LMargin 75 def/LEdge 953 def/REdge 6374 def/LabelWidth 916 def
/Helvetica findfont [100 0 0 -100 0 0] makefont setfont
/originOffset   currentfont   /FontBBox get 1 get   currentfont  /FontMatrix get 3 get   mul   currentfont   /FontType get   42 eq {     1000000 div   } {     neg   } ifelse def
(clk) MLW
(pc_out) MLW
([15]) MLW
([14]) MLW
([13]) MLW
([12]) MLW
([11]) MLW
([10]) MLW
([9]) MLW
([8]) MLW
([7]) MLW
([6]) MLW
([5]) MLW
([4]) MLW
([3]) MLW
([2]) MLW
([1]) MLW
([0]) MLW
(mem_address) MLW
(mem_read) MLW
(mem_rdata) MLW
(mem_write) MLW
(mem_byte_enable) MLW
(mem_wdata) MLW
(regfile) MLW
([7]) MLW
([6]) MLW
([5]) MLW
([4]) MLW
([3]) MLW
([2]) MLW
([1]) MLW
([0]) MLW
% draw waveform shading
[] 0 SD
3 setlinewidth
0 setlinejoin
0 setlinecap
0 0 0 CL
953 225 MT 953 115 LS
954 225 MT 980 225 LS
980 225 MT 980 115 LS
981 115 MT 1008 115 LS
1008 225 MT 1008 115 LS
1009 225 MT 1036 225 LS
1036 225 MT 1036 115 LS
1037 115 MT 1064 115 LS
1064 225 MT 1064 115 LS
1065 225 MT 1092 225 LS
1092 225 MT 1092 115 LS
1093 115 MT 1120 115 LS
1120 225 MT 1120 115 LS
1121 225 MT 1147 225 LS
1147 225 MT 1147 115 LS
1148 115 MT 1175 115 LS
1175 225 MT 1175 115 LS
1176 225 MT 1203 225 LS
1203 225 MT 1203 115 LS
1204 115 MT 1231 115 LS
1231 225 MT 1231 115 LS
1232 225 MT 1259 225 LS
1259 225 MT 1259 115 LS
1260 115 MT 1287 115 LS
1287 225 MT 1287 115 LS
1288 225 MT 1315 225 LS
1315 225 MT 1315 115 LS
1316 115 MT 1342 115 LS
1342 225 MT 1342 115 LS
1343 225 MT 1370 225 LS
1370 225 MT 1370 115 LS
1371 115 MT 1398 115 LS
1398 225 MT 1398 115 LS
1399 225 MT 1426 225 LS
1426 225 MT 1426 115 LS
1427 115 MT 1454 115 LS
1454 225 MT 1454 115 LS
1455 225 MT 1482 225 LS
1482 225 MT 1482 115 LS
1483 115 MT 1510 115 LS
1510 225 MT 1510 115 LS
1511 225 MT 1537 225 LS
1537 225 MT 1537 115 LS
1538 115 MT 1565 115 LS
1565 225 MT 1565 115 LS
1566 225 MT 1593 225 LS
1593 225 MT 1593 115 LS
1594 115 MT 1621 115 LS
1621 225 MT 1621 115 LS
1622 225 MT 1649 225 LS
1649 225 MT 1649 115 LS
1650 115 MT 1677 115 LS
1677 225 MT 1677 115 LS
1678 225 MT 1704 225 LS
1704 225 MT 1704 115 LS
1705 115 MT 1732 115 LS
1732 225 MT 1732 115 LS
1733 225 MT 1760 225 LS
1760 225 MT 1760 115 LS
1761 115 MT 1788 115 LS
1788 225 MT 1788 115 LS
1789 225 MT 1816 225 LS
1816 225 MT 1816 115 LS
1817 115 MT 1844 115 LS
1844 225 MT 1844 115 LS
1845 225 MT 1872 225 LS
1872 225 MT 1872 115 LS
1873 115 MT 1899 115 LS
1899 225 MT 1899 115 LS
1900 225 MT 1927 225 LS
1927 225 MT 1927 115 LS
1928 115 MT 1955 115 LS
1955 225 MT 1955 115 LS
1956 225 MT 1983 225 LS
1983 225 MT 1983 115 LS
1984 115 MT 2011 115 LS
2011 225 MT 2011 115 LS
2012 225 MT 2039 225 LS
2039 225 MT 2039 115 LS
2040 115 MT 2067 115 LS
2067 225 MT 2067 115 LS
2068 225 MT 2094 225 LS
2094 225 MT 2094 115 LS
2095 115 MT 2122 115 LS
2122 225 MT 2122 115 LS
2123 225 MT 2150 225 LS
2150 225 MT 2150 115 LS
2151 115 MT 2178 115 LS
2178 225 MT 2178 115 LS
2179 225 MT 2206 225 LS
2206 225 MT 2206 115 LS
2207 115 MT 2234 115 LS
2234 225 MT 2234 115 LS
2235 225 MT 2261 225 LS
2261 225 MT 2261 115 LS
2262 115 MT 2289 115 LS
2289 225 MT 2289 115 LS
2290 225 MT 2317 225 LS
2317 225 MT 2317 115 LS
2318 115 MT 2345 115 LS
2345 225 MT 2345 115 LS
2346 225 MT 2373 225 LS
2373 225 MT 2373 115 LS
2374 115 MT 2401 115 LS
2401 225 MT 2401 115 LS
2402 225 MT 2429 225 LS
2429 225 MT 2429 115 LS
2430 115 MT 2456 115 LS
2456 225 MT 2456 115 LS
2457 225 MT 2484 225 LS
2484 225 MT 2484 115 LS
2485 115 MT 2512 115 LS
2512 225 MT 2512 115 LS
2513 225 MT 2540 225 LS
2540 225 MT 2540 115 LS
2541 115 MT 2568 115 LS
2568 225 MT 2568 115 LS
2569 225 MT 2596 225 LS
2596 225 MT 2596 115 LS
2597 115 MT 2624 115 LS
2624 225 MT 2624 115 LS
2625 225 MT 2651 225 LS
2651 225 MT 2651 115 LS
2652 115 MT 2679 115 LS
2679 225 MT 2679 115 LS
2680 225 MT 2707 225 LS
2707 225 MT 2707 115 LS
2708 115 MT 2735 115 LS
2735 225 MT 2735 115 LS
2736 225 MT 2763 225 LS
2763 225 MT 2763 115 LS
2764 115 MT 2791 115 LS
2791 225 MT 2791 115 LS
2792 225 MT 2818 225 LS
2818 225 MT 2818 115 LS
2819 115 MT 2846 115 LS
2846 225 MT 2846 115 LS
2847 225 MT 2874 225 LS
2874 225 MT 2874 115 LS
2875 115 MT 2902 115 LS
2902 225 MT 2902 115 LS
2903 225 MT 2930 225 LS
2930 225 MT 2930 115 LS
2931 115 MT 2958 115 LS
2958 225 MT 2958 115 LS
2959 225 MT 2986 225 LS
2986 225 MT 2986 115 LS
2987 115 MT 3013 115 LS
3013 225 MT 3013 115 LS
3014 225 MT 3041 225 LS
3041 225 MT 3041 115 LS
3042 115 MT 3069 115 LS
3069 225 MT 3069 115 LS
3070 225 MT 3097 225 LS
3097 225 MT 3097 115 LS
3098 115 MT 3125 115 LS
3125 225 MT 3125 115 LS
3126 225 MT 3153 225 LS
3153 225 MT 3153 115 LS
3154 115 MT 3181 115 LS
3181 225 MT 3181 115 LS
3182 225 MT 3208 225 LS
3208 225 MT 3208 115 LS
3209 115 MT 3236 115 LS
3236 225 MT 3236 115 LS
3237 225 MT 3264 225 LS
3264 225 MT 3264 115 LS
3265 115 MT 3292 115 LS
3292 225 MT 3292 115 LS
3293 225 MT 3320 225 LS
3320 225 MT 3320 115 LS
3321 115 MT 3348 115 LS
3348 225 MT 3348 115 LS
3349 225 MT 3375 225 LS
3375 225 MT 3375 115 LS
3376 115 MT 3403 115 LS
3403 225 MT 3403 115 LS
3404 225 MT 3431 225 LS
3431 225 MT 3431 115 LS
3432 115 MT 3459 115 LS
3459 225 MT 3459 115 LS
3460 225 MT 3487 225 LS
3487 225 MT 3487 115 LS
3488 115 MT 3515 115 LS
3515 225 MT 3515 115 LS
3516 225 MT 3543 225 LS
3543 225 MT 3543 115 LS
3544 115 MT 3570 115 LS
3570 225 MT 3570 115 LS
3571 225 MT 3598 225 LS
3598 225 MT 3598 115 LS
3599 115 MT 3626 115 LS
3626 225 MT 3626 115 LS
3627 225 MT 3654 225 LS
3654 225 MT 3654 115 LS
3655 115 MT 3682 115 LS
3682 225 MT 3682 115 LS
3683 225 MT 3710 225 LS
3710 225 MT 3710 115 LS
3711 115 MT 3738 115 LS
3738 225 MT 3738 115 LS
3739 225 MT 3765 225 LS
3765 225 MT 3765 115 LS
3766 115 MT 3793 115 LS
3793 225 MT 3793 115 LS
3794 225 MT 3821 225 LS
3821 225 MT 3821 115 LS
3822 115 MT 3849 115 LS
3849 225 MT 3849 115 LS
3850 225 MT 3877 225 LS
3877 225 MT 3877 115 LS
3878 115 MT 3905 115 LS
3905 225 MT 3905 115 LS
3906 225 MT 3932 225 LS
3932 225 MT 3932 115 LS
3933 115 MT 3960 115 LS
3960 225 MT 3960 115 LS
3961 225 MT 3988 225 LS
3988 225 MT 3988 115 LS
3989 115 MT 4016 115 LS
4016 225 MT 4016 115 LS
4017 225 MT 4044 225 LS
4044 225 MT 4044 115 LS
4045 115 MT 4072 115 LS
4072 225 MT 4072 115 LS
4073 225 MT 4100 225 LS
4100 225 MT 4100 115 LS
4101 115 MT 4127 115 LS
4127 225 MT 4127 115 LS
4128 225 MT 4155 225 LS
4155 225 MT 4155 115 LS
4156 115 MT 4183 115 LS
4183 225 MT 4183 115 LS
4184 225 MT 4211 225 LS
4211 225 MT 4211 115 LS
4212 115 MT 4239 115 LS
4239 225 MT 4239 115 LS
4240 225 MT 4267 225 LS
4267 225 MT 4267 115 LS
4268 115 MT 4295 115 LS
4295 225 MT 4295 115 LS
4296 225 MT 4322 225 LS
4322 225 MT 4322 115 LS
4323 115 MT 4350 115 LS
4350 225 MT 4350 115 LS
4351 225 MT 4378 225 LS
4378 225 MT 4378 115 LS
4379 115 MT 4406 115 LS
4406 225 MT 4406 115 LS
4407 225 MT 4434 225 LS
4434 225 MT 4434 115 LS
4435 115 MT 4462 115 LS
4462 225 MT 4462 115 LS
4463 225 MT 4489 225 LS
4489 225 MT 4489 115 LS
4490 115 MT 4517 115 LS
4517 225 MT 4517 115 LS
4518 225 MT 4545 225 LS
4545 225 MT 4545 115 LS
4546 115 MT 4573 115 LS
4573 225 MT 4573 115 LS
4574 225 MT 4601 225 LS
4601 225 MT 4601 115 LS
4602 115 MT 4629 115 LS
4629 225 MT 4629 115 LS
4630 225 MT 4657 225 LS
4657 225 MT 4657 115 LS
4658 115 MT 4684 115 LS
4684 225 MT 4684 115 LS
4685 225 MT 4712 225 LS
4712 225 MT 4712 115 LS
4713 115 MT 4740 115 LS
4740 225 MT 4740 115 LS
4741 225 MT 4768 225 LS
4768 225 MT 4768 115 LS
4769 115 MT 4796 115 LS
4796 225 MT 4796 115 LS
4797 225 MT 4824 225 LS
4824 225 MT 4824 115 LS
4825 115 MT 4852 115 LS
4852 225 MT 4852 115 LS
4853 225 MT 4879 225 LS
4879 225 MT 4879 115 LS
4880 115 MT 4907 115 LS
4907 225 MT 4907 115 LS
4908 225 MT 4935 225 LS
4935 225 MT 4935 115 LS
4936 115 MT 4963 115 LS
4963 225 MT 4963 115 LS
4964 225 MT 4991 225 LS
4991 225 MT 4991 115 LS
4992 115 MT 5019 115 LS
5019 225 MT 5019 115 LS
5020 225 MT 5046 225 LS
5046 225 MT 5046 115 LS
5047 115 MT 5074 115 LS
5074 225 MT 5074 115 LS
5075 225 MT 5102 225 LS
5102 225 MT 5102 115 LS
5103 115 MT 5130 115 LS
5130 225 MT 5130 115 LS
5131 225 MT 5158 225 LS
5158 225 MT 5158 115 LS
5159 115 MT 5186 115 LS
5186 225 MT 5186 115 LS
5187 225 MT 5214 225 LS
5214 225 MT 5214 115 LS
5215 115 MT 5241 115 LS
5241 225 MT 5241 115 LS
5242 225 MT 5269 225 LS
5269 225 MT 5269 115 LS
5270 115 MT 5297 115 LS
5297 225 MT 5297 115 LS
5298 225 MT 5325 225 LS
5325 225 MT 5325 115 LS
5326 115 MT 5353 115 LS
5353 225 MT 5353 115 LS
5354 225 MT 5381 225 LS
5381 225 MT 5381 115 LS
5382 115 MT 5409 115 LS
5409 225 MT 5409 115 LS
5410 225 MT 5436 225 LS
5436 225 MT 5436 115 LS
5437 115 MT 5464 115 LS
5464 225 MT 5464 115 LS
5465 225 MT 5492 225 LS
5492 225 MT 5492 115 LS
5493 115 MT 5520 115 LS
5520 225 MT 5520 115 LS
5521 225 MT 5548 225 LS
5548 225 MT 5548 115 LS
5549 115 MT 5576 115 LS
5576 225 MT 5576 115 LS
5577 225 MT 5603 225 LS
5603 225 MT 5603 115 LS
5604 115 MT 5631 115 LS
5631 225 MT 5631 115 LS
5632 225 MT 5659 225 LS
5659 225 MT 5659 115 LS
5660 115 MT 5687 115 LS
5687 225 MT 5687 115 LS
5688 225 MT 5715 225 LS
5715 225 MT 5715 115 LS
5716 115 MT 5743 115 LS
5743 225 MT 5743 115 LS
5744 225 MT 5771 225 LS
5771 225 MT 5771 115 LS
5772 115 MT 5798 115 LS
5798 225 MT 5798 115 LS
5799 225 MT 5826 225 LS
5826 225 MT 5826 115 LS
5827 115 MT 5854 115 LS
5854 225 MT 5854 115 LS
5855 225 MT 5882 225 LS
5882 225 MT 5882 115 LS
5883 115 MT 5910 115 LS
5910 225 MT 5910 115 LS
5911 225 MT 5938 225 LS
5938 225 MT 5938 115 LS
5939 115 MT 5966 115 LS
5966 225 MT 5966 115 LS
5967 225 MT 5993 225 LS
5993 225 MT 5993 115 LS
5994 115 MT 6021 115 LS
6021 225 MT 6021 115 LS
6022 225 MT 6049 225 LS
6049 225 MT 6049 115 LS
6050 115 MT 6077 115 LS
6077 225 MT 6077 115 LS
6078 225 MT 6105 225 LS
6105 225 MT 6105 115 LS
6106 115 MT 6133 115 LS
6133 225 MT 6133 115 LS
6134 225 MT 6160 225 LS
6160 225 MT 6160 115 LS
6161 115 MT 6188 115 LS
6188 225 MT 6188 115 LS
6189 225 MT 6216 225 LS
6216 225 MT 6216 115 LS
6217 115 MT 6244 115 LS
6244 225 MT 6244 115 LS
6245 225 MT 6272 225 LS
6272 225 MT 6272 115 LS
6273 115 MT 6300 115 LS
6300 225 MT 6300 115 LS
6301 225 MT 6328 225 LS
6328 225 MT 6328 115 LS
6329 115 MT 6355 115 LS
6355 225 MT 6355 115 LS
6356 225 MT 6383 225 LS
6383 225 MT 6383 115 LS
6384 115 MT 6411 115 LS
6411 225 MT 6411 115 LS
6412 225 MT 6439 225 LS
6439 225 MT 6439 115 LS
6440 115 MT 6467 115 LS
6467 225 MT 6467 115 LS
6468 225 MT 6495 225 LS
6495 225 MT 6495 115 LS
6496 115 MT 6523 115 LS
6523 225 MT 6523 115 LS
6523 225 MT 6523 225 LS
(000a) 166 LC 967 368 WT pop 0 originOffset 50 add RSS
953 313 MT 953 313 LT 1140 313 LT 1147 368 LT ST
953 423 MT 953 423 LT 1140 423 LT 1147 368 LT ST
(000c) 251 LC 1161 368 WT pop 0 originOffset 50 add RSS
1147 368 MT 1147 368 LT 1154 313 LT 1419 313 LT 1426 368 LT ST
1147 368 MT 1147 368 LT 1154 423 LT 1419 423 LT 1426 368 LT ST
(000e) 250 LC 1440 368 WT pop 0 originOffset 50 add RSS
1426 368 MT 1426 368 LT 1433 313 LT 1697 313 LT 1704 368 LT ST
1426 368 MT 1426 368 LT 1433 423 LT 1697 423 LT 1704 368 LT ST
(0010) 251 LC 1718 368 WT pop 0 originOffset 50 add RSS
1704 368 MT 1704 368 LT 1711 313 LT 1976 313 LT 1983 368 LT ST
1704 368 MT 1704 368 LT 1711 423 LT 1976 423 LT 1983 368 LT ST
(0012) 250 LC 1997 368 WT pop 0 originOffset 50 add RSS
1983 368 MT 1983 368 LT 1990 313 LT 2254 313 LT 2261 368 LT ST
1983 368 MT 1983 368 LT 1990 423 LT 2254 423 LT 2261 368 LT ST
(000c) 28 LC 2275 368 WT pop 0 originOffset 50 add RSS
2261 368 MT 2261 368 LT 2268 313 LT 2310 313 LT 2317 368 LT ST
2261 368 MT 2261 368 LT 2268 423 LT 2310 423 LT 2317 368 LT ST
(000e) 251 LC 2331 368 WT pop 0 originOffset 50 add RSS
2317 368 MT 2317 368 LT 2324 313 LT 2589 313 LT 2596 368 LT ST
2317 368 MT 2317 368 LT 2324 423 LT 2589 423 LT 2596 368 LT ST
(0010) 250 LC 2610 368 WT pop 0 originOffset 50 add RSS
2596 368 MT 2596 368 LT 2603 313 LT 2867 313 LT 2874 368 LT ST
2596 368 MT 2596 368 LT 2603 423 LT 2867 423 LT 2874 368 LT ST
(0012) 251 LC 2888 368 WT pop 0 originOffset 50 add RSS
2874 368 MT 2874 368 LT 2881 313 LT 3146 313 LT 3153 368 LT ST
2874 368 MT 2874 368 LT 2881 423 LT 3146 423 LT 3153 368 LT ST
(0014) 250 LC 3167 368 WT pop 0 originOffset 50 add RSS
3153 368 MT 3153 368 LT 3160 313 LT 3424 313 LT 3431 368 LT ST
3153 368 MT 3153 368 LT 3160 423 LT 3424 423 LT 3431 368 LT ST
(0016) 251 LC 3445 368 WT pop 0 originOffset 50 add RSS
3431 368 MT 3431 368 LT 3438 313 LT 3703 313 LT 3710 368 LT ST
3431 368 MT 3431 368 LT 3438 423 LT 3703 423 LT 3710 368 LT ST
(0008) 27 LC 3724 368 WT pop 0 originOffset 50 add RSS
3710 368 MT 3710 368 LT 3717 313 LT 3758 313 LT 3765 368 LT ST
3710 368 MT 3710 368 LT 3717 423 LT 3758 423 LT 3765 368 LT ST
(000a) 251 LC 3779 368 WT pop 0 originOffset 50 add RSS
3765 368 MT 3765 368 LT 3772 313 LT 4037 313 LT 4044 368 LT ST
3765 368 MT 3765 368 LT 3772 423 LT 4037 423 LT 4044 368 LT ST
(000c) 250 LC 4058 368 WT pop 0 originOffset 50 add RSS
4044 368 MT 4044 368 LT 4051 313 LT 4315 313 LT 4322 368 LT ST
4044 368 MT 4044 368 LT 4051 423 LT 4315 423 LT 4322 368 LT ST
(000e) 251 LC 4336 368 WT pop 0 originOffset 50 add RSS
4322 368 MT 4322 368 LT 4329 313 LT 4594 313 LT 4601 368 LT ST
4322 368 MT 4322 368 LT 4329 423 LT 4594 423 LT 4601 368 LT ST
(0010) 250 LC 4615 368 WT pop 0 originOffset 50 add RSS
4601 368 MT 4601 368 LT 4608 313 LT 4872 313 LT 4879 368 LT ST
4601 368 MT 4601 368 LT 4608 423 LT 4872 423 LT 4879 368 LT ST
(0012) 251 LC 4893 368 WT pop 0 originOffset 50 add RSS
4879 368 MT 4879 368 LT 4886 313 LT 5151 313 LT 5158 368 LT ST
4879 368 MT 4879 368 LT 4886 423 LT 5151 423 LT 5158 368 LT ST
(0014) 250 LC 5172 368 WT pop 0 originOffset 50 add RSS
5158 368 MT 5158 368 LT 5165 313 LT 5429 313 LT 5436 368 LT ST
5158 368 MT 5158 368 LT 5165 423 LT 5429 423 LT 5436 368 LT ST
(0016) 251 LC 5450 368 WT pop 0 originOffset 50 add RSS
5436 368 MT 5436 368 LT 5443 313 LT 5708 313 LT 5715 368 LT ST
5436 368 MT 5436 368 LT 5443 423 LT 5708 423 LT 5715 368 LT ST
(0018) 250 LC 5729 368 WT pop 0 originOffset 50 add RSS
5715 368 MT 5715 368 LT 5722 313 LT 5986 313 LT 5993 368 LT ST
5715 368 MT 5715 368 LT 5722 423 LT 5986 423 LT 5993 368 LT ST
(0016) 28 LC 6007 368 WT pop 0 originOffset 50 add RSS
5993 368 MT 5993 368 LT 6000 313 LT 6042 313 LT 6049 368 LT ST
5993 368 MT 5993 368 LT 6000 423 LT 6042 423 LT 6049 368 LT ST
(0018) 251 LC 6063 368 WT pop 0 originOffset 50 add RSS
6049 368 MT 6049 368 LT 6056 313 LT 6321 313 LT 6328 368 LT ST
6049 368 MT 6049 368 LT 6056 423 LT 6321 423 LT 6328 368 LT ST
(0016) 27 LC 6342 368 WT pop 0 originOffset 50 add RSS
6328 368 MT 6328 368 LT 6335 313 LT 6376 313 LT 6383 368 LT ST
6328 368 MT 6328 368 LT 6335 423 LT 6376 423 LT 6383 368 LT ST
(0018) 112 LC 6397 368 WT pop 0 originOffset 50 add RSS
6383 368 MT 6383 368 LT 6390 313 LT 6523 313 LT ST
6383 368 MT 6383 368 LT 6390 423 LT 6523 423 LT ST
(0008) 166 LC 967 566 WT pop 0 originOffset 50 add RSS
953 511 MT 953 511 LT 1140 511 LT 1147 566 LT ST
953 621 MT 953 621 LT 1140 621 LT 1147 566 LT ST
(000a) 251 LC 1161 566 WT pop 0 originOffset 50 add RSS
1147 566 MT 1147 566 LT 1154 511 LT 1419 511 LT 1426 566 LT ST
1147 566 MT 1147 566 LT 1154 621 LT 1419 621 LT 1426 566 LT ST
(000c) 250 LC 1440 566 WT pop 0 originOffset 50 add RSS
1426 566 MT 1426 566 LT 1433 511 LT 1697 511 LT 1704 566 LT ST
1426 566 MT 1426 566 LT 1433 621 LT 1697 621 LT 1704 566 LT ST
(000e) 251 LC 1718 566 WT pop 0 originOffset 50 add RSS
1704 566 MT 1704 566 LT 1711 511 LT 1976 511 LT 1983 566 LT ST
1704 566 MT 1704 566 LT 1711 621 LT 1976 621 LT 1983 566 LT ST
(0010) 306 LC 1997 566 WT pop 0 originOffset 50 add RSS
1983 566 MT 1983 566 LT 1990 511 LT 2310 511 LT 2317 566 LT ST
1983 566 MT 1983 566 LT 1990 621 LT 2310 621 LT 2317 566 LT ST
(000c) 251 LC 2331 566 WT pop 0 originOffset 50 add RSS
2317 566 MT 2317 566 LT 2324 511 LT 2589 511 LT 2596 566 LT ST
2317 566 MT 2317 566 LT 2324 621 LT 2589 621 LT 2596 566 LT ST
(000e) 250 LC 2610 566 WT pop 0 originOffset 50 add RSS
2596 566 MT 2596 566 LT 2603 511 LT 2867 511 LT 2874 566 LT ST
2596 566 MT 2596 566 LT 2603 621 LT 2867 621 LT 2874 566 LT ST
(0010) 251 LC 2888 566 WT pop 0 originOffset 50 add RSS
2874 566 MT 2874 566 LT 2881 511 LT 3146 511 LT 3153 566 LT ST
2874 566 MT 2874 566 LT 2881 621 LT 3146 621 LT 3153 566 LT ST
(0012) 250 LC 3167 566 WT pop 0 originOffset 50 add RSS
3153 566 MT 3153 566 LT 3160 511 LT 3424 511 LT 3431 566 LT ST
3153 566 MT 3153 566 LT 3160 621 LT 3424 621 LT 3431 566 LT ST
(0014) 306 LC 3445 566 WT pop 0 originOffset 50 add RSS
3431 566 MT 3431 566 LT 3438 511 LT 3758 511 LT 3765 566 LT ST
3431 566 MT 3431 566 LT 3438 621 LT 3758 621 LT 3765 566 LT ST
(0008) 251 LC 3779 566 WT pop 0 originOffset 50 add RSS
3765 566 MT 3765 566 LT 3772 511 LT 4037 511 LT 4044 566 LT ST
3765 566 MT 3765 566 LT 3772 621 LT 4037 621 LT 4044 566 LT ST
(000a) 250 LC 4058 566 WT pop 0 originOffset 50 add RSS
4044 566 MT 4044 566 LT 4051 511 LT 4315 511 LT 4322 566 LT ST
4044 566 MT 4044 566 LT 4051 621 LT 4315 621 LT 4322 566 LT ST
(000c) 251 LC 4336 566 WT pop 0 originOffset 50 add RSS
4322 566 MT 4322 566 LT 4329 511 LT 4594 511 LT 4601 566 LT ST
4322 566 MT 4322 566 LT 4329 621 LT 4594 621 LT 4601 566 LT ST
(000e) 250 LC 4615 566 WT pop 0 originOffset 50 add RSS
4601 566 MT 4601 566 LT 4608 511 LT 4872 511 LT 4879 566 LT ST
4601 566 MT 4601 566 LT 4608 621 LT 4872 621 LT 4879 566 LT ST
(0010) 251 LC 4893 566 WT pop 0 originOffset 50 add RSS
4879 566 MT 4879 566 LT 4886 511 LT 5151 511 LT 5158 566 LT ST
4879 566 MT 4879 566 LT 4886 621 LT 5151 621 LT 5158 566 LT ST
(0012) 250 LC 5172 566 WT pop 0 originOffset 50 add RSS
5158 566 MT 5158 566 LT 5165 511 LT 5429 511 LT 5436 566 LT ST
5158 566 MT 5158 566 LT 5165 621 LT 5429 621 LT 5436 566 LT ST
(0014) 251 LC 5450 566 WT pop 0 originOffset 50 add RSS
5436 566 MT 5436 566 LT 5443 511 LT 5708 511 LT 5715 566 LT ST
5436 566 MT 5436 566 LT 5443 621 LT 5708 621 LT 5715 566 LT ST
(0016) 780 LC 5729 566 WT pop 0 originOffset 50 add RSS
5715 566 MT 5715 566 LT 5722 511 LT 6523 511 LT ST
5715 566 MT 5715 566 LT 5722 621 LT 6523 621 LT ST
954 819 MT 1147 819 LS
1147 819 MT 1147 709 LS
1148 709 MT 1203 709 LS
1203 819 MT 1203 709 LS
1204 819 MT 1426 819 LS
1426 819 MT 1426 709 LS
1427 709 MT 1482 709 LS
1482 819 MT 1482 709 LS
1483 819 MT 1704 819 LS
1704 819 MT 1704 709 LS
1705 709 MT 1760 709 LS
1760 819 MT 1760 709 LS
1761 819 MT 1983 819 LS
1983 819 MT 1983 709 LS
1984 709 MT 2039 709 LS
2039 819 MT 2039 709 LS
2040 819 MT 2317 819 LS
2317 819 MT 2317 709 LS
2318 709 MT 2373 709 LS
2373 819 MT 2373 709 LS
2374 819 MT 2596 819 LS
2596 819 MT 2596 709 LS
2597 709 MT 2651 709 LS
2651 819 MT 2651 709 LS
2652 819 MT 2874 819 LS
2874 819 MT 2874 709 LS
2875 709 MT 2930 709 LS
2930 819 MT 2930 709 LS
2931 819 MT 3153 819 LS
3153 819 MT 3153 709 LS
3154 709 MT 3208 709 LS
3208 819 MT 3208 709 LS
3209 819 MT 3431 819 LS
3431 819 MT 3431 709 LS
3432 709 MT 3487 709 LS
3487 819 MT 3487 709 LS
3488 819 MT 3765 819 LS
3765 819 MT 3765 709 LS
3766 709 MT 3821 709 LS
3821 819 MT 3821 709 LS
3822 819 MT 4044 819 LS
4044 819 MT 4044 709 LS
4045 709 MT 4100 709 LS
4100 819 MT 4100 709 LS
4101 819 MT 4322 819 LS
4322 819 MT 4322 709 LS
4323 709 MT 4378 709 LS
4378 819 MT 4378 709 LS
4379 819 MT 4601 819 LS
4601 819 MT 4601 709 LS
4602 709 MT 4657 709 LS
4657 819 MT 4657 709 LS
4658 819 MT 4879 819 LS
4879 819 MT 4879 709 LS
4880 709 MT 4935 709 LS
4935 819 MT 4935 709 LS
4936 819 MT 5158 819 LS
5158 819 MT 5158 709 LS
5159 709 MT 5214 709 LS
5214 819 MT 5214 709 LS
5215 819 MT 5436 819 LS
5436 819 MT 5436 709 LS
5437 709 MT 5492 709 LS
5492 819 MT 5492 709 LS
5493 819 MT 5715 819 LS
5715 819 MT 5715 709 LS
5716 709 MT 5771 709 LS
5771 819 MT 5771 709 LS
5772 819 MT 6049 819 LS
6049 819 MT 6049 709 LS
6050 709 MT 6105 709 LS
6105 819 MT 6105 709 LS
6106 819 MT 6383 819 LS
6383 819 MT 6383 709 LS
6384 709 MT 6439 709 LS
6439 819 MT 6439 709 LS
6440 819 MT 6523 819 LS
6523 819 MT 6523 819 LS
(1640) 166 LC 967 962 WT pop 0 originOffset 50 add RSS
953 907 MT 953 907 LT 1140 907 LT 1147 962 LT ST
953 1017 MT 953 1017 LT 1140 1017 LT 1147 962 LT ST
(1880) 251 LC 1161 962 WT pop 0 originOffset 50 add RSS
1147 962 MT 1147 962 LT 1154 907 LT 1419 907 LT 1426 962 LT ST
1147 962 MT 1147 962 LT 1154 1017 LT 1419 1017 LT 1426 962 LT ST
(1484) 250 LC 1440 962 WT pop 0 originOffset 50 add RSS
1426 962 MT 1426 962 LT 1433 907 LT 1697 907 LT 1704 962 LT ST
1426 962 MT 1426 962 LT 1433 1017 LT 1697 1017 LT 1704 962 LT ST
(16c5) 251 LC 1718 962 WT pop 0 originOffset 50 add RSS
1704 962 MT 1704 962 LT 1711 907 LT 1976 907 LT 1983 962 LT ST
1704 962 MT 1704 962 LT 1711 1017 LT 1976 1017 LT 1983 962 LT ST
(03fd) 306 LC 1997 962 WT pop 0 originOffset 50 add RSS
1983 962 MT 1983 962 LT 1990 907 LT 2310 907 LT 2317 962 LT ST
1983 962 MT 1983 962 LT 1990 1017 LT 2310 1017 LT 2317 962 LT ST
(1484) 251 LC 2331 962 WT pop 0 originOffset 50 add RSS
2317 962 MT 2317 962 LT 2324 907 LT 2589 907 LT 2596 962 LT ST
2317 962 MT 2317 962 LT 2324 1017 LT 2589 1017 LT 2596 962 LT ST
(16c5) 250 LC 2610 962 WT pop 0 originOffset 50 add RSS
2596 962 MT 2596 962 LT 2603 907 LT 2867 907 LT 2874 962 LT ST
2596 962 MT 2596 962 LT 2603 1017 LT 2867 1017 LT 2874 962 LT ST
(03fd) 251 LC 2888 962 WT pop 0 originOffset 50 add RSS
2874 962 MT 2874 962 LT 2881 907 LT 3146 907 LT 3153 962 LT ST
2874 962 MT 2874 962 LT 2881 1017 LT 3146 1017 LT 3153 962 LT ST
(1245) 250 LC 3167 962 WT pop 0 originOffset 50 add RSS
3153 962 MT 3153 962 LT 3160 907 LT 3424 907 LT 3431 962 LT ST
3153 962 MT 3153 962 LT 3160 1017 LT 3424 1017 LT 3431 962 LT ST
(03f9) 306 LC 3445 962 WT pop 0 originOffset 50 add RSS
3431 962 MT 3431 962 LT 3438 907 LT 3758 907 LT 3765 962 LT ST
3431 962 MT 3431 962 LT 3438 1017 LT 3758 1017 LT 3765 962 LT ST
(1640) 251 LC 3779 962 WT pop 0 originOffset 50 add RSS
3765 962 MT 3765 962 LT 3772 907 LT 4037 907 LT 4044 962 LT ST
3765 962 MT 3765 962 LT 3772 1017 LT 4037 1017 LT 4044 962 LT ST
(1880) 250 LC 4058 962 WT pop 0 originOffset 50 add RSS
4044 962 MT 4044 962 LT 4051 907 LT 4315 907 LT 4322 962 LT ST
4044 962 MT 4044 962 LT 4051 1017 LT 4315 1017 LT 4322 962 LT ST
(1484) 251 LC 4336 962 WT pop 0 originOffset 50 add RSS
4322 962 MT 4322 962 LT 4329 907 LT 4594 907 LT 4601 962 LT ST
4322 962 MT 4322 962 LT 4329 1017 LT 4594 1017 LT 4601 962 LT ST
(16c5) 250 LC 4615 962 WT pop 0 originOffset 50 add RSS
4601 962 MT 4601 962 LT 4608 907 LT 4872 907 LT 4879 962 LT ST
4601 962 MT 4601 962 LT 4608 1017 LT 4872 1017 LT 4879 962 LT ST
(03fd) 251 LC 4893 962 WT pop 0 originOffset 50 add RSS
4879 962 MT 4879 962 LT 4886 907 LT 5151 907 LT 5158 962 LT ST
4879 962 MT 4879 962 LT 4886 1017 LT 5151 1017 LT 5158 962 LT ST
(1245) 250 LC 5172 962 WT pop 0 originOffset 50 add RSS
5158 962 MT 5158 962 LT 5165 907 LT 5429 907 LT 5436 962 LT ST
5158 962 MT 5158 962 LT 5165 1017 LT 5429 1017 LT 5436 962 LT ST
(03f9) 251 LC 5450 962 WT pop 0 originOffset 50 add RSS
5436 962 MT 5436 962 LT 5443 907 LT 5708 907 LT 5715 962 LT ST
5436 962 MT 5436 962 LT 5443 1017 LT 5708 1017 LT 5715 962 LT ST
(0fff) 780 LC 5729 962 WT pop 0 originOffset 50 add RSS
5715 962 MT 5715 962 LT 5722 907 LT 6523 907 LT ST
5715 962 MT 5715 962 LT 5722 1017 LT 6523 1017 LT ST
954 1215 MT 6523 1215 LS
6523 1215 MT 6523 1215 LS
(3) 5542 LC 967 1358 WT pop 0 originOffset 50 add RSS
953 1303 MT 953 1303 LT 6523 1303 LT ST
953 1413 MT 953 1413 LT 6523 1413 LT ST
(1640) 222 LC 967 1556 WT pop 0 originOffset 50 add RSS
953 1501 MT 953 1501 LT 1196 1501 LT 1203 1556 LT ST
953 1611 MT 953 1611 LT 1196 1611 LT 1203 1556 LT ST
(1880) 251 LC 1217 1556 WT pop 0 originOffset 50 add RSS
1203 1556 MT 1203 1556 LT 1210 1501 LT 1475 1501 LT 1482 1556 LT ST
1203 1556 MT 1203 1556 LT 1210 1611 LT 1475 1611 LT 1482 1556 LT ST
(1484) 250 LC 1496 1556 WT pop 0 originOffset 50 add RSS
1482 1556 MT 1482 1556 LT 1489 1501 LT 1753 1501 LT 1760 1556 LT ST
1482 1556 MT 1482 1556 LT 1489 1611 LT 1753 1611 LT 1760 1556 LT ST
(16c5) 251 LC 1774 1556 WT pop 0 originOffset 50 add RSS
1760 1556 MT 1760 1556 LT 1767 1501 LT 2032 1501 LT 2039 1556 LT ST
1760 1556 MT 1760 1556 LT 1767 1611 LT 2032 1611 LT 2039 1556 LT ST
(03fd) 306 LC 2053 1556 WT pop 0 originOffset 50 add RSS
2039 1556 MT 2039 1556 LT 2046 1501 LT 2366 1501 LT 2373 1556 LT ST
2039 1556 MT 2039 1556 LT 2046 1611 LT 2366 1611 LT 2373 1556 LT ST
(1484) 250 LC 2387 1556 WT pop 0 originOffset 50 add RSS
2373 1556 MT 2373 1556 LT 2380 1501 LT 2644 1501 LT 2651 1556 LT ST
2373 1556 MT 2373 1556 LT 2380 1611 LT 2644 1611 LT 2651 1556 LT ST
(16c5) 251 LC 2665 1556 WT pop 0 originOffset 50 add RSS
2651 1556 MT 2651 1556 LT 2658 1501 LT 2923 1501 LT 2930 1556 LT ST
2651 1556 MT 2651 1556 LT 2658 1611 LT 2923 1611 LT 2930 1556 LT ST
(03fd) 250 LC 2944 1556 WT pop 0 originOffset 50 add RSS
2930 1556 MT 2930 1556 LT 2937 1501 LT 3201 1501 LT 3208 1556 LT ST
2930 1556 MT 2930 1556 LT 2937 1611 LT 3201 1611 LT 3208 1556 LT ST
(1245) 251 LC 3222 1556 WT pop 0 originOffset 50 add RSS
3208 1556 MT 3208 1556 LT 3215 1501 LT 3480 1501 LT 3487 1556 LT ST
3208 1556 MT 3208 1556 LT 3215 1611 LT 3480 1611 LT 3487 1556 LT ST
(03f9) 306 LC 3501 1556 WT pop 0 originOffset 50 add RSS
3487 1556 MT 3487 1556 LT 3494 1501 LT 3814 1501 LT 3821 1556 LT ST
3487 1556 MT 3487 1556 LT 3494 1611 LT 3814 1611 LT 3821 1556 LT ST
(1640) 251 LC 3835 1556 WT pop 0 originOffset 50 add RSS
3821 1556 MT 3821 1556 LT 3828 1501 LT 4093 1501 LT 4100 1556 LT ST
3821 1556 MT 3821 1556 LT 3828 1611 LT 4093 1611 LT 4100 1556 LT ST
(1880) 250 LC 4114 1556 WT pop 0 originOffset 50 add RSS
4100 1556 MT 4100 1556 LT 4107 1501 LT 4371 1501 LT 4378 1556 LT ST
4100 1556 MT 4100 1556 LT 4107 1611 LT 4371 1611 LT 4378 1556 LT ST
(1484) 251 LC 4392 1556 WT pop 0 originOffset 50 add RSS
4378 1556 MT 4378 1556 LT 4385 1501 LT 4650 1501 LT 4657 1556 LT ST
4378 1556 MT 4378 1556 LT 4385 1611 LT 4650 1611 LT 4657 1556 LT ST
(16c5) 250 LC 4671 1556 WT pop 0 originOffset 50 add RSS
4657 1556 MT 4657 1556 LT 4664 1501 LT 4928 1501 LT 4935 1556 LT ST
4657 1556 MT 4657 1556 LT 4664 1611 LT 4928 1611 LT 4935 1556 LT ST
(03fd) 251 LC 4949 1556 WT pop 0 originOffset 50 add RSS
4935 1556 MT 4935 1556 LT 4942 1501 LT 5207 1501 LT 5214 1556 LT ST
4935 1556 MT 4935 1556 LT 4942 1611 LT 5207 1611 LT 5214 1556 LT ST
(1245) 250 LC 5228 1556 WT pop 0 originOffset 50 add RSS
5214 1556 MT 5214 1556 LT 5221 1501 LT 5485 1501 LT 5492 1556 LT ST
5214 1556 MT 5214 1556 LT 5221 1611 LT 5485 1611 LT 5492 1556 LT ST
(03f9) 251 LC 5506 1556 WT pop 0 originOffset 50 add RSS
5492 1556 MT 5492 1556 LT 5499 1501 LT 5764 1501 LT 5771 1556 LT ST
5492 1556 MT 5492 1556 LT 5499 1611 LT 5764 1611 LT 5771 1556 LT ST
(0fff) 724 LC 5785 1556 WT pop 0 originOffset 50 add RSS
5771 1556 MT 5771 1556 LT 5778 1501 LT 6523 1501 LT ST
5771 1556 MT 5771 1556 LT 5778 1611 LT 6523 1611 LT ST
(0000 0000 ffff 0005 0000 0014 0002 0000) 111 LC 967 1754 WT pop 0 originOffset 50 add RSS
953 1699 MT 953 1699 LT 1085 1699 LT 1092 1754 LT ST
953 1809 MT 953 1809 LT 1085 1809 LT 1092 1754 LT ST
(0000 0000 ffff 0005 0002 0014 0002 0000) 250 LC 1106 1754 WT pop 0 originOffset 50 add RSS
1092 1754 MT 1092 1754 LT 1099 1699 LT 1363 1699 LT 1370 1754 LT ST
1092 1754 MT 1092 1754 LT 1099 1809 LT 1363 1809 LT 1370 1754 LT ST
(0000 0000 ffff 0014 0002 0014 0002 0000) 251 LC 1384 1754 WT pop 0 originOffset 50 add RSS
1370 1754 MT 1370 1754 LT 1377 1699 LT 1642 1699 LT 1649 1754 LT ST
1370 1754 MT 1370 1754 LT 1377 1809 LT 1642 1809 LT 1649 1754 LT ST
(0000 0000 ffff 0014 0002 0028 0002 0000) 250 LC 1663 1754 WT pop 0 originOffset 50 add RSS
1649 1754 MT 1649 1754 LT 1656 1699 LT 1920 1699 LT 1927 1754 LT ST
1649 1754 MT 1649 1754 LT 1656 1809 LT 1920 1809 LT 1927 1754 LT ST
(0000 0000 ffff 0014 0001 0028 0002 0000) 585 LC 1941 1754 WT pop 0 originOffset 50 add RSS
1927 1754 MT 1927 1754 LT 1934 1699 LT 2533 1699 LT 2540 1754 LT ST
1927 1754 MT 1927 1754 LT 1934 1809 LT 2533 1809 LT 2540 1754 LT ST
(0000 0000 ffff 0014 0001 003c 0002 0000) 250 LC 2554 1754 WT pop 0 originOffset 50 add RSS
2540 1754 MT 2540 1754 LT 2547 1699 LT 2811 1699 LT 2818 1754 LT ST
2540 1754 MT 2540 1754 LT 2547 1809 LT 2811 1809 LT 2818 1754 LT ST
(0000 0000 ffff 0014 0000 003c 0002 0000) 529 LC 2832 1754 WT pop 0 originOffset 50 add RSS
2818 1754 MT 2818 1754 LT 2825 1699 LT 3368 1699 LT 3375 1754 LT ST
2818 1754 MT 2818 1754 LT 2825 1809 LT 3368 1809 LT 3375 1754 LT ST
(0000 0000 ffff 0014 0000 003c 0001 0000) 585 LC 3389 1754 WT pop 0 originOffset 50 add RSS
3375 1754 MT 3375 1754 LT 3382 1699 LT 3981 1699 LT 3988 1754 LT ST
3375 1754 MT 3375 1754 LT 3382 1809 LT 3981 1809 LT 3988 1754 LT ST
(0000 0000 ffff 0014 0001 003c 0001 0000) 251 LC 4002 1754 WT pop 0 originOffset 50 add RSS
3988 1754 MT 3988 1754 LT 3995 1699 LT 4260 1699 LT 4267 1754 LT ST
3988 1754 MT 3988 1754 LT 3995 1809 LT 4260 1809 LT 4267 1754 LT ST
(0000 0000 ffff 003c 0001 003c 0001 0000) 250 LC 4281 1754 WT pop 0 originOffset 50 add RSS
4267 1754 MT 4267 1754 LT 4274 1699 LT 4538 1699 LT 4545 1754 LT ST
4267 1754 MT 4267 1754 LT 4274 1809 LT 4538 1809 LT 4545 1754 LT ST
(0000 0000 ffff 003c 0001 0078 0001 0000) 251 LC 4559 1754 WT pop 0 originOffset 50 add RSS
4545 1754 MT 4545 1754 LT 4552 1699 LT 4817 1699 LT 4824 1754 LT ST
4545 1754 MT 4545 1754 LT 4552 1809 LT 4817 1809 LT 4824 1754 LT ST
(0000 0000 ffff 003c 0000 0078 0001 0000) 529 LC 4838 1754 WT pop 0 originOffset 50 add RSS
4824 1754 MT 4824 1754 LT 4831 1699 LT 5374 1699 LT 5381 1754 LT ST
4824 1754 MT 4824 1754 LT 4831 1809 LT 5374 1809 LT 5381 1754 LT ST
(0000 0000 ffff 003c 0000 0078 0000 0000) 1114 LC 5395 1754 WT pop 0 originOffset 50 add RSS
5381 1754 MT 5381 1754 LT 5388 1699 LT 6523 1699 LT ST
5381 1754 MT 5381 1754 LT 5388 1809 LT 6523 1809 LT ST
(0000) 5542 LC 967 1941 WT pop 0 originOffset 50 add RSS
953 1886 MT 953 1886 LT 6523 1886 LT ST
953 1996 MT 953 1996 LT 6523 1996 LT ST
(0000) 5542 LC 967 2117 WT pop 0 originOffset 50 add RSS
953 2062 MT 953 2062 LT 6523 2062 LT ST
953 2172 MT 953 2172 LT 6523 2172 LT ST
(ffff) 5542 LC 967 2293 WT pop 0 originOffset 50 add RSS
953 2238 MT 953 2238 LT 6523 2238 LT ST
953 2348 MT 953 2348 LT 6523 2348 LT ST
(0005) 389 LC 967 2469 WT pop 0 originOffset 50 add RSS
953 2414 MT 953 2414 LT 1363 2414 LT 1370 2469 LT ST
953 2524 MT 953 2524 LT 1363 2524 LT 1370 2469 LT ST
(0014) 2869 LC 1384 2469 WT pop 0 originOffset 50 add RSS
1370 2469 MT 1370 2469 LT 1377 2414 LT 4260 2414 LT 4267 2469 LT ST
1370 2469 MT 1370 2469 LT 1377 2524 LT 4260 2524 LT 4267 2469 LT ST
(003c) 2228 LC 4281 2469 WT pop 0 originOffset 50 add RSS
4267 2469 MT 4267 2469 LT 4274 2414 LT 6523 2414 LT ST
4267 2469 MT 4267 2469 LT 4274 2524 LT 6523 2524 LT ST
(0000) 111 LC 967 2645 WT pop 0 originOffset 50 add RSS
953 2590 MT 953 2590 LT 1085 2590 LT 1092 2645 LT ST
953 2700 MT 953 2700 LT 1085 2700 LT 1092 2645 LT ST
(0002) 807 LC 1106 2645 WT pop 0 originOffset 50 add RSS
1092 2645 MT 1092 2645 LT 1099 2590 LT 1920 2590 LT 1927 2645 LT ST
1092 2645 MT 1092 2645 LT 1099 2700 LT 1920 2700 LT 1927 2645 LT ST
(0001) 863 LC 1941 2645 WT pop 0 originOffset 50 add RSS
1927 2645 MT 1927 2645 LT 1934 2590 LT 2811 2590 LT 2818 2645 LT ST
1927 2645 MT 1927 2645 LT 1934 2700 LT 2811 2700 LT 2818 2645 LT ST
(0000) 1142 LC 2832 2645 WT pop 0 originOffset 50 add RSS
2818 2645 MT 2818 2645 LT 2825 2590 LT 3981 2590 LT 3988 2645 LT ST
2818 2645 MT 2818 2645 LT 2825 2700 LT 3981 2700 LT 3988 2645 LT ST
(0001) 808 LC 4002 2645 WT pop 0 originOffset 50 add RSS
3988 2645 MT 3988 2645 LT 3995 2590 LT 4817 2590 LT 4824 2645 LT ST
3988 2645 MT 3988 2645 LT 3995 2700 LT 4817 2700 LT 4824 2645 LT ST
(0000) 1671 LC 4838 2645 WT pop 0 originOffset 50 add RSS
4824 2645 MT 4824 2645 LT 4831 2590 LT 6523 2590 LT ST
4824 2645 MT 4824 2645 LT 4831 2700 LT 6523 2700 LT ST
(0014) 668 LC 967 2821 WT pop 0 originOffset 50 add RSS
953 2766 MT 953 2766 LT 1642 2766 LT 1649 2821 LT ST
953 2876 MT 953 2876 LT 1642 2876 LT 1649 2821 LT ST
(0028) 863 LC 1663 2821 WT pop 0 originOffset 50 add RSS
1649 2821 MT 1649 2821 LT 1656 2766 LT 2533 2766 LT 2540 2821 LT ST
1649 2821 MT 1649 2821 LT 1656 2876 LT 2533 2876 LT 2540 2821 LT ST
(003c) 1977 LC 2554 2821 WT pop 0 originOffset 50 add RSS
2540 2821 MT 2540 2821 LT 2547 2766 LT 4538 2766 LT 4545 2821 LT ST
2540 2821 MT 2540 2821 LT 2547 2876 LT 4538 2876 LT 4545 2821 LT ST
(0078) 1950 LC 4559 2821 WT pop 0 originOffset 50 add RSS
4545 2821 MT 4545 2821 LT 4552 2766 LT 6523 2766 LT ST
4545 2821 MT 4545 2821 LT 4552 2876 LT 6523 2876 LT ST
(0002) 2394 LC 967 2997 WT pop 0 originOffset 50 add RSS
953 2942 MT 953 2942 LT 3368 2942 LT 3375 2997 LT ST
953 3052 MT 953 3052 LT 3368 3052 LT 3375 2997 LT ST
(0001) 1978 LC 3389 2997 WT pop 0 originOffset 50 add RSS
3375 2997 MT 3375 2997 LT 3382 2942 LT 5374 2942 LT 5381 2997 LT ST
3375 2997 MT 3375 2997 LT 3382 3052 LT 5374 3052 LT 5381 2997 LT ST
(0000) 1114 LC 5395 2997 WT pop 0 originOffset 50 add RSS
5381 2997 MT 5381 2997 LT 5388 2942 LT 6523 2942 LT ST
5381 2997 MT 5381 2997 LT 5388 3052 LT 6523 3052 LT ST
(0000) 5542 LC 967 3173 WT pop 0 originOffset 50 add RSS
953 3118 MT 953 3118 LT 6523 3118 LT ST
953 3228 MT 953 3228 LT 6523 3228 LT ST
% draw timeline
1003 4680 MT 1003 4717 LS
1002 4699 MT 1004 4699 LS
1009 4680 MT 1009 4717 LS
1064 4680 MT 1064 4717 LS
1120 4680 MT 1120 4717 LS
1176 4680 MT 1176 4717 LS
1232 4680 MT 1232 4717 LS
1287 4680 MT 1287 4717 LS
1343 4680 MT 1343 4717 LS
1399 4680 MT 1399 4717 LS
1454 4680 MT 1454 4717 LS
1510 4653 MT 1510 4717 LS
1566 4680 MT 1566 4717 LS
1621 4680 MT 1621 4717 LS
1677 4680 MT 1677 4717 LS
1733 4680 MT 1733 4717 LS
1789 4680 MT 1789 4717 LS
1844 4680 MT 1844 4717 LS
1900 4680 MT 1900 4717 LS
1956 4680 MT 1956 4717 LS
2011 4680 MT 2011 4717 LS
2067 4653 MT 2067 4717 LS
(2000 ns) 9999 LC 2067 4822 WT TS RSS
2123 4680 MT 2123 4717 LS
2178 4680 MT 2178 4717 LS
2234 4680 MT 2234 4717 LS
2290 4680 MT 2290 4717 LS
2346 4680 MT 2346 4717 LS
2401 4680 MT 2401 4717 LS
2457 4680 MT 2457 4717 LS
2513 4680 MT 2513 4717 LS
2568 4680 MT 2568 4717 LS
2624 4653 MT 2624 4717 LS
2680 4680 MT 2680 4717 LS
2735 4680 MT 2735 4717 LS
2791 4680 MT 2791 4717 LS
2847 4680 MT 2847 4717 LS
2903 4680 MT 2903 4717 LS
2958 4680 MT 2958 4717 LS
3014 4680 MT 3014 4717 LS
3070 4680 MT 3070 4717 LS
3125 4680 MT 3125 4717 LS
3181 4653 MT 3181 4717 LS
(2200 ns) 9999 LC 3181 4822 WT TS RSS
3237 4680 MT 3237 4717 LS
3292 4680 MT 3292 4717 LS
3348 4680 MT 3348 4717 LS
3404 4680 MT 3404 4717 LS
3460 4680 MT 3460 4717 LS
3515 4680 MT 3515 4717 LS
3571 4680 MT 3571 4717 LS
3627 4680 MT 3627 4717 LS
3682 4680 MT 3682 4717 LS
3738 4653 MT 3738 4717 LS
3794 4680 MT 3794 4717 LS
3849 4680 MT 3849 4717 LS
3905 4680 MT 3905 4717 LS
3961 4680 MT 3961 4717 LS
4017 4680 MT 4017 4717 LS
4072 4680 MT 4072 4717 LS
4128 4680 MT 4128 4717 LS
4184 4680 MT 4184 4717 LS
4239 4680 MT 4239 4717 LS
4295 4653 MT 4295 4717 LS
(2400 ns) 9999 LC 4295 4822 WT TS RSS
4351 4680 MT 4351 4717 LS
4406 4680 MT 4406 4717 LS
4462 4680 MT 4462 4717 LS
4518 4680 MT 4518 4717 LS
4574 4680 MT 4574 4717 LS
4629 4680 MT 4629 4717 LS
4685 4680 MT 4685 4717 LS
4741 4680 MT 4741 4717 LS
4796 4680 MT 4796 4717 LS
4852 4653 MT 4852 4717 LS
4908 4680 MT 4908 4717 LS
4963 4680 MT 4963 4717 LS
5019 4680 MT 5019 4717 LS
5075 4680 MT 5075 4717 LS
5131 4680 MT 5131 4717 LS
5186 4680 MT 5186 4717 LS
5242 4680 MT 5242 4717 LS
5298 4680 MT 5298 4717 LS
5353 4680 MT 5353 4717 LS
5409 4653 MT 5409 4717 LS
(2600 ns) 9999 LC 5409 4822 WT TS RSS
5465 4680 MT 5465 4717 LS
5520 4680 MT 5520 4717 LS
5576 4680 MT 5576 4717 LS
5632 4680 MT 5632 4717 LS
5688 4680 MT 5688 4717 LS
5743 4680 MT 5743 4717 LS
5799 4680 MT 5799 4717 LS
5855 4680 MT 5855 4717 LS
5910 4680 MT 5910 4717 LS
5966 4653 MT 5966 4717 LS
6022 4680 MT 6022 4717 LS
6077 4680 MT 6077 4717 LS
6133 4680 MT 6133 4717 LS
6189 4680 MT 6189 4717 LS
6245 4680 MT 6245 4717 LS
6300 4680 MT 6300 4717 LS
6356 4680 MT 6356 4717 LS
6412 4680 MT 6412 4717 LS
6467 4680 MT 6467 4717 LS
6523 4653 MT 6523 4717 LS
(2800 ns) 9999 LC 6523 4822 WT TS RSS
6579 4680 MT 6579 4717 LS
6634 4680 MT 6634 4717 LS
6690 4680 MT 6690 4717 LS
6746 4680 MT 6746 4717 LS
6802 4680 MT 6802 4717 LS
6857 4680 MT 6857 4717 LS
6913 4680 MT 6913 4717 LS
6969 4680 MT 6969 4717 LS
7024 4680 MT 7024 4717 LS
% draw grid
1510 75 MT 1510 4653 LS
2067 75 MT 2067 4653 LS
2624 75 MT 2624 4653 LS
3181 75 MT 3181 4653 LS
3738 75 MT 3738 4653 LS
4295 75 MT 4295 4653 LS
4852 75 MT 4852 4653 LS
5409 75 MT 5409 4653 LS
5966 75 MT 5966 4653 LS
6523 75 MT 6523 4653 LS
% draw waveforms
(clk) 9999 LC 916 224 WT TSE RSS
1503 75 MT 1517 75 LS
2060 75 MT 2074 75 LS
2617 75 MT 2631 75 LS
3174 75 MT 3188 75 LS
3731 75 MT 3745 75 LS
4288 75 MT 4302 75 LS
4845 75 MT 4859 75 LS
5402 75 MT 5416 75 LS
5959 75 MT 5973 75 LS
6516 75 MT 6530 75 LS
953 225 MT 953 115 LS
954 225 MT 980 225 LS
980 225 MT 980 115 LS
981 115 MT 1008 115 LS
1008 225 MT 1008 115 LS
1009 225 MT 1036 225 LS
1036 225 MT 1036 115 LS
1037 115 MT 1064 115 LS
1064 225 MT 1064 115 LS
1065 225 MT 1092 225 LS
1092 225 MT 1092 115 LS
1093 115 MT 1120 115 LS
1120 225 MT 1120 115 LS
1121 225 MT 1147 225 LS
1147 225 MT 1147 115 LS
1148 115 MT 1175 115 LS
1175 225 MT 1175 115 LS
1176 225 MT 1203 225 LS
1203 225 MT 1203 115 LS
1204 115 MT 1231 115 LS
1231 225 MT 1231 115 LS
1232 225 MT 1259 225 LS
1259 225 MT 1259 115 LS
1260 115 MT 1287 115 LS
1287 225 MT 1287 115 LS
1288 225 MT 1315 225 LS
1315 225 MT 1315 115 LS
1316 115 MT 1342 115 LS
1342 225 MT 1342 115 LS
1343 225 MT 1370 225 LS
1370 225 MT 1370 115 LS
1371 115 MT 1398 115 LS
1398 225 MT 1398 115 LS
1399 225 MT 1426 225 LS
1426 225 MT 1426 115 LS
1427 115 MT 1454 115 LS
1454 225 MT 1454 115 LS
1455 225 MT 1482 225 LS
1482 225 MT 1482 115 LS
1483 115 MT 1510 115 LS
1510 225 MT 1510 115 LS
1511 225 MT 1537 225 LS
1537 225 MT 1537 115 LS
1538 115 MT 1565 115 LS
1565 225 MT 1565 115 LS
1566 225 MT 1593 225 LS
1593 225 MT 1593 115 LS
1594 115 MT 1621 115 LS
1621 225 MT 1621 115 LS
1622 225 MT 1649 225 LS
1649 225 MT 1649 115 LS
1650 115 MT 1677 115 LS
1677 225 MT 1677 115 LS
1678 225 MT 1704 225 LS
1704 225 MT 1704 115 LS
1705 115 MT 1732 115 LS
1732 225 MT 1732 115 LS
1733 225 MT 1760 225 LS
1760 225 MT 1760 115 LS
1761 115 MT 1788 115 LS
1788 225 MT 1788 115 LS
1789 225 MT 1816 225 LS
1816 225 MT 1816 115 LS
1817 115 MT 1844 115 LS
1844 225 MT 1844 115 LS
1845 225 MT 1872 225 LS
1872 225 MT 1872 115 LS
1873 115 MT 1899 115 LS
1899 225 MT 1899 115 LS
1900 225 MT 1927 225 LS
1927 225 MT 1927 115 LS
1928 115 MT 1955 115 LS
1955 225 MT 1955 115 LS
1956 225 MT 1983 225 LS
1983 225 MT 1983 115 LS
1984 115 MT 2011 115 LS
2011 225 MT 2011 115 LS
2012 225 MT 2039 225 LS
2039 225 MT 2039 115 LS
2040 115 MT 2067 115 LS
2067 225 MT 2067 115 LS
2068 225 MT 2094 225 LS
2094 225 MT 2094 115 LS
2095 115 MT 2122 115 LS
2122 225 MT 2122 115 LS
2123 225 MT 2150 225 LS
2150 225 MT 2150 115 LS
2151 115 MT 2178 115 LS
2178 225 MT 2178 115 LS
2179 225 MT 2206 225 LS
2206 225 MT 2206 115 LS
2207 115 MT 2234 115 LS
2234 225 MT 2234 115 LS
2235 225 MT 2261 225 LS
2261 225 MT 2261 115 LS
2262 115 MT 2289 115 LS
2289 225 MT 2289 115 LS
2290 225 MT 2317 225 LS
2317 225 MT 2317 115 LS
2318 115 MT 2345 115 LS
2345 225 MT 2345 115 LS
2346 225 MT 2373 225 LS
2373 225 MT 2373 115 LS
2374 115 MT 2401 115 LS
2401 225 MT 2401 115 LS
2402 225 MT 2429 225 LS
2429 225 MT 2429 115 LS
2430 115 MT 2456 115 LS
2456 225 MT 2456 115 LS
2457 225 MT 2484 225 LS
2484 225 MT 2484 115 LS
2485 115 MT 2512 115 LS
2512 225 MT 2512 115 LS
2513 225 MT 2540 225 LS
2540 225 MT 2540 115 LS
2541 115 MT 2568 115 LS
2568 225 MT 2568 115 LS
2569 225 MT 2596 225 LS
2596 225 MT 2596 115 LS
2597 115 MT 2624 115 LS
2624 225 MT 2624 115 LS
2625 225 MT 2651 225 LS
2651 225 MT 2651 115 LS
2652 115 MT 2679 115 LS
2679 225 MT 2679 115 LS
2680 225 MT 2707 225 LS
2707 225 MT 2707 115 LS
2708 115 MT 2735 115 LS
2735 225 MT 2735 115 LS
2736 225 MT 2763 225 LS
2763 225 MT 2763 115 LS
2764 115 MT 2791 115 LS
2791 225 MT 2791 115 LS
2792 225 MT 2818 225 LS
2818 225 MT 2818 115 LS
2819 115 MT 2846 115 LS
2846 225 MT 2846 115 LS
2847 225 MT 2874 225 LS
2874 225 MT 2874 115 LS
2875 115 MT 2902 115 LS
2902 225 MT 2902 115 LS
2903 225 MT 2930 225 LS
2930 225 MT 2930 115 LS
2931 115 MT 2958 115 LS
2958 225 MT 2958 115 LS
2959 225 MT 2986 225 LS
2986 225 MT 2986 115 LS
2987 115 MT 3013 115 LS
3013 225 MT 3013 115 LS
3014 225 MT 3041 225 LS
3041 225 MT 3041 115 LS
3042 115 MT 3069 115 LS
3069 225 MT 3069 115 LS
3070 225 MT 3097 225 LS
3097 225 MT 3097 115 LS
3098 115 MT 3125 115 LS
3125 225 MT 3125 115 LS
3126 225 MT 3153 225 LS
3153 225 MT 3153 115 LS
3154 115 MT 3181 115 LS
3181 225 MT 3181 115 LS
3182 225 MT 3208 225 LS
3208 225 MT 3208 115 LS
3209 115 MT 3236 115 LS
3236 225 MT 3236 115 LS
3237 225 MT 3264 225 LS
3264 225 MT 3264 115 LS
3265 115 MT 3292 115 LS
3292 225 MT 3292 115 LS
3293 225 MT 3320 225 LS
3320 225 MT 3320 115 LS
3321 115 MT 3348 115 LS
3348 225 MT 3348 115 LS
3349 225 MT 3375 225 LS
3375 225 MT 3375 115 LS
3376 115 MT 3403 115 LS
3403 225 MT 3403 115 LS
3404 225 MT 3431 225 LS
3431 225 MT 3431 115 LS
3432 115 MT 3459 115 LS
3459 225 MT 3459 115 LS
3460 225 MT 3487 225 LS
3487 225 MT 3487 115 LS
3488 115 MT 3515 115 LS
3515 225 MT 3515 115 LS
3516 225 MT 3543 225 LS
3543 225 MT 3543 115 LS
3544 115 MT 3570 115 LS
3570 225 MT 3570 115 LS
3571 225 MT 3598 225 LS
3598 225 MT 3598 115 LS
3599 115 MT 3626 115 LS
3626 225 MT 3626 115 LS
3627 225 MT 3654 225 LS
3654 225 MT 3654 115 LS
3655 115 MT 3682 115 LS
3682 225 MT 3682 115 LS
3683 225 MT 3710 225 LS
3710 225 MT 3710 115 LS
3711 115 MT 3738 115 LS
3738 225 MT 3738 115 LS
3739 225 MT 3765 225 LS
3765 225 MT 3765 115 LS
3766 115 MT 3793 115 LS
3793 225 MT 3793 115 LS
3794 225 MT 3821 225 LS
3821 225 MT 3821 115 LS
3822 115 MT 3849 115 LS
3849 225 MT 3849 115 LS
3850 225 MT 3877 225 LS
3877 225 MT 3877 115 LS
3878 115 MT 3905 115 LS
3905 225 MT 3905 115 LS
3906 225 MT 3932 225 LS
3932 225 MT 3932 115 LS
3933 115 MT 3960 115 LS
3960 225 MT 3960 115 LS
3961 225 MT 3988 225 LS
3988 225 MT 3988 115 LS
3989 115 MT 4016 115 LS
4016 225 MT 4016 115 LS
4017 225 MT 4044 225 LS
4044 225 MT 4044 115 LS
4045 115 MT 4072 115 LS
4072 225 MT 4072 115 LS
4073 225 MT 4100 225 LS
4100 225 MT 4100 115 LS
4101 115 MT 4127 115 LS
4127 225 MT 4127 115 LS
4128 225 MT 4155 225 LS
4155 225 MT 4155 115 LS
4156 115 MT 4183 115 LS
4183 225 MT 4183 115 LS
4184 225 MT 4211 225 LS
4211 225 MT 4211 115 LS
4212 115 MT 4239 115 LS
4239 225 MT 4239 115 LS
4240 225 MT 4267 225 LS
4267 225 MT 4267 115 LS
4268 115 MT 4295 115 LS
4295 225 MT 4295 115 LS
4296 225 MT 4322 225 LS
4322 225 MT 4322 115 LS
4323 115 MT 4350 115 LS
4350 225 MT 4350 115 LS
4351 225 MT 4378 225 LS
4378 225 MT 4378 115 LS
4379 115 MT 4406 115 LS
4406 225 MT 4406 115 LS
4407 225 MT 4434 225 LS
4434 225 MT 4434 115 LS
4435 115 MT 4462 115 LS
4462 225 MT 4462 115 LS
4463 225 MT 4489 225 LS
4489 225 MT 4489 115 LS
4490 115 MT 4517 115 LS
4517 225 MT 4517 115 LS
4518 225 MT 4545 225 LS
4545 225 MT 4545 115 LS
4546 115 MT 4573 115 LS
4573 225 MT 4573 115 LS
4574 225 MT 4601 225 LS
4601 225 MT 4601 115 LS
4602 115 MT 4629 115 LS
4629 225 MT 4629 115 LS
4630 225 MT 4657 225 LS
4657 225 MT 4657 115 LS
4658 115 MT 4684 115 LS
4684 225 MT 4684 115 LS
4685 225 MT 4712 225 LS
4712 225 MT 4712 115 LS
4713 115 MT 4740 115 LS
4740 225 MT 4740 115 LS
4741 225 MT 4768 225 LS
4768 225 MT 4768 115 LS
4769 115 MT 4796 115 LS
4796 225 MT 4796 115 LS
4797 225 MT 4824 225 LS
4824 225 MT 4824 115 LS
4825 115 MT 4852 115 LS
4852 225 MT 4852 115 LS
4853 225 MT 4879 225 LS
4879 225 MT 4879 115 LS
4880 115 MT 4907 115 LS
4907 225 MT 4907 115 LS
4908 225 MT 4935 225 LS
4935 225 MT 4935 115 LS
4936 115 MT 4963 115 LS
4963 225 MT 4963 115 LS
4964 225 MT 4991 225 LS
4991 225 MT 4991 115 LS
4992 115 MT 5019 115 LS
5019 225 MT 5019 115 LS
5020 225 MT 5046 225 LS
5046 225 MT 5046 115 LS
5047 115 MT 5074 115 LS
5074 225 MT 5074 115 LS
5075 225 MT 5102 225 LS
5102 225 MT 5102 115 LS
5103 115 MT 5130 115 LS
5130 225 MT 5130 115 LS
5131 225 MT 5158 225 LS
5158 225 MT 5158 115 LS
5159 115 MT 5186 115 LS
5186 225 MT 5186 115 LS
5187 225 MT 5214 225 LS
5214 225 MT 5214 115 LS
5215 115 MT 5241 115 LS
5241 225 MT 5241 115 LS
5242 225 MT 5269 225 LS
5269 225 MT 5269 115 LS
5270 115 MT 5297 115 LS
5297 225 MT 5297 115 LS
5298 225 MT 5325 225 LS
5325 225 MT 5325 115 LS
5326 115 MT 5353 115 LS
5353 225 MT 5353 115 LS
5354 225 MT 5381 225 LS
5381 225 MT 5381 115 LS
5382 115 MT 5409 115 LS
5409 225 MT 5409 115 LS
5410 225 MT 5436 225 LS
5436 225 MT 5436 115 LS
5437 115 MT 5464 115 LS
5464 225 MT 5464 115 LS
5465 225 MT 5492 225 LS
5492 225 MT 5492 115 LS
5493 115 MT 5520 115 LS
5520 225 MT 5520 115 LS
5521 225 MT 5548 225 LS
5548 225 MT 5548 115 LS
5549 115 MT 5576 115 LS
5576 225 MT 5576 115 LS
5577 225 MT 5603 225 LS
5603 225 MT 5603 115 LS
5604 115 MT 5631 115 LS
5631 225 MT 5631 115 LS
5632 225 MT 5659 225 LS
5659 225 MT 5659 115 LS
5660 115 MT 5687 115 LS
5687 225 MT 5687 115 LS
5688 225 MT 5715 225 LS
5715 225 MT 5715 115 LS
5716 115 MT 5743 115 LS
5743 225 MT 5743 115 LS
5744 225 MT 5771 225 LS
5771 225 MT 5771 115 LS
5772 115 MT 5798 115 LS
5798 225 MT 5798 115 LS
5799 225 MT 5826 225 LS
5826 225 MT 5826 115 LS
5827 115 MT 5854 115 LS
5854 225 MT 5854 115 LS
5855 225 MT 5882 225 LS
5882 225 MT 5882 115 LS
5883 115 MT 5910 115 LS
5910 225 MT 5910 115 LS
5911 225 MT 5938 225 LS
5938 225 MT 5938 115 LS
5939 115 MT 5966 115 LS
5966 225 MT 5966 115 LS
5967 225 MT 5993 225 LS
5993 225 MT 5993 115 LS
5994 115 MT 6021 115 LS
6021 225 MT 6021 115 LS
6022 225 MT 6049 225 LS
6049 225 MT 6049 115 LS
6050 115 MT 6077 115 LS
6077 225 MT 6077 115 LS
6078 225 MT 6105 225 LS
6105 225 MT 6105 115 LS
6106 115 MT 6133 115 LS
6133 225 MT 6133 115 LS
6134 225 MT 6160 225 LS
6160 225 MT 6160 115 LS
6161 115 MT 6188 115 LS
6188 225 MT 6188 115 LS
6189 225 MT 6216 225 LS
6216 225 MT 6216 115 LS
6217 115 MT 6244 115 LS
6244 225 MT 6244 115 LS
6245 225 MT 6272 225 LS
6272 225 MT 6272 115 LS
6273 115 MT 6300 115 LS
6300 225 MT 6300 115 LS
6301 225 MT 6328 225 LS
6328 225 MT 6328 115 LS
6329 115 MT 6355 115 LS
6355 225 MT 6355 115 LS
6356 225 MT 6383 225 LS
6383 225 MT 6383 115 LS
6384 115 MT 6411 115 LS
6411 225 MT 6411 115 LS
6412 225 MT 6439 225 LS
6439 225 MT 6439 115 LS
6440 115 MT 6467 115 LS
6467 225 MT 6467 115 LS
6468 225 MT 6495 225 LS
6495 225 MT 6495 115 LS
6496 115 MT 6523 115 LS
6523 225 MT 6523 115 LS
6523 225 MT 6523 225 LS
(pc_out) 9999 LC 916 422 WT TSE RSS
1503 273 MT 1517 273 LS
2060 273 MT 2074 273 LS
2617 273 MT 2631 273 LS
3174 273 MT 3188 273 LS
3731 273 MT 3745 273 LS
4288 273 MT 4302 273 LS
4845 273 MT 4859 273 LS
5402 273 MT 5416 273 LS
5959 273 MT 5973 273 LS
6516 273 MT 6530 273 LS
(000a) 166 LC 967 368 WT pop 0 originOffset 50 add RSS
953 313 MT 953 313 LT 1140 313 LT 1147 368 LT ST
953 423 MT 953 423 LT 1140 423 LT 1147 368 LT ST
(000c) 251 LC 1161 368 WT pop 0 originOffset 50 add RSS
1147 368 MT 1147 368 LT 1154 313 LT 1419 313 LT 1426 368 LT ST
1147 368 MT 1147 368 LT 1154 423 LT 1419 423 LT 1426 368 LT ST
(000e) 250 LC 1440 368 WT pop 0 originOffset 50 add RSS
1426 368 MT 1426 368 LT 1433 313 LT 1697 313 LT 1704 368 LT ST
1426 368 MT 1426 368 LT 1433 423 LT 1697 423 LT 1704 368 LT ST
(0010) 251 LC 1718 368 WT pop 0 originOffset 50 add RSS
1704 368 MT 1704 368 LT 1711 313 LT 1976 313 LT 1983 368 LT ST
1704 368 MT 1704 368 LT 1711 423 LT 1976 423 LT 1983 368 LT ST
(0012) 250 LC 1997 368 WT pop 0 originOffset 50 add RSS
1983 368 MT 1983 368 LT 1990 313 LT 2254 313 LT 2261 368 LT ST
1983 368 MT 1983 368 LT 1990 423 LT 2254 423 LT 2261 368 LT ST
(000c) 28 LC 2275 368 WT pop 0 originOffset 50 add RSS
2261 368 MT 2261 368 LT 2268 313 LT 2310 313 LT 2317 368 LT ST
2261 368 MT 2261 368 LT 2268 423 LT 2310 423 LT 2317 368 LT ST
(000e) 251 LC 2331 368 WT pop 0 originOffset 50 add RSS
2317 368 MT 2317 368 LT 2324 313 LT 2589 313 LT 2596 368 LT ST
2317 368 MT 2317 368 LT 2324 423 LT 2589 423 LT 2596 368 LT ST
(0010) 250 LC 2610 368 WT pop 0 originOffset 50 add RSS
2596 368 MT 2596 368 LT 2603 313 LT 2867 313 LT 2874 368 LT ST
2596 368 MT 2596 368 LT 2603 423 LT 2867 423 LT 2874 368 LT ST
(0012) 251 LC 2888 368 WT pop 0 originOffset 50 add RSS
2874 368 MT 2874 368 LT 2881 313 LT 3146 313 LT 3153 368 LT ST
2874 368 MT 2874 368 LT 2881 423 LT 3146 423 LT 3153 368 LT ST
(0014) 250 LC 3167 368 WT pop 0 originOffset 50 add RSS
3153 368 MT 3153 368 LT 3160 313 LT 3424 313 LT 3431 368 LT ST
3153 368 MT 3153 368 LT 3160 423 LT 3424 423 LT 3431 368 LT ST
(0016) 251 LC 3445 368 WT pop 0 originOffset 50 add RSS
3431 368 MT 3431 368 LT 3438 313 LT 3703 313 LT 3710 368 LT ST
3431 368 MT 3431 368 LT 3438 423 LT 3703 423 LT 3710 368 LT ST
(0008) 27 LC 3724 368 WT pop 0 originOffset 50 add RSS
3710 368 MT 3710 368 LT 3717 313 LT 3758 313 LT 3765 368 LT ST
3710 368 MT 3710 368 LT 3717 423 LT 3758 423 LT 3765 368 LT ST
(000a) 251 LC 3779 368 WT pop 0 originOffset 50 add RSS
3765 368 MT 3765 368 LT 3772 313 LT 4037 313 LT 4044 368 LT ST
3765 368 MT 3765 368 LT 3772 423 LT 4037 423 LT 4044 368 LT ST
(000c) 250 LC 4058 368 WT pop 0 originOffset 50 add RSS
4044 368 MT 4044 368 LT 4051 313 LT 4315 313 LT 4322 368 LT ST
4044 368 MT 4044 368 LT 4051 423 LT 4315 423 LT 4322 368 LT ST
(000e) 251 LC 4336 368 WT pop 0 originOffset 50 add RSS
4322 368 MT 4322 368 LT 4329 313 LT 4594 313 LT 4601 368 LT ST
4322 368 MT 4322 368 LT 4329 423 LT 4594 423 LT 4601 368 LT ST
(0010) 250 LC 4615 368 WT pop 0 originOffset 50 add RSS
4601 368 MT 4601 368 LT 4608 313 LT 4872 313 LT 4879 368 LT ST
4601 368 MT 4601 368 LT 4608 423 LT 4872 423 LT 4879 368 LT ST
(0012) 251 LC 4893 368 WT pop 0 originOffset 50 add RSS
4879 368 MT 4879 368 LT 4886 313 LT 5151 313 LT 5158 368 LT ST
4879 368 MT 4879 368 LT 4886 423 LT 5151 423 LT 5158 368 LT ST
(0014) 250 LC 5172 368 WT pop 0 originOffset 50 add RSS
5158 368 MT 5158 368 LT 5165 313 LT 5429 313 LT 5436 368 LT ST
5158 368 MT 5158 368 LT 5165 423 LT 5429 423 LT 5436 368 LT ST
(0016) 251 LC 5450 368 WT pop 0 originOffset 50 add RSS
5436 368 MT 5436 368 LT 5443 313 LT 5708 313 LT 5715 368 LT ST
5436 368 MT 5436 368 LT 5443 423 LT 5708 423 LT 5715 368 LT ST
(0018) 250 LC 5729 368 WT pop 0 originOffset 50 add RSS
5715 368 MT 5715 368 LT 5722 313 LT 5986 313 LT 5993 368 LT ST
5715 368 MT 5715 368 LT 5722 423 LT 5986 423 LT 5993 368 LT ST
(0016) 28 LC 6007 368 WT pop 0 originOffset 50 add RSS
5993 368 MT 5993 368 LT 6000 313 LT 6042 313 LT 6049 368 LT ST
5993 368 MT 5993 368 LT 6000 423 LT 6042 423 LT 6049 368 LT ST
(0018) 251 LC 6063 368 WT pop 0 originOffset 50 add RSS
6049 368 MT 6049 368 LT 6056 313 LT 6321 313 LT 6328 368 LT ST
6049 368 MT 6049 368 LT 6056 423 LT 6321 423 LT 6328 368 LT ST
(0016) 27 LC 6342 368 WT pop 0 originOffset 50 add RSS
6328 368 MT 6328 368 LT 6335 313 LT 6376 313 LT 6383 368 LT ST
6328 368 MT 6328 368 LT 6335 423 LT 6376 423 LT 6383 368 LT ST
(0018) 112 LC 6397 368 WT pop 0 originOffset 50 add RSS
6383 368 MT 6383 368 LT 6390 313 LT 6523 313 LT ST
6383 368 MT 6383 368 LT 6390 423 LT 6523 423 LT ST
(mem_address) 9999 LC 916 620 WT TSE RSS
1503 471 MT 1517 471 LS
2060 471 MT 2074 471 LS
2617 471 MT 2631 471 LS
3174 471 MT 3188 471 LS
3731 471 MT 3745 471 LS
4288 471 MT 4302 471 LS
4845 471 MT 4859 471 LS
5402 471 MT 5416 471 LS
5959 471 MT 5973 471 LS
6516 471 MT 6530 471 LS
(0008) 166 LC 967 566 WT pop 0 originOffset 50 add RSS
953 511 MT 953 511 LT 1140 511 LT 1147 566 LT ST
953 621 MT 953 621 LT 1140 621 LT 1147 566 LT ST
(000a) 251 LC 1161 566 WT pop 0 originOffset 50 add RSS
1147 566 MT 1147 566 LT 1154 511 LT 1419 511 LT 1426 566 LT ST
1147 566 MT 1147 566 LT 1154 621 LT 1419 621 LT 1426 566 LT ST
(000c) 250 LC 1440 566 WT pop 0 originOffset 50 add RSS
1426 566 MT 1426 566 LT 1433 511 LT 1697 511 LT 1704 566 LT ST
1426 566 MT 1426 566 LT 1433 621 LT 1697 621 LT 1704 566 LT ST
(000e) 251 LC 1718 566 WT pop 0 originOffset 50 add RSS
1704 566 MT 1704 566 LT 1711 511 LT 1976 511 LT 1983 566 LT ST
1704 566 MT 1704 566 LT 1711 621 LT 1976 621 LT 1983 566 LT ST
(0010) 306 LC 1997 566 WT pop 0 originOffset 50 add RSS
1983 566 MT 1983 566 LT 1990 511 LT 2310 511 LT 2317 566 LT ST
1983 566 MT 1983 566 LT 1990 621 LT 2310 621 LT 2317 566 LT ST
(000c) 251 LC 2331 566 WT pop 0 originOffset 50 add RSS
2317 566 MT 2317 566 LT 2324 511 LT 2589 511 LT 2596 566 LT ST
2317 566 MT 2317 566 LT 2324 621 LT 2589 621 LT 2596 566 LT ST
(000e) 250 LC 2610 566 WT pop 0 originOffset 50 add RSS
2596 566 MT 2596 566 LT 2603 511 LT 2867 511 LT 2874 566 LT ST
2596 566 MT 2596 566 LT 2603 621 LT 2867 621 LT 2874 566 LT ST
(0010) 251 LC 2888 566 WT pop 0 originOffset 50 add RSS
2874 566 MT 2874 566 LT 2881 511 LT 3146 511 LT 3153 566 LT ST
2874 566 MT 2874 566 LT 2881 621 LT 3146 621 LT 3153 566 LT ST
(0012) 250 LC 3167 566 WT pop 0 originOffset 50 add RSS
3153 566 MT 3153 566 LT 3160 511 LT 3424 511 LT 3431 566 LT ST
3153 566 MT 3153 566 LT 3160 621 LT 3424 621 LT 3431 566 LT ST
(0014) 306 LC 3445 566 WT pop 0 originOffset 50 add RSS
3431 566 MT 3431 566 LT 3438 511 LT 3758 511 LT 3765 566 LT ST
3431 566 MT 3431 566 LT 3438 621 LT 3758 621 LT 3765 566 LT ST
(0008) 251 LC 3779 566 WT pop 0 originOffset 50 add RSS
3765 566 MT 3765 566 LT 3772 511 LT 4037 511 LT 4044 566 LT ST
3765 566 MT 3765 566 LT 3772 621 LT 4037 621 LT 4044 566 LT ST
(000a) 250 LC 4058 566 WT pop 0 originOffset 50 add RSS
4044 566 MT 4044 566 LT 4051 511 LT 4315 511 LT 4322 566 LT ST
4044 566 MT 4044 566 LT 4051 621 LT 4315 621 LT 4322 566 LT ST
(000c) 251 LC 4336 566 WT pop 0 originOffset 50 add RSS
4322 566 MT 4322 566 LT 4329 511 LT 4594 511 LT 4601 566 LT ST
4322 566 MT 4322 566 LT 4329 621 LT 4594 621 LT 4601 566 LT ST
(000e) 250 LC 4615 566 WT pop 0 originOffset 50 add RSS
4601 566 MT 4601 566 LT 4608 511 LT 4872 511 LT 4879 566 LT ST
4601 566 MT 4601 566 LT 4608 621 LT 4872 621 LT 4879 566 LT ST
(0010) 251 LC 4893 566 WT pop 0 originOffset 50 add RSS
4879 566 MT 4879 566 LT 4886 511 LT 5151 511 LT 5158 566 LT ST
4879 566 MT 4879 566 LT 4886 621 LT 5151 621 LT 5158 566 LT ST
(0012) 250 LC 5172 566 WT pop 0 originOffset 50 add RSS
5158 566 MT 5158 566 LT 5165 511 LT 5429 511 LT 5436 566 LT ST
5158 566 MT 5158 566 LT 5165 621 LT 5429 621 LT 5436 566 LT ST
(0014) 251 LC 5450 566 WT pop 0 originOffset 50 add RSS
5436 566 MT 5436 566 LT 5443 511 LT 5708 511 LT 5715 566 LT ST
5436 566 MT 5436 566 LT 5443 621 LT 5708 621 LT 5715 566 LT ST
(0016) 780 LC 5729 566 WT pop 0 originOffset 50 add RSS
5715 566 MT 5715 566 LT 5722 511 LT 6523 511 LT ST
5715 566 MT 5715 566 LT 5722 621 LT 6523 621 LT ST
(mem_read) 9999 LC 916 818 WT TSE RSS
1503 669 MT 1517 669 LS
2060 669 MT 2074 669 LS
2617 669 MT 2631 669 LS
3174 669 MT 3188 669 LS
3731 669 MT 3745 669 LS
4288 669 MT 4302 669 LS
4845 669 MT 4859 669 LS
5402 669 MT 5416 669 LS
5959 669 MT 5973 669 LS
6516 669 MT 6530 669 LS
954 819 MT 1147 819 LS
1147 819 MT 1147 709 LS
1148 709 MT 1203 709 LS
1203 819 MT 1203 709 LS
1204 819 MT 1426 819 LS
1426 819 MT 1426 709 LS
1427 709 MT 1482 709 LS
1482 819 MT 1482 709 LS
1483 819 MT 1704 819 LS
1704 819 MT 1704 709 LS
1705 709 MT 1760 709 LS
1760 819 MT 1760 709 LS
1761 819 MT 1983 819 LS
1983 819 MT 1983 709 LS
1984 709 MT 2039 709 LS
2039 819 MT 2039 709 LS
2040 819 MT 2317 819 LS
2317 819 MT 2317 709 LS
2318 709 MT 2373 709 LS
2373 819 MT 2373 709 LS
2374 819 MT 2596 819 LS
2596 819 MT 2596 709 LS
2597 709 MT 2651 709 LS
2651 819 MT 2651 709 LS
2652 819 MT 2874 819 LS
2874 819 MT 2874 709 LS
2875 709 MT 2930 709 LS
2930 819 MT 2930 709 LS
2931 819 MT 3153 819 LS
3153 819 MT 3153 709 LS
3154 709 MT 3208 709 LS
3208 819 MT 3208 709 LS
3209 819 MT 3431 819 LS
3431 819 MT 3431 709 LS
3432 709 MT 3487 709 LS
3487 819 MT 3487 709 LS
3488 819 MT 3765 819 LS
3765 819 MT 3765 709 LS
3766 709 MT 3821 709 LS
3821 819 MT 3821 709 LS
3822 819 MT 4044 819 LS
4044 819 MT 4044 709 LS
4045 709 MT 4100 709 LS
4100 819 MT 4100 709 LS
4101 819 MT 4322 819 LS
4322 819 MT 4322 709 LS
4323 709 MT 4378 709 LS
4378 819 MT 4378 709 LS
4379 819 MT 4601 819 LS
4601 819 MT 4601 709 LS
4602 709 MT 4657 709 LS
4657 819 MT 4657 709 LS
4658 819 MT 4879 819 LS
4879 819 MT 4879 709 LS
4880 709 MT 4935 709 LS
4935 819 MT 4935 709 LS
4936 819 MT 5158 819 LS
5158 819 MT 5158 709 LS
5159 709 MT 5214 709 LS
5214 819 MT 5214 709 LS
5215 819 MT 5436 819 LS
5436 819 MT 5436 709 LS
5437 709 MT 5492 709 LS
5492 819 MT 5492 709 LS
5493 819 MT 5715 819 LS
5715 819 MT 5715 709 LS
5716 709 MT 5771 709 LS
5771 819 MT 5771 709 LS
5772 819 MT 6049 819 LS
6049 819 MT 6049 709 LS
6050 709 MT 6105 709 LS
6105 819 MT 6105 709 LS
6106 819 MT 6383 819 LS
6383 819 MT 6383 709 LS
6384 709 MT 6439 709 LS
6439 819 MT 6439 709 LS
6440 819 MT 6523 819 LS
6523 819 MT 6523 819 LS
(mem_rdata) 9999 LC 916 1016 WT TSE RSS
1503 867 MT 1517 867 LS
2060 867 MT 2074 867 LS
2617 867 MT 2631 867 LS
3174 867 MT 3188 867 LS
3731 867 MT 3745 867 LS
4288 867 MT 4302 867 LS
4845 867 MT 4859 867 LS
5402 867 MT 5416 867 LS
5959 867 MT 5973 867 LS
6516 867 MT 6530 867 LS
(1640) 166 LC 967 962 WT pop 0 originOffset 50 add RSS
953 907 MT 953 907 LT 1140 907 LT 1147 962 LT ST
953 1017 MT 953 1017 LT 1140 1017 LT 1147 962 LT ST
(1880) 251 LC 1161 962 WT pop 0 originOffset 50 add RSS
1147 962 MT 1147 962 LT 1154 907 LT 1419 907 LT 1426 962 LT ST
1147 962 MT 1147 962 LT 1154 1017 LT 1419 1017 LT 1426 962 LT ST
(1484) 250 LC 1440 962 WT pop 0 originOffset 50 add RSS
1426 962 MT 1426 962 LT 1433 907 LT 1697 907 LT 1704 962 LT ST
1426 962 MT 1426 962 LT 1433 1017 LT 1697 1017 LT 1704 962 LT ST
(16c5) 251 LC 1718 962 WT pop 0 originOffset 50 add RSS
1704 962 MT 1704 962 LT 1711 907 LT 1976 907 LT 1983 962 LT ST
1704 962 MT 1704 962 LT 1711 1017 LT 1976 1017 LT 1983 962 LT ST
(03fd) 306 LC 1997 962 WT pop 0 originOffset 50 add RSS
1983 962 MT 1983 962 LT 1990 907 LT 2310 907 LT 2317 962 LT ST
1983 962 MT 1983 962 LT 1990 1017 LT 2310 1017 LT 2317 962 LT ST
(1484) 251 LC 2331 962 WT pop 0 originOffset 50 add RSS
2317 962 MT 2317 962 LT 2324 907 LT 2589 907 LT 2596 962 LT ST
2317 962 MT 2317 962 LT 2324 1017 LT 2589 1017 LT 2596 962 LT ST
(16c5) 250 LC 2610 962 WT pop 0 originOffset 50 add RSS
2596 962 MT 2596 962 LT 2603 907 LT 2867 907 LT 2874 962 LT ST
2596 962 MT 2596 962 LT 2603 1017 LT 2867 1017 LT 2874 962 LT ST
(03fd) 251 LC 2888 962 WT pop 0 originOffset 50 add RSS
2874 962 MT 2874 962 LT 2881 907 LT 3146 907 LT 3153 962 LT ST
2874 962 MT 2874 962 LT 2881 1017 LT 3146 1017 LT 3153 962 LT ST
(1245) 250 LC 3167 962 WT pop 0 originOffset 50 add RSS
3153 962 MT 3153 962 LT 3160 907 LT 3424 907 LT 3431 962 LT ST
3153 962 MT 3153 962 LT 3160 1017 LT 3424 1017 LT 3431 962 LT ST
(03f9) 306 LC 3445 962 WT pop 0 originOffset 50 add RSS
3431 962 MT 3431 962 LT 3438 907 LT 3758 907 LT 3765 962 LT ST
3431 962 MT 3431 962 LT 3438 1017 LT 3758 1017 LT 3765 962 LT ST
(1640) 251 LC 3779 962 WT pop 0 originOffset 50 add RSS
3765 962 MT 3765 962 LT 3772 907 LT 4037 907 LT 4044 962 LT ST
3765 962 MT 3765 962 LT 3772 1017 LT 4037 1017 LT 4044 962 LT ST
(1880) 250 LC 4058 962 WT pop 0 originOffset 50 add RSS
4044 962 MT 4044 962 LT 4051 907 LT 4315 907 LT 4322 962 LT ST
4044 962 MT 4044 962 LT 4051 1017 LT 4315 1017 LT 4322 962 LT ST
(1484) 251 LC 4336 962 WT pop 0 originOffset 50 add RSS
4322 962 MT 4322 962 LT 4329 907 LT 4594 907 LT 4601 962 LT ST
4322 962 MT 4322 962 LT 4329 1017 LT 4594 1017 LT 4601 962 LT ST
(16c5) 250 LC 4615 962 WT pop 0 originOffset 50 add RSS
4601 962 MT 4601 962 LT 4608 907 LT 4872 907 LT 4879 962 LT ST
4601 962 MT 4601 962 LT 4608 1017 LT 4872 1017 LT 4879 962 LT ST
(03fd) 251 LC 4893 962 WT pop 0 originOffset 50 add RSS
4879 962 MT 4879 962 LT 4886 907 LT 5151 907 LT 5158 962 LT ST
4879 962 MT 4879 962 LT 4886 1017 LT 5151 1017 LT 5158 962 LT ST
(1245) 250 LC 5172 962 WT pop 0 originOffset 50 add RSS
5158 962 MT 5158 962 LT 5165 907 LT 5429 907 LT 5436 962 LT ST
5158 962 MT 5158 962 LT 5165 1017 LT 5429 1017 LT 5436 962 LT ST
(03f9) 251 LC 5450 962 WT pop 0 originOffset 50 add RSS
5436 962 MT 5436 962 LT 5443 907 LT 5708 907 LT 5715 962 LT ST
5436 962 MT 5436 962 LT 5443 1017 LT 5708 1017 LT 5715 962 LT ST
(0fff) 780 LC 5729 962 WT pop 0 originOffset 50 add RSS
5715 962 MT 5715 962 LT 5722 907 LT 6523 907 LT ST
5715 962 MT 5715 962 LT 5722 1017 LT 6523 1017 LT ST
(mem_write) 9999 LC 916 1214 WT TSE RSS
1503 1065 MT 1517 1065 LS
2060 1065 MT 2074 1065 LS
2617 1065 MT 2631 1065 LS
3174 1065 MT 3188 1065 LS
3731 1065 MT 3745 1065 LS
4288 1065 MT 4302 1065 LS
4845 1065 MT 4859 1065 LS
5402 1065 MT 5416 1065 LS
5959 1065 MT 5973 1065 LS
6516 1065 MT 6530 1065 LS
954 1215 MT 6523 1215 LS
6523 1215 MT 6523 1215 LS
(mem_byte_enable) 9999 LC 916 1412 WT TSE RSS
1503 1263 MT 1517 1263 LS
2060 1263 MT 2074 1263 LS
2617 1263 MT 2631 1263 LS
3174 1263 MT 3188 1263 LS
3731 1263 MT 3745 1263 LS
4288 1263 MT 4302 1263 LS
4845 1263 MT 4859 1263 LS
5402 1263 MT 5416 1263 LS
5959 1263 MT 5973 1263 LS
6516 1263 MT 6530 1263 LS
(3) 5542 LC 967 1358 WT pop 0 originOffset 50 add RSS
953 1303 MT 953 1303 LT 6523 1303 LT ST
953 1413 MT 953 1413 LT 6523 1413 LT ST
(mem_wdata) 9999 LC 916 1610 WT TSE RSS
1503 1461 MT 1517 1461 LS
2060 1461 MT 2074 1461 LS
2617 1461 MT 2631 1461 LS
3174 1461 MT 3188 1461 LS
3731 1461 MT 3745 1461 LS
4288 1461 MT 4302 1461 LS
4845 1461 MT 4859 1461 LS
5402 1461 MT 5416 1461 LS
5959 1461 MT 5973 1461 LS
6516 1461 MT 6530 1461 LS
(1640) 222 LC 967 1556 WT pop 0 originOffset 50 add RSS
953 1501 MT 953 1501 LT 1196 1501 LT 1203 1556 LT ST
953 1611 MT 953 1611 LT 1196 1611 LT 1203 1556 LT ST
(1880) 251 LC 1217 1556 WT pop 0 originOffset 50 add RSS
1203 1556 MT 1203 1556 LT 1210 1501 LT 1475 1501 LT 1482 1556 LT ST
1203 1556 MT 1203 1556 LT 1210 1611 LT 1475 1611 LT 1482 1556 LT ST
(1484) 250 LC 1496 1556 WT pop 0 originOffset 50 add RSS
1482 1556 MT 1482 1556 LT 1489 1501 LT 1753 1501 LT 1760 1556 LT ST
1482 1556 MT 1482 1556 LT 1489 1611 LT 1753 1611 LT 1760 1556 LT ST
(16c5) 251 LC 1774 1556 WT pop 0 originOffset 50 add RSS
1760 1556 MT 1760 1556 LT 1767 1501 LT 2032 1501 LT 2039 1556 LT ST
1760 1556 MT 1760 1556 LT 1767 1611 LT 2032 1611 LT 2039 1556 LT ST
(03fd) 306 LC 2053 1556 WT pop 0 originOffset 50 add RSS
2039 1556 MT 2039 1556 LT 2046 1501 LT 2366 1501 LT 2373 1556 LT ST
2039 1556 MT 2039 1556 LT 2046 1611 LT 2366 1611 LT 2373 1556 LT ST
(1484) 250 LC 2387 1556 WT pop 0 originOffset 50 add RSS
2373 1556 MT 2373 1556 LT 2380 1501 LT 2644 1501 LT 2651 1556 LT ST
2373 1556 MT 2373 1556 LT 2380 1611 LT 2644 1611 LT 2651 1556 LT ST
(16c5) 251 LC 2665 1556 WT pop 0 originOffset 50 add RSS
2651 1556 MT 2651 1556 LT 2658 1501 LT 2923 1501 LT 2930 1556 LT ST
2651 1556 MT 2651 1556 LT 2658 1611 LT 2923 1611 LT 2930 1556 LT ST
(03fd) 250 LC 2944 1556 WT pop 0 originOffset 50 add RSS
2930 1556 MT 2930 1556 LT 2937 1501 LT 3201 1501 LT 3208 1556 LT ST
2930 1556 MT 2930 1556 LT 2937 1611 LT 3201 1611 LT 3208 1556 LT ST
(1245) 251 LC 3222 1556 WT pop 0 originOffset 50 add RSS
3208 1556 MT 3208 1556 LT 3215 1501 LT 3480 1501 LT 3487 1556 LT ST
3208 1556 MT 3208 1556 LT 3215 1611 LT 3480 1611 LT 3487 1556 LT ST
(03f9) 306 LC 3501 1556 WT pop 0 originOffset 50 add RSS
3487 1556 MT 3487 1556 LT 3494 1501 LT 3814 1501 LT 3821 1556 LT ST
3487 1556 MT 3487 1556 LT 3494 1611 LT 3814 1611 LT 3821 1556 LT ST
(1640) 251 LC 3835 1556 WT pop 0 originOffset 50 add RSS
3821 1556 MT 3821 1556 LT 3828 1501 LT 4093 1501 LT 4100 1556 LT ST
3821 1556 MT 3821 1556 LT 3828 1611 LT 4093 1611 LT 4100 1556 LT ST
(1880) 250 LC 4114 1556 WT pop 0 originOffset 50 add RSS
4100 1556 MT 4100 1556 LT 4107 1501 LT 4371 1501 LT 4378 1556 LT ST
4100 1556 MT 4100 1556 LT 4107 1611 LT 4371 1611 LT 4378 1556 LT ST
(1484) 251 LC 4392 1556 WT pop 0 originOffset 50 add RSS
4378 1556 MT 4378 1556 LT 4385 1501 LT 4650 1501 LT 4657 1556 LT ST
4378 1556 MT 4378 1556 LT 4385 1611 LT 4650 1611 LT 4657 1556 LT ST
(16c5) 250 LC 4671 1556 WT pop 0 originOffset 50 add RSS
4657 1556 MT 4657 1556 LT 4664 1501 LT 4928 1501 LT 4935 1556 LT ST
4657 1556 MT 4657 1556 LT 4664 1611 LT 4928 1611 LT 4935 1556 LT ST
(03fd) 251 LC 4949 1556 WT pop 0 originOffset 50 add RSS
4935 1556 MT 4935 1556 LT 4942 1501 LT 5207 1501 LT 5214 1556 LT ST
4935 1556 MT 4935 1556 LT 4942 1611 LT 5207 1611 LT 5214 1556 LT ST
(1245) 250 LC 5228 1556 WT pop 0 originOffset 50 add RSS
5214 1556 MT 5214 1556 LT 5221 1501 LT 5485 1501 LT 5492 1556 LT ST
5214 1556 MT 5214 1556 LT 5221 1611 LT 5485 1611 LT 5492 1556 LT ST
(03f9) 251 LC 5506 1556 WT pop 0 originOffset 50 add RSS
5492 1556 MT 5492 1556 LT 5499 1501 LT 5764 1501 LT 5771 1556 LT ST
5492 1556 MT 5492 1556 LT 5499 1611 LT 5764 1611 LT 5771 1556 LT ST
(0fff) 724 LC 5785 1556 WT pop 0 originOffset 50 add RSS
5771 1556 MT 5771 1556 LT 5778 1501 LT 6523 1501 LT ST
5771 1556 MT 5771 1556 LT 5778 1611 LT 6523 1611 LT ST
(regfile) 9999 LC 916 1808 WT TSE RSS
1503 1659 MT 1517 1659 LS
2060 1659 MT 2074 1659 LS
2617 1659 MT 2631 1659 LS
3174 1659 MT 3188 1659 LS
3731 1659 MT 3745 1659 LS
4288 1659 MT 4302 1659 LS
4845 1659 MT 4859 1659 LS
5402 1659 MT 5416 1659 LS
5959 1659 MT 5973 1659 LS
6516 1659 MT 6530 1659 LS
(0000 0000 ffff 0005 0000 0014 0002 0000) 111 LC 967 1754 WT pop 0 originOffset 50 add RSS
953 1699 MT 953 1699 LT 1085 1699 LT 1092 1754 LT ST
953 1809 MT 953 1809 LT 1085 1809 LT 1092 1754 LT ST
(0000 0000 ffff 0005 0002 0014 0002 0000) 250 LC 1106 1754 WT pop 0 originOffset 50 add RSS
1092 1754 MT 1092 1754 LT 1099 1699 LT 1363 1699 LT 1370 1754 LT ST
1092 1754 MT 1092 1754 LT 1099 1809 LT 1363 1809 LT 1370 1754 LT ST
(0000 0000 ffff 0014 0002 0014 0002 0000) 251 LC 1384 1754 WT pop 0 originOffset 50 add RSS
1370 1754 MT 1370 1754 LT 1377 1699 LT 1642 1699 LT 1649 1754 LT ST
1370 1754 MT 1370 1754 LT 1377 1809 LT 1642 1809 LT 1649 1754 LT ST
(0000 0000 ffff 0014 0002 0028 0002 0000) 250 LC 1663 1754 WT pop 0 originOffset 50 add RSS
1649 1754 MT 1649 1754 LT 1656 1699 LT 1920 1699 LT 1927 1754 LT ST
1649 1754 MT 1649 1754 LT 1656 1809 LT 1920 1809 LT 1927 1754 LT ST
(0000 0000 ffff 0014 0001 0028 0002 0000) 585 LC 1941 1754 WT pop 0 originOffset 50 add RSS
1927 1754 MT 1927 1754 LT 1934 1699 LT 2533 1699 LT 2540 1754 LT ST
1927 1754 MT 1927 1754 LT 1934 1809 LT 2533 1809 LT 2540 1754 LT ST
(0000 0000 ffff 0014 0001 003c 0002 0000) 250 LC 2554 1754 WT pop 0 originOffset 50 add RSS
2540 1754 MT 2540 1754 LT 2547 1699 LT 2811 1699 LT 2818 1754 LT ST
2540 1754 MT 2540 1754 LT 2547 1809 LT 2811 1809 LT 2818 1754 LT ST
(0000 0000 ffff 0014 0000 003c 0002 0000) 529 LC 2832 1754 WT pop 0 originOffset 50 add RSS
2818 1754 MT 2818 1754 LT 2825 1699 LT 3368 1699 LT 3375 1754 LT ST
2818 1754 MT 2818 1754 LT 2825 1809 LT 3368 1809 LT 3375 1754 LT ST
(0000 0000 ffff 0014 0000 003c 0001 0000) 585 LC 3389 1754 WT pop 0 originOffset 50 add RSS
3375 1754 MT 3375 1754 LT 3382 1699 LT 3981 1699 LT 3988 1754 LT ST
3375 1754 MT 3375 1754 LT 3382 1809 LT 3981 1809 LT 3988 1754 LT ST
(0000 0000 ffff 0014 0001 003c 0001 0000) 251 LC 4002 1754 WT pop 0 originOffset 50 add RSS
3988 1754 MT 3988 1754 LT 3995 1699 LT 4260 1699 LT 4267 1754 LT ST
3988 1754 MT 3988 1754 LT 3995 1809 LT 4260 1809 LT 4267 1754 LT ST
(0000 0000 ffff 003c 0001 003c 0001 0000) 250 LC 4281 1754 WT pop 0 originOffset 50 add RSS
4267 1754 MT 4267 1754 LT 4274 1699 LT 4538 1699 LT 4545 1754 LT ST
4267 1754 MT 4267 1754 LT 4274 1809 LT 4538 1809 LT 4545 1754 LT ST
(0000 0000 ffff 003c 0001 0078 0001 0000) 251 LC 4559 1754 WT pop 0 originOffset 50 add RSS
4545 1754 MT 4545 1754 LT 4552 1699 LT 4817 1699 LT 4824 1754 LT ST
4545 1754 MT 4545 1754 LT 4552 1809 LT 4817 1809 LT 4824 1754 LT ST
(0000 0000 ffff 003c 0000 0078 0001 0000) 529 LC 4838 1754 WT pop 0 originOffset 50 add RSS
4824 1754 MT 4824 1754 LT 4831 1699 LT 5374 1699 LT 5381 1754 LT ST
4824 1754 MT 4824 1754 LT 4831 1809 LT 5374 1809 LT 5381 1754 LT ST
(0000 0000 ffff 003c 0000 0078 0000 0000) 1114 LC 5395 1754 WT pop 0 originOffset 50 add RSS
5381 1754 MT 5381 1754 LT 5388 1699 LT 6523 1699 LT ST
5381 1754 MT 5381 1754 LT 5388 1809 LT 6523 1809 LT ST
([7]) 9999 LC 916 1995 WT TSE RSS
1503 1857 MT 1517 1857 LS
2060 1857 MT 2074 1857 LS
2617 1857 MT 2631 1857 LS
3174 1857 MT 3188 1857 LS
3731 1857 MT 3745 1857 LS
4288 1857 MT 4302 1857 LS
4845 1857 MT 4859 1857 LS
5402 1857 MT 5416 1857 LS
5959 1857 MT 5973 1857 LS
6516 1857 MT 6530 1857 LS
(0000) 5542 LC 967 1941 WT pop 0 originOffset 50 add RSS
953 1886 MT 953 1886 LT 6523 1886 LT ST
953 1996 MT 953 1996 LT 6523 1996 LT ST
([6]) 9999 LC 916 2171 WT TSE RSS
1503 2033 MT 1517 2033 LS
2060 2033 MT 2074 2033 LS
2617 2033 MT 2631 2033 LS
3174 2033 MT 3188 2033 LS
3731 2033 MT 3745 2033 LS
4288 2033 MT 4302 2033 LS
4845 2033 MT 4859 2033 LS
5402 2033 MT 5416 2033 LS
5959 2033 MT 5973 2033 LS
6516 2033 MT 6530 2033 LS
(0000) 5542 LC 967 2117 WT pop 0 originOffset 50 add RSS
953 2062 MT 953 2062 LT 6523 2062 LT ST
953 2172 MT 953 2172 LT 6523 2172 LT ST
([5]) 9999 LC 916 2347 WT TSE RSS
1503 2209 MT 1517 2209 LS
2060 2209 MT 2074 2209 LS
2617 2209 MT 2631 2209 LS
3174 2209 MT 3188 2209 LS
3731 2209 MT 3745 2209 LS
4288 2209 MT 4302 2209 LS
4845 2209 MT 4859 2209 LS
5402 2209 MT 5416 2209 LS
5959 2209 MT 5973 2209 LS
6516 2209 MT 6530 2209 LS
(ffff) 5542 LC 967 2293 WT pop 0 originOffset 50 add RSS
953 2238 MT 953 2238 LT 6523 2238 LT ST
953 2348 MT 953 2348 LT 6523 2348 LT ST
([4]) 9999 LC 916 2523 WT TSE RSS
1503 2385 MT 1517 2385 LS
2060 2385 MT 2074 2385 LS
2617 2385 MT 2631 2385 LS
3174 2385 MT 3188 2385 LS
3731 2385 MT 3745 2385 LS
4288 2385 MT 4302 2385 LS
4845 2385 MT 4859 2385 LS
5402 2385 MT 5416 2385 LS
5959 2385 MT 5973 2385 LS
6516 2385 MT 6530 2385 LS
(0005) 389 LC 967 2469 WT pop 0 originOffset 50 add RSS
953 2414 MT 953 2414 LT 1363 2414 LT 1370 2469 LT ST
953 2524 MT 953 2524 LT 1363 2524 LT 1370 2469 LT ST
(0014) 2869 LC 1384 2469 WT pop 0 originOffset 50 add RSS
1370 2469 MT 1370 2469 LT 1377 2414 LT 4260 2414 LT 4267 2469 LT ST
1370 2469 MT 1370 2469 LT 1377 2524 LT 4260 2524 LT 4267 2469 LT ST
(003c) 2228 LC 4281 2469 WT pop 0 originOffset 50 add RSS
4267 2469 MT 4267 2469 LT 4274 2414 LT 6523 2414 LT ST
4267 2469 MT 4267 2469 LT 4274 2524 LT 6523 2524 LT ST
([3]) 9999 LC 916 2699 WT TSE RSS
1503 2561 MT 1517 2561 LS
2060 2561 MT 2074 2561 LS
2617 2561 MT 2631 2561 LS
3174 2561 MT 3188 2561 LS
3731 2561 MT 3745 2561 LS
4288 2561 MT 4302 2561 LS
4845 2561 MT 4859 2561 LS
5402 2561 MT 5416 2561 LS
5959 2561 MT 5973 2561 LS
6516 2561 MT 6530 2561 LS
(0000) 111 LC 967 2645 WT pop 0 originOffset 50 add RSS
953 2590 MT 953 2590 LT 1085 2590 LT 1092 2645 LT ST
953 2700 MT 953 2700 LT 1085 2700 LT 1092 2645 LT ST
(0002) 807 LC 1106 2645 WT pop 0 originOffset 50 add RSS
1092 2645 MT 1092 2645 LT 1099 2590 LT 1920 2590 LT 1927 2645 LT ST
1092 2645 MT 1092 2645 LT 1099 2700 LT 1920 2700 LT 1927 2645 LT ST
(0001) 863 LC 1941 2645 WT pop 0 originOffset 50 add RSS
1927 2645 MT 1927 2645 LT 1934 2590 LT 2811 2590 LT 2818 2645 LT ST
1927 2645 MT 1927 2645 LT 1934 2700 LT 2811 2700 LT 2818 2645 LT ST
(0000) 1142 LC 2832 2645 WT pop 0 originOffset 50 add RSS
2818 2645 MT 2818 2645 LT 2825 2590 LT 3981 2590 LT 3988 2645 LT ST
2818 2645 MT 2818 2645 LT 2825 2700 LT 3981 2700 LT 3988 2645 LT ST
(0001) 808 LC 4002 2645 WT pop 0 originOffset 50 add RSS
3988 2645 MT 3988 2645 LT 3995 2590 LT 4817 2590 LT 4824 2645 LT ST
3988 2645 MT 3988 2645 LT 3995 2700 LT 4817 2700 LT 4824 2645 LT ST
(0000) 1671 LC 4838 2645 WT pop 0 originOffset 50 add RSS
4824 2645 MT 4824 2645 LT 4831 2590 LT 6523 2590 LT ST
4824 2645 MT 4824 2645 LT 4831 2700 LT 6523 2700 LT ST
([2]) 9999 LC 916 2875 WT TSE RSS
1503 2737 MT 1517 2737 LS
2060 2737 MT 2074 2737 LS
2617 2737 MT 2631 2737 LS
3174 2737 MT 3188 2737 LS
3731 2737 MT 3745 2737 LS
4288 2737 MT 4302 2737 LS
4845 2737 MT 4859 2737 LS
5402 2737 MT 5416 2737 LS
5959 2737 MT 5973 2737 LS
6516 2737 MT 6530 2737 LS
(0014) 668 LC 967 2821 WT pop 0 originOffset 50 add RSS
953 2766 MT 953 2766 LT 1642 2766 LT 1649 2821 LT ST
953 2876 MT 953 2876 LT 1642 2876 LT 1649 2821 LT ST
(0028) 863 LC 1663 2821 WT pop 0 originOffset 50 add RSS
1649 2821 MT 1649 2821 LT 1656 2766 LT 2533 2766 LT 2540 2821 LT ST
1649 2821 MT 1649 2821 LT 1656 2876 LT 2533 2876 LT 2540 2821 LT ST
(003c) 1977 LC 2554 2821 WT pop 0 originOffset 50 add RSS
2540 2821 MT 2540 2821 LT 2547 2766 LT 4538 2766 LT 4545 2821 LT ST
2540 2821 MT 2540 2821 LT 2547 2876 LT 4538 2876 LT 4545 2821 LT ST
(0078) 1950 LC 4559 2821 WT pop 0 originOffset 50 add RSS
4545 2821 MT 4545 2821 LT 4552 2766 LT 6523 2766 LT ST
4545 2821 MT 4545 2821 LT 4552 2876 LT 6523 2876 LT ST
([1]) 9999 LC 916 3051 WT TSE RSS
1503 2913 MT 1517 2913 LS
2060 2913 MT 2074 2913 LS
2617 2913 MT 2631 2913 LS
3174 2913 MT 3188 2913 LS
3731 2913 MT 3745 2913 LS
4288 2913 MT 4302 2913 LS
4845 2913 MT 4859 2913 LS
5402 2913 MT 5416 2913 LS
5959 2913 MT 5973 2913 LS
6516 2913 MT 6530 2913 LS
(0002) 2394 LC 967 2997 WT pop 0 originOffset 50 add RSS
953 2942 MT 953 2942 LT 3368 2942 LT 3375 2997 LT ST
953 3052 MT 953 3052 LT 3368 3052 LT 3375 2997 LT ST
(0001) 1978 LC 3389 2997 WT pop 0 originOffset 50 add RSS
3375 2997 MT 3375 2997 LT 3382 2942 LT 5374 2942 LT 5381 2997 LT ST
3375 2997 MT 3375 2997 LT 3382 3052 LT 5374 3052 LT 5381 2997 LT ST
(0000) 1114 LC 5395 2997 WT pop 0 originOffset 50 add RSS
5381 2997 MT 5381 2997 LT 5388 2942 LT 6523 2942 LT ST
5381 2997 MT 5381 2997 LT 5388 3052 LT 6523 3052 LT ST
([0]) 9999 LC 916 3227 WT TSE RSS
1503 3089 MT 1517 3089 LS
2060 3089 MT 2074 3089 LS
2617 3089 MT 2631 3089 LS
3174 3089 MT 3188 3089 LS
3731 3089 MT 3745 3089 LS
4288 3089 MT 4302 3089 LS
4845 3089 MT 4859 3089 LS
5402 3089 MT 5416 3089 LS
5959 3089 MT 5973 3089 LS
6516 3089 MT 6530 3089 LS
(0000) 5542 LC 967 3173 WT pop 0 originOffset 50 add RSS
953 3118 MT 953 3118 LT 6523 3118 LT ST
953 3228 MT 953 3228 LT 6523 3228 LT ST
% draw footer
(Entity:mp0_tb  Architecture:  Date: Tue Jan 26 15:38:38 CST 2016   Row: 1 Page: 1) 9999 LC 75 5024 WT TSW RSS
grestore
showpage
%%EOF
