%!PS-Adobe-3.0
%%Creator: Model Technology ModelSim ALTERA STARTER EDITION vsim 10.1d Simulator 2012.11 Nov  2 2012
%%Title: last1000cp1.ps
%%CreationDate: 2016-01-27 10:34:13 PM
%%DocumentData: Clean8Bit
%%DocumentNeededResources: font Helvetica
%%Orientation: Landscape
%%PageOrder: ascend
%%Pages: 1
%%EndComments
%%BeginSetup
%%BeginFeature: *PageSize 8.5x11.0
<< /PageSize [612.0 792.0]
/ImagingBBox null
>> setpagedevice
%%EndFeature
%%EndSetup
%%Page: 1 1
gsave
90 rotate 0.12 dup neg scale
% dump string table
/NP {newpath} def/SD {setdash} def/CL {setrgbcolor} def/GR {setgray} def
/SX {exch LEdge sub XScale mul MaxLabelWidth add LMargin add LEdge LabelWidth sub add exch} def/CSX {exch dup LabelWidth gt {exch SX} {exch} ifelse} def
/MT {SX moveto} def/LS {SX lineto stroke} def/LT {SX lineto} def/LFS {SX lineto fill stroke} def/RSS {rmoveto show stroke} def/ST {stroke} def/WT {CSX moveto dup stringwidth pop} def/TSW {pop 0 originOffset} def
/TSE {MaxLabelWidth LabelWidth sub LMargin add 0 rmoveto neg originOffset} def/TS {-2 div originOffset CSX} def
/MLW {stringwidth pop dup MaxLabelWidth gt {/MaxLabelWidth exch def}{pop} ifelse XS} def
/XS {/XScale LabelWidth LMargin sub MaxLabelWidth LEdge LabelWidth sub add sub REdge LEdge sub div 1 add def} def
/ARC {5 -2 roll SX 5 2 roll arc} def/LC {1 index stringwidth pop lt {pop ()} if} def
/SW {stringwidth pop} def
/ESTR {   dup 3 add string   /CurrentStr exch def   exch 0 2 index getinterval   0 1 3 index 1 sub {     dup     2 index exch get exch     CurrentStr exch 3 -1 roll put   } for   pop   dup 1 2 2 index add {     CurrentStr exch 46 put   } for   pop} def
/LC {   exch  dup dup /CurrentStr exch def   SW 2 index gt {     CurrentStr length     dup     {       2 div cvi       3 index       CurrentStr SW       sub       dup 0 lt {         1 index         4 -1 roll         exch sub         3 1 roll       }       {         dup 5 index gt {           1 index 4 -1 roll add 3 1 roll         }         {           exit         } ifelse       } ifelse       3 index 2 index ESTR       1 index 0 eq {         exit       } if       pop     } loop     pop pop pop pop pop     CurrentStr   }   {     CurrentStr   } ifelse} def
/XScale 1 def/MaxLabelWidth 0 def/LMargin 300 def/LEdge 1178 def/REdge 5699 def/LabelWidth 1141 def
/Helvetica findfont [100 0 0 -100 0 0] makefont setfont
/originOffset   currentfont   /FontBBox get 1 get   currentfont  /FontMatrix get 3 get   mul   currentfont   /FontType get   42 eq {     1000000 div   } {     neg   } ifelse def
(clk) MLW
(pc_out) MLW
(mem_address) MLW
(mem_read) MLW
(mem_rdata) MLW
(mem_write) MLW
(mem_byte_enable) MLW
(mem_wdata) MLW
(regfile) MLW
([7]) MLW
([6]) MLW
([5]) MLW
([4]) MLW
([3]) MLW
([2]) MLW
([1]) MLW
([0]) MLW
% draw waveform shading
[] 0 SD
3 setlinewidth
0 setlinejoin
0 setlinecap
0 0 0 CL
1178 450 MT 1178 340 LS
1179 450 MT 1203 450 LS
1203 450 MT 1203 340 LS
1204 340 MT 1229 340 LS
1229 450 MT 1229 340 LS
1230 450 MT 1254 450 LS
1254 450 MT 1254 340 LS
1255 340 MT 1280 340 LS
1280 450 MT 1280 340 LS
1281 450 MT 1306 450 LS
1306 450 MT 1306 340 LS
1307 340 MT 1331 340 LS
1331 450 MT 1331 340 LS
1332 450 MT 1357 450 LS
1357 450 MT 1357 340 LS
1358 340 MT 1382 340 LS
1382 450 MT 1382 340 LS
1383 450 MT 1408 450 LS
1408 450 MT 1408 340 LS
1409 340 MT 1434 340 LS
1434 450 MT 1434 340 LS
1435 450 MT 1459 450 LS
1459 450 MT 1459 340 LS
1460 340 MT 1485 340 LS
1485 450 MT 1485 340 LS
1486 450 MT 1510 450 LS
1510 450 MT 1510 340 LS
1511 340 MT 1536 340 LS
1536 450 MT 1536 340 LS
1537 450 MT 1562 450 LS
1562 450 MT 1562 340 LS
1563 340 MT 1587 340 LS
1587 450 MT 1587 340 LS
1588 450 MT 1613 450 LS
1613 450 MT 1613 340 LS
1614 340 MT 1638 340 LS
1638 450 MT 1638 340 LS
1639 450 MT 1664 450 LS
1664 450 MT 1664 340 LS
1665 340 MT 1690 340 LS
1690 450 MT 1690 340 LS
1691 450 MT 1715 450 LS
1715 450 MT 1715 340 LS
1716 340 MT 1741 340 LS
1741 450 MT 1741 340 LS
1742 450 MT 1766 450 LS
1766 450 MT 1766 340 LS
1767 340 MT 1792 340 LS
1792 450 MT 1792 340 LS
1793 450 MT 1818 450 LS
1818 450 MT 1818 340 LS
1819 340 MT 1843 340 LS
1843 450 MT 1843 340 LS
1844 450 MT 1869 450 LS
1869 450 MT 1869 340 LS
1870 340 MT 1894 340 LS
1894 450 MT 1894 340 LS
1895 450 MT 1920 450 LS
1920 450 MT 1920 340 LS
1921 340 MT 1946 340 LS
1946 450 MT 1946 340 LS
1947 450 MT 1971 450 LS
1971 450 MT 1971 340 LS
1972 340 MT 1997 340 LS
1997 450 MT 1997 340 LS
1998 450 MT 2022 450 LS
2022 450 MT 2022 340 LS
2023 340 MT 2048 340 LS
2048 450 MT 2048 340 LS
2049 450 MT 2074 450 LS
2074 450 MT 2074 340 LS
2075 340 MT 2099 340 LS
2099 450 MT 2099 340 LS
2100 450 MT 2125 450 LS
2125 450 MT 2125 340 LS
2126 340 MT 2150 340 LS
2150 450 MT 2150 340 LS
2151 450 MT 2176 450 LS
2176 450 MT 2176 340 LS
2177 340 MT 2202 340 LS
2202 450 MT 2202 340 LS
2203 450 MT 2227 450 LS
2227 450 MT 2227 340 LS
2228 340 MT 2253 340 LS
2253 450 MT 2253 340 LS
2254 450 MT 2278 450 LS
2278 450 MT 2278 340 LS
2279 340 MT 2304 340 LS
2304 450 MT 2304 340 LS
2305 450 MT 2330 450 LS
2330 450 MT 2330 340 LS
2331 340 MT 2355 340 LS
2355 450 MT 2355 340 LS
2356 450 MT 2381 450 LS
2381 450 MT 2381 340 LS
2382 340 MT 2406 340 LS
2406 450 MT 2406 340 LS
2407 450 MT 2432 450 LS
2432 450 MT 2432 340 LS
2433 340 MT 2458 340 LS
2458 450 MT 2458 340 LS
2459 450 MT 2483 450 LS
2483 450 MT 2483 340 LS
2484 340 MT 2509 340 LS
2509 450 MT 2509 340 LS
2510 450 MT 2534 450 LS
2534 450 MT 2534 340 LS
2535 340 MT 2560 340 LS
2560 450 MT 2560 340 LS
2561 450 MT 2586 450 LS
2586 450 MT 2586 340 LS
2587 340 MT 2611 340 LS
2611 450 MT 2611 340 LS
2612 450 MT 2637 450 LS
2637 450 MT 2637 340 LS
2638 340 MT 2662 340 LS
2662 450 MT 2662 340 LS
2663 450 MT 2688 450 LS
2688 450 MT 2688 340 LS
2689 340 MT 2714 340 LS
2714 450 MT 2714 340 LS
2715 450 MT 2739 450 LS
2739 450 MT 2739 340 LS
2740 340 MT 2765 340 LS
2765 450 MT 2765 340 LS
2766 450 MT 2790 450 LS
2790 450 MT 2790 340 LS
2791 340 MT 2816 340 LS
2816 450 MT 2816 340 LS
2817 450 MT 2842 450 LS
2842 450 MT 2842 340 LS
2843 340 MT 2867 340 LS
2867 450 MT 2867 340 LS
2868 450 MT 2893 450 LS
2893 450 MT 2893 340 LS
2894 340 MT 2918 340 LS
2918 450 MT 2918 340 LS
2919 450 MT 2944 450 LS
2944 450 MT 2944 340 LS
2945 340 MT 2970 340 LS
2970 450 MT 2970 340 LS
2971 450 MT 2995 450 LS
2995 450 MT 2995 340 LS
2996 340 MT 3021 340 LS
3021 450 MT 3021 340 LS
3022 450 MT 3046 450 LS
3046 450 MT 3046 340 LS
3047 340 MT 3072 340 LS
3072 450 MT 3072 340 LS
3073 450 MT 3098 450 LS
3098 450 MT 3098 340 LS
3099 340 MT 3123 340 LS
3123 450 MT 3123 340 LS
3124 450 MT 3149 450 LS
3149 450 MT 3149 340 LS
3150 340 MT 3174 340 LS
3174 450 MT 3174 340 LS
3175 450 MT 3200 450 LS
3200 450 MT 3200 340 LS
3201 340 MT 3226 340 LS
3226 450 MT 3226 340 LS
3227 450 MT 3251 450 LS
3251 450 MT 3251 340 LS
3252 340 MT 3277 340 LS
3277 450 MT 3277 340 LS
3278 450 MT 3302 450 LS
3302 450 MT 3302 340 LS
3303 340 MT 3328 340 LS
3328 450 MT 3328 340 LS
3329 450 MT 3354 450 LS
3354 450 MT 3354 340 LS
3355 340 MT 3379 340 LS
3379 450 MT 3379 340 LS
3380 450 MT 3405 450 LS
3405 450 MT 3405 340 LS
3406 340 MT 3430 340 LS
3430 450 MT 3430 340 LS
3431 450 MT 3456 450 LS
3456 450 MT 3456 340 LS
3457 340 MT 3482 340 LS
3482 450 MT 3482 340 LS
3483 450 MT 3507 450 LS
3507 450 MT 3507 340 LS
3508 340 MT 3533 340 LS
3533 450 MT 3533 340 LS
3534 450 MT 3558 450 LS
3558 450 MT 3558 340 LS
3559 340 MT 3584 340 LS
3584 450 MT 3584 340 LS
3585 450 MT 3610 450 LS
3610 450 MT 3610 340 LS
3611 340 MT 3635 340 LS
3635 450 MT 3635 340 LS
3636 450 MT 3661 450 LS
3661 450 MT 3661 340 LS
3662 340 MT 3686 340 LS
3686 450 MT 3686 340 LS
3687 450 MT 3712 450 LS
3712 450 MT 3712 340 LS
3713 340 MT 3738 340 LS
3738 450 MT 3738 340 LS
3739 450 MT 3763 450 LS
3763 450 MT 3763 340 LS
3764 340 MT 3789 340 LS
3789 450 MT 3789 340 LS
3790 450 MT 3814 450 LS
3814 450 MT 3814 340 LS
3815 340 MT 3840 340 LS
3840 450 MT 3840 340 LS
3841 450 MT 3866 450 LS
3866 450 MT 3866 340 LS
3867 340 MT 3891 340 LS
3891 450 MT 3891 340 LS
3892 450 MT 3917 450 LS
3917 450 MT 3917 340 LS
3918 340 MT 3942 340 LS
3942 450 MT 3942 340 LS
3943 450 MT 3968 450 LS
3968 450 MT 3968 340 LS
3969 340 MT 3994 340 LS
3994 450 MT 3994 340 LS
3995 450 MT 4019 450 LS
4019 450 MT 4019 340 LS
4020 340 MT 4045 340 LS
4045 450 MT 4045 340 LS
4046 450 MT 4070 450 LS
4070 450 MT 4070 340 LS
4071 340 MT 4096 340 LS
4096 450 MT 4096 340 LS
4097 450 MT 4122 450 LS
4122 450 MT 4122 340 LS
4123 340 MT 4147 340 LS
4147 450 MT 4147 340 LS
4148 450 MT 4173 450 LS
4173 450 MT 4173 340 LS
4174 340 MT 4198 340 LS
4198 450 MT 4198 340 LS
4199 450 MT 4224 450 LS
4224 450 MT 4224 340 LS
4225 340 MT 4250 340 LS
4250 450 MT 4250 340 LS
4251 450 MT 4275 450 LS
4275 450 MT 4275 340 LS
4276 340 MT 4301 340 LS
4301 450 MT 4301 340 LS
4302 450 MT 4326 450 LS
4326 450 MT 4326 340 LS
4327 340 MT 4352 340 LS
4352 450 MT 4352 340 LS
4353 450 MT 4378 450 LS
4378 450 MT 4378 340 LS
4379 340 MT 4403 340 LS
4403 450 MT 4403 340 LS
4404 450 MT 4429 450 LS
4429 450 MT 4429 340 LS
4430 340 MT 4454 340 LS
4454 450 MT 4454 340 LS
4455 450 MT 4480 450 LS
4480 450 MT 4480 340 LS
4481 340 MT 4506 340 LS
4506 450 MT 4506 340 LS
4507 450 MT 4531 450 LS
4531 450 MT 4531 340 LS
4532 340 MT 4557 340 LS
4557 450 MT 4557 340 LS
4558 450 MT 4582 450 LS
4582 450 MT 4582 340 LS
4583 340 MT 4608 340 LS
4608 450 MT 4608 340 LS
4609 450 MT 4634 450 LS
4634 450 MT 4634 340 LS
4635 340 MT 4659 340 LS
4659 450 MT 4659 340 LS
4660 450 MT 4685 450 LS
4685 450 MT 4685 340 LS
4686 340 MT 4710 340 LS
4710 450 MT 4710 340 LS
4711 450 MT 4736 450 LS
4736 450 MT 4736 340 LS
4737 340 MT 4762 340 LS
4762 450 MT 4762 340 LS
4763 450 MT 4787 450 LS
4787 450 MT 4787 340 LS
4788 340 MT 4813 340 LS
4813 450 MT 4813 340 LS
4814 450 MT 4838 450 LS
4838 450 MT 4838 340 LS
4839 340 MT 4864 340 LS
4864 450 MT 4864 340 LS
4865 450 MT 4890 450 LS
4890 450 MT 4890 340 LS
4891 340 MT 4915 340 LS
4915 450 MT 4915 340 LS
4916 450 MT 4941 450 LS
4941 450 MT 4941 340 LS
4942 340 MT 4966 340 LS
4966 450 MT 4966 340 LS
4967 450 MT 4992 450 LS
4992 450 MT 4992 340 LS
4993 340 MT 5018 340 LS
5018 450 MT 5018 340 LS
5019 450 MT 5043 450 LS
5043 450 MT 5043 340 LS
5044 340 MT 5069 340 LS
5069 450 MT 5069 340 LS
5070 450 MT 5094 450 LS
5094 450 MT 5094 340 LS
5095 340 MT 5120 340 LS
5120 450 MT 5120 340 LS
5121 450 MT 5146 450 LS
5146 450 MT 5146 340 LS
5147 340 MT 5171 340 LS
5171 450 MT 5171 340 LS
5172 450 MT 5197 450 LS
5197 450 MT 5197 340 LS
5198 340 MT 5222 340 LS
5222 450 MT 5222 340 LS
5223 450 MT 5248 450 LS
5248 450 MT 5248 340 LS
5249 340 MT 5274 340 LS
5274 450 MT 5274 340 LS
5275 450 MT 5299 450 LS
5299 450 MT 5299 340 LS
5300 340 MT 5325 340 LS
5325 450 MT 5325 340 LS
5326 450 MT 5350 450 LS
5350 450 MT 5350 340 LS
5351 340 MT 5376 340 LS
5376 450 MT 5376 340 LS
5377 450 MT 5402 450 LS
5402 450 MT 5402 340 LS
5403 340 MT 5427 340 LS
5427 450 MT 5427 340 LS
5428 450 MT 5453 450 LS
5453 450 MT 5453 340 LS
5454 340 MT 5478 340 LS
5478 450 MT 5478 340 LS
5479 450 MT 5504 450 LS
5504 450 MT 5504 340 LS
5505 340 MT 5530 340 LS
5530 450 MT 5530 340 LS
5531 450 MT 5555 450 LS
5555 450 MT 5555 340 LS
5556 340 MT 5581 340 LS
5581 450 MT 5581 340 LS
5582 450 MT 5606 450 LS
5606 450 MT 5606 340 LS
5607 340 MT 5632 340 LS
5632 450 MT 5632 340 LS
5633 450 MT 5658 450 LS
5658 450 MT 5658 340 LS
5659 340 MT 5683 340 LS
5683 450 MT 5683 340 LS
5684 450 MT 5709 450 LS
5709 450 MT 5709 340 LS
5710 340 MT 5734 340 LS
5734 450 MT 5734 340 LS
5735 450 MT 5760 450 LS
5760 450 MT 5760 340 LS
5761 340 MT 5786 340 LS
5786 450 MT 5786 340 LS
5787 450 MT 5811 450 LS
5811 450 MT 5811 340 LS
5812 340 MT 5837 340 LS
5837 450 MT 5837 340 LS
5838 450 MT 5862 450 LS
5862 450 MT 5862 340 LS
5863 340 MT 5888 340 LS
5888 450 MT 5888 340 LS
5889 450 MT 5914 450 LS
5914 450 MT 5914 340 LS
5915 340 MT 5939 340 LS
5939 450 MT 5939 340 LS
5940 450 MT 5965 450 LS
5965 450 MT 5965 340 LS
5966 340 MT 5990 340 LS
5990 450 MT 5990 340 LS
5991 450 MT 6016 450 LS
6016 450 MT 6016 340 LS
6017 340 MT 6042 340 LS
6042 450 MT 6042 340 LS
6043 450 MT 6067 450 LS
6067 450 MT 6067 340 LS
6068 340 MT 6093 340 LS
6093 450 MT 6093 340 LS
6094 450 MT 6118 450 LS
6118 450 MT 6118 340 LS
6119 340 MT 6144 340 LS
6144 450 MT 6144 340 LS
6145 450 MT 6170 450 LS
6170 450 MT 6170 340 LS
6171 340 MT 6195 340 LS
6195 450 MT 6195 340 LS
6196 450 MT 6221 450 LS
6221 450 MT 6221 340 LS
6222 340 MT 6246 340 LS
6246 450 MT 6246 340 LS
6247 450 MT 6272 450 LS
6272 450 MT 6272 340 LS
6273 340 MT 6298 340 LS
6298 450 MT 6298 340 LS
6298 450 MT 6298 450 LS
(002c) 1277 LC 1192 593 WT pop 0 originOffset 50 add RSS
1178 538 MT 1178 538 LT 2476 538 LT 2483 593 LT ST
1178 648 MT 1178 648 LT 2476 648 LT 2483 593 LT ST
(002e) 1303 LC 2497 593 WT pop 0 originOffset 50 add RSS
2483 593 MT 2483 593 LT 2490 538 LT 3807 538 LT 3814 593 LT ST
2483 593 MT 2483 593 LT 2490 648 LT 3807 648 LT 3814 593 LT ST
(0026) 24 LC 3828 593 WT pop 0 originOffset 50 add RSS
3814 593 MT 3814 593 LT 3821 538 LT 3859 538 LT 3866 593 LT ST
3814 593 MT 3814 593 LT 3821 648 LT 3859 648 LT 3866 593 LT ST
(0028) 1354 LC 3880 593 WT pop 0 originOffset 50 add RSS
3866 593 MT 3866 593 LT 3873 538 LT 5241 538 LT 5248 593 LT ST
3866 593 MT 3866 593 LT 3873 648 LT 5241 648 LT 5248 593 LT ST
(0026) 23 LC 5262 593 WT pop 0 originOffset 50 add RSS
5248 593 MT 5248 593 LT 5255 538 LT 5292 538 LT 5299 593 LT ST
5248 593 MT 5248 593 LT 5255 648 LT 5292 648 LT 5299 593 LT ST
(0028) 971 LC 5313 593 WT pop 0 originOffset 50 add RSS
5299 593 MT 5299 593 LT 5306 538 LT 6298 538 LT ST
5299 593 MT 5299 593 LT 5306 648 LT 6298 648 LT ST
(002a) -3 LC 1192 791 WT pop 0 originOffset 50 add RSS
1178 736 MT 1178 736 LT 1196 736 LT 1203 791 LT ST
1178 846 MT 1178 846 LT 1196 846 LT 1203 791 LT ST
(0040) 1252 LC 1217 791 WT pop 0 originOffset 50 add RSS
1203 791 MT 1203 791 LT 1210 736 LT 2476 736 LT 2483 791 LT ST
1203 791 MT 1203 791 LT 1210 846 LT 2476 846 LT 2483 791 LT ST
(002c) 1355 LC 2497 791 WT pop 0 originOffset 50 add RSS
2483 791 MT 2483 791 LT 2490 736 LT 3859 736 LT 3866 791 LT ST
2483 791 MT 2483 791 LT 2490 846 LT 3859 846 LT 3866 791 LT ST
(0026) 2404 LC 3880 791 WT pop 0 originOffset 50 add RSS
3866 791 MT 3866 791 LT 3873 736 LT 6298 736 LT ST
3866 791 MT 3866 791 LT 3873 846 LT 6298 846 LT ST
1179 1044 MT 1203 1044 LS
1203 1044 MT 1203 934 LS
1204 934 MT 2381 934 LS
2381 1044 MT 2381 934 LS
2382 1044 MT 2483 1044 LS
2483 1044 MT 2483 934 LS
2484 934 MT 3661 934 LS
3661 1044 MT 3661 934 LS
3662 1044 MT 3866 1044 LS
3866 1044 MT 3866 934 LS
3867 934 MT 5043 934 LS
5043 1044 MT 5043 934 LS
5044 1044 MT 5299 1044 LS
5299 1044 MT 5299 934 LS
5300 934 MT 6298 934 LS
6298 934 MT 6298 934 LS
(6c07) 1124 LC 1192 1187 WT pop 0 originOffset 50 add RSS
1178 1132 MT 1178 1132 LT 2323 1132 LT 2330 1187 LT ST
1178 1242 MT 1178 1242 LT 2323 1242 LT 2330 1187 LT ST
(600d) 1252 LC 2344 1187 WT pop 0 originOffset 50 add RSS
2330 1187 MT 2330 1187 LT 2337 1132 LT 3603 1132 LT 3610 1187 LT ST
2330 1187 MT 2330 1187 LT 2337 1242 LT 3603 1242 LT 3610 1187 LT ST
(c1c0) 1354 LC 3624 1187 WT pop 0 originOffset 50 add RSS
3610 1187 MT 3610 1187 LT 3617 1132 LT 4985 1132 LT 4992 1187 LT ST
3610 1187 MT 3610 1187 LT 3617 1242 LT 4985 1242 LT 4992 1187 LT ST
(0fff) 1278 LC 5006 1187 WT pop 0 originOffset 50 add RSS
4992 1187 MT 4992 1187 LT 4999 1132 LT 6298 1132 LT ST
4992 1187 MT 4992 1187 LT 4999 1242 LT 6298 1242 LT ST
1179 1440 MT 6298 1440 LS
6298 1440 MT 6298 1440 LS
(3) 5092 LC 1192 1583 WT pop 0 originOffset 50 add RSS
1178 1528 MT 1178 1528 LT 6298 1528 LT ST
1178 1638 MT 1178 1638 LT 6298 1638 LT ST
(6c07) 1175 LC 1192 1781 WT pop 0 originOffset 50 add RSS
1178 1726 MT 1178 1726 LT 2374 1726 LT 2381 1781 LT ST
1178 1836 MT 1178 1836 LT 2374 1836 LT 2381 1781 LT ST
(600d) 1252 LC 2395 1781 WT pop 0 originOffset 50 add RSS
2381 1781 MT 2381 1781 LT 2388 1726 LT 3654 1726 LT 3661 1781 LT ST
2381 1781 MT 2381 1781 LT 2388 1836 LT 3654 1836 LT 3661 1781 LT ST
(c1c0) 1354 LC 3675 1781 WT pop 0 originOffset 50 add RSS
3661 1781 MT 3661 1781 LT 3668 1726 LT 5036 1726 LT 5043 1781 LT ST
3661 1781 MT 3661 1781 LT 3668 1836 LT 5036 1836 LT 5043 1781 LT ST
(0fff) 1227 LC 5057 1781 WT pop 0 originOffset 50 add RSS
5043 1781 MT 5043 1781 LT 5050 1726 LT 6298 1726 LT ST
5043 1781 MT 5043 1781 LT 5050 1836 LT 6298 1836 LT ST
(0026 0004 0028 0004 00d1 0025 0033 0032) 1226 LC 1192 1979 WT pop 0 originOffset 50 add RSS
1178 1924 MT 1178 1924 LT 2425 1924 LT 2432 1979 LT ST
1178 2034 MT 1178 2034 LT 2425 2034 LT 2432 1979 LT ST
(0026 600d 0028 0004 00d1 0025 0033 0032) 3838 LC 2446 1979 WT pop 0 originOffset 50 add RSS
2432 1979 MT 2432 1979 LT 2439 1924 LT 6298 1924 LT ST
2432 1979 MT 2432 1979 LT 2439 2034 LT 6298 2034 LT ST
(0026) 5092 LC 1192 2177 WT pop 0 originOffset 50 add RSS
1178 2122 MT 1178 2122 LT 6298 2122 LT ST
1178 2232 MT 1178 2232 LT 6298 2232 LT ST
(0004) 1226 LC 1192 2375 WT pop 0 originOffset 50 add RSS
1178 2320 MT 1178 2320 LT 2425 2320 LT 2432 2375 LT ST
1178 2430 MT 1178 2430 LT 2425 2430 LT 2432 2375 LT ST
(600d) 3838 LC 2446 2375 WT pop 0 originOffset 50 add RSS
2432 2375 MT 2432 2375 LT 2439 2320 LT 6298 2320 LT ST
2432 2375 MT 2432 2375 LT 2439 2430 LT 6298 2430 LT ST
(0028) 5092 LC 1192 2573 WT pop 0 originOffset 50 add RSS
1178 2518 MT 1178 2518 LT 6298 2518 LT ST
1178 2628 MT 1178 2628 LT 6298 2628 LT ST
(0004) 5092 LC 1192 2771 WT pop 0 originOffset 50 add RSS
1178 2716 MT 1178 2716 LT 6298 2716 LT ST
1178 2826 MT 1178 2826 LT 6298 2826 LT ST
(00d1) 5092 LC 1192 2969 WT pop 0 originOffset 50 add RSS
1178 2914 MT 1178 2914 LT 6298 2914 LT ST
1178 3024 MT 1178 3024 LT 6298 3024 LT ST
(0025) 5092 LC 1192 3167 WT pop 0 originOffset 50 add RSS
1178 3112 MT 1178 3112 LT 6298 3112 LT ST
1178 3222 MT 1178 3222 LT 6298 3222 LT ST
(0033) 5092 LC 1192 3365 WT pop 0 originOffset 50 add RSS
1178 3310 MT 1178 3310 LT 6298 3310 LT ST
1178 3420 MT 1178 3420 LT 6298 3420 LT ST
(0032) 5092 LC 1192 3563 WT pop 0 originOffset 50 add RSS
1178 3508 MT 1178 3508 LT 6298 3508 LT ST
1178 3618 MT 1178 3618 LT 6298 3618 LT ST
% draw timeline
1229 4455 MT 1229 4492 LS
1280 4455 MT 1280 4492 LS
1332 4455 MT 1332 4492 LS
1383 4455 MT 1383 4492 LS
1434 4455 MT 1434 4492 LS
1485 4455 MT 1485 4492 LS
1536 4455 MT 1536 4492 LS
1588 4455 MT 1588 4492 LS
1639 4455 MT 1639 4492 LS
1690 4428 MT 1690 4492 LS
(8400 ns) 9999 LC 1690 4597 WT TS RSS
1741 4455 MT 1741 4492 LS
1792 4455 MT 1792 4492 LS
1844 4455 MT 1844 4492 LS
1895 4455 MT 1895 4492 LS
1946 4455 MT 1946 4492 LS
1997 4455 MT 1997 4492 LS
2048 4455 MT 2048 4492 LS
2100 4455 MT 2100 4492 LS
2151 4455 MT 2151 4492 LS
2202 4428 MT 2202 4492 LS
2253 4455 MT 2253 4492 LS
2304 4455 MT 2304 4492 LS
2356 4455 MT 2356 4492 LS
2407 4455 MT 2407 4492 LS
2458 4455 MT 2458 4492 LS
2509 4455 MT 2509 4492 LS
2560 4455 MT 2560 4492 LS
2612 4455 MT 2612 4492 LS
2663 4455 MT 2663 4492 LS
2714 4428 MT 2714 4492 LS
(8600 ns) 9999 LC 2714 4597 WT TS RSS
2765 4455 MT 2765 4492 LS
2816 4455 MT 2816 4492 LS
2868 4455 MT 2868 4492 LS
2919 4455 MT 2919 4492 LS
2970 4455 MT 2970 4492 LS
3021 4455 MT 3021 4492 LS
3072 4455 MT 3072 4492 LS
3124 4455 MT 3124 4492 LS
3175 4455 MT 3175 4492 LS
3226 4428 MT 3226 4492 LS
3277 4455 MT 3277 4492 LS
3328 4455 MT 3328 4492 LS
3380 4455 MT 3380 4492 LS
3431 4455 MT 3431 4492 LS
3482 4455 MT 3482 4492 LS
3533 4455 MT 3533 4492 LS
3584 4455 MT 3584 4492 LS
3636 4455 MT 3636 4492 LS
3687 4455 MT 3687 4492 LS
3738 4428 MT 3738 4492 LS
(8800 ns) 9999 LC 3738 4597 WT TS RSS
3789 4455 MT 3789 4492 LS
3840 4455 MT 3840 4492 LS
3892 4455 MT 3892 4492 LS
3943 4455 MT 3943 4492 LS
3994 4455 MT 3994 4492 LS
4045 4455 MT 4045 4492 LS
4096 4455 MT 4096 4492 LS
4148 4455 MT 4148 4492 LS
4199 4455 MT 4199 4492 LS
4250 4428 MT 4250 4492 LS
4301 4455 MT 4301 4492 LS
4352 4455 MT 4352 4492 LS
4404 4455 MT 4404 4492 LS
4455 4455 MT 4455 4492 LS
4506 4455 MT 4506 4492 LS
4557 4455 MT 4557 4492 LS
4608 4455 MT 4608 4492 LS
4660 4455 MT 4660 4492 LS
4711 4455 MT 4711 4492 LS
4762 4428 MT 4762 4492 LS
(9000 ns) 9999 LC 4762 4597 WT TS RSS
4813 4455 MT 4813 4492 LS
4864 4455 MT 4864 4492 LS
4916 4455 MT 4916 4492 LS
4967 4455 MT 4967 4492 LS
5018 4455 MT 5018 4492 LS
5069 4455 MT 5069 4492 LS
5120 4455 MT 5120 4492 LS
5172 4455 MT 5172 4492 LS
5223 4455 MT 5223 4492 LS
5274 4428 MT 5274 4492 LS
5325 4455 MT 5325 4492 LS
5376 4455 MT 5376 4492 LS
5428 4455 MT 5428 4492 LS
5479 4455 MT 5479 4492 LS
5530 4455 MT 5530 4492 LS
5581 4455 MT 5581 4492 LS
5632 4455 MT 5632 4492 LS
5684 4455 MT 5684 4492 LS
5735 4455 MT 5735 4492 LS
5786 4428 MT 5786 4492 LS
(9200 ns) 9999 LC 5786 4597 WT TS RSS
5837 4455 MT 5837 4492 LS
5888 4455 MT 5888 4492 LS
5940 4455 MT 5940 4492 LS
5991 4455 MT 5991 4492 LS
6042 4455 MT 6042 4492 LS
6093 4455 MT 6093 4492 LS
6144 4455 MT 6144 4492 LS
6196 4455 MT 6196 4492 LS
6247 4455 MT 6247 4492 LS
6298 4428 MT 6298 4492 LS
6349 4455 MT 6349 4492 LS
6400 4455 MT 6400 4492 LS
6452 4455 MT 6452 4492 LS
6503 4455 MT 6503 4492 LS
6554 4455 MT 6554 4492 LS
6605 4455 MT 6605 4492 LS
6656 4455 MT 6656 4492 LS
6708 4455 MT 6708 4492 LS
6759 4455 MT 6759 4492 LS
% draw grid
1690 300 MT 1690 4428 LS
2202 300 MT 2202 4428 LS
2714 300 MT 2714 4428 LS
3226 300 MT 3226 4428 LS
3738 300 MT 3738 4428 LS
4250 300 MT 4250 4428 LS
4762 300 MT 4762 4428 LS
5274 300 MT 5274 4428 LS
5786 300 MT 5786 4428 LS
6298 300 MT 6298 4428 LS
% draw waveforms
(clk) 9999 LC 1141 449 WT TSE RSS
1683 300 MT 1697 300 LS
2195 300 MT 2209 300 LS
2707 300 MT 2721 300 LS
3219 300 MT 3233 300 LS
3731 300 MT 3745 300 LS
4243 300 MT 4257 300 LS
4755 300 MT 4769 300 LS
5267 300 MT 5281 300 LS
5779 300 MT 5793 300 LS
6291 300 MT 6305 300 LS
1178 450 MT 1178 340 LS
1179 450 MT 1203 450 LS
1203 450 MT 1203 340 LS
1204 340 MT 1229 340 LS
1229 450 MT 1229 340 LS
1230 450 MT 1254 450 LS
1254 450 MT 1254 340 LS
1255 340 MT 1280 340 LS
1280 450 MT 1280 340 LS
1281 450 MT 1306 450 LS
1306 450 MT 1306 340 LS
1307 340 MT 1331 340 LS
1331 450 MT 1331 340 LS
1332 450 MT 1357 450 LS
1357 450 MT 1357 340 LS
1358 340 MT 1382 340 LS
1382 450 MT 1382 340 LS
1383 450 MT 1408 450 LS
1408 450 MT 1408 340 LS
1409 340 MT 1434 340 LS
1434 450 MT 1434 340 LS
1435 450 MT 1459 450 LS
1459 450 MT 1459 340 LS
1460 340 MT 1485 340 LS
1485 450 MT 1485 340 LS
1486 450 MT 1510 450 LS
1510 450 MT 1510 340 LS
1511 340 MT 1536 340 LS
1536 450 MT 1536 340 LS
1537 450 MT 1562 450 LS
1562 450 MT 1562 340 LS
1563 340 MT 1587 340 LS
1587 450 MT 1587 340 LS
1588 450 MT 1613 450 LS
1613 450 MT 1613 340 LS
1614 340 MT 1638 340 LS
1638 450 MT 1638 340 LS
1639 450 MT 1664 450 LS
1664 450 MT 1664 340 LS
1665 340 MT 1690 340 LS
1690 450 MT 1690 340 LS
1691 450 MT 1715 450 LS
1715 450 MT 1715 340 LS
1716 340 MT 1741 340 LS
1741 450 MT 1741 340 LS
1742 450 MT 1766 450 LS
1766 450 MT 1766 340 LS
1767 340 MT 1792 340 LS
1792 450 MT 1792 340 LS
1793 450 MT 1818 450 LS
1818 450 MT 1818 340 LS
1819 340 MT 1843 340 LS
1843 450 MT 1843 340 LS
1844 450 MT 1869 450 LS
1869 450 MT 1869 340 LS
1870 340 MT 1894 340 LS
1894 450 MT 1894 340 LS
1895 450 MT 1920 450 LS
1920 450 MT 1920 340 LS
1921 340 MT 1946 340 LS
1946 450 MT 1946 340 LS
1947 450 MT 1971 450 LS
1971 450 MT 1971 340 LS
1972 340 MT 1997 340 LS
1997 450 MT 1997 340 LS
1998 450 MT 2022 450 LS
2022 450 MT 2022 340 LS
2023 340 MT 2048 340 LS
2048 450 MT 2048 340 LS
2049 450 MT 2074 450 LS
2074 450 MT 2074 340 LS
2075 340 MT 2099 340 LS
2099 450 MT 2099 340 LS
2100 450 MT 2125 450 LS
2125 450 MT 2125 340 LS
2126 340 MT 2150 340 LS
2150 450 MT 2150 340 LS
2151 450 MT 2176 450 LS
2176 450 MT 2176 340 LS
2177 340 MT 2202 340 LS
2202 450 MT 2202 340 LS
2203 450 MT 2227 450 LS
2227 450 MT 2227 340 LS
2228 340 MT 2253 340 LS
2253 450 MT 2253 340 LS
2254 450 MT 2278 450 LS
2278 450 MT 2278 340 LS
2279 340 MT 2304 340 LS
2304 450 MT 2304 340 LS
2305 450 MT 2330 450 LS
2330 450 MT 2330 340 LS
2331 340 MT 2355 340 LS
2355 450 MT 2355 340 LS
2356 450 MT 2381 450 LS
2381 450 MT 2381 340 LS
2382 340 MT 2406 340 LS
2406 450 MT 2406 340 LS
2407 450 MT 2432 450 LS
2432 450 MT 2432 340 LS
2433 340 MT 2458 340 LS
2458 450 MT 2458 340 LS
2459 450 MT 2483 450 LS
2483 450 MT 2483 340 LS
2484 340 MT 2509 340 LS
2509 450 MT 2509 340 LS
2510 450 MT 2534 450 LS
2534 450 MT 2534 340 LS
2535 340 MT 2560 340 LS
2560 450 MT 2560 340 LS
2561 450 MT 2586 450 LS
2586 450 MT 2586 340 LS
2587 340 MT 2611 340 LS
2611 450 MT 2611 340 LS
2612 450 MT 2637 450 LS
2637 450 MT 2637 340 LS
2638 340 MT 2662 340 LS
2662 450 MT 2662 340 LS
2663 450 MT 2688 450 LS
2688 450 MT 2688 340 LS
2689 340 MT 2714 340 LS
2714 450 MT 2714 340 LS
2715 450 MT 2739 450 LS
2739 450 MT 2739 340 LS
2740 340 MT 2765 340 LS
2765 450 MT 2765 340 LS
2766 450 MT 2790 450 LS
2790 450 MT 2790 340 LS
2791 340 MT 2816 340 LS
2816 450 MT 2816 340 LS
2817 450 MT 2842 450 LS
2842 450 MT 2842 340 LS
2843 340 MT 2867 340 LS
2867 450 MT 2867 340 LS
2868 450 MT 2893 450 LS
2893 450 MT 2893 340 LS
2894 340 MT 2918 340 LS
2918 450 MT 2918 340 LS
2919 450 MT 2944 450 LS
2944 450 MT 2944 340 LS
2945 340 MT 2970 340 LS
2970 450 MT 2970 340 LS
2971 450 MT 2995 450 LS
2995 450 MT 2995 340 LS
2996 340 MT 3021 340 LS
3021 450 MT 3021 340 LS
3022 450 MT 3046 450 LS
3046 450 MT 3046 340 LS
3047 340 MT 3072 340 LS
3072 450 MT 3072 340 LS
3073 450 MT 3098 450 LS
3098 450 MT 3098 340 LS
3099 340 MT 3123 340 LS
3123 450 MT 3123 340 LS
3124 450 MT 3149 450 LS
3149 450 MT 3149 340 LS
3150 340 MT 3174 340 LS
3174 450 MT 3174 340 LS
3175 450 MT 3200 450 LS
3200 450 MT 3200 340 LS
3201 340 MT 3226 340 LS
3226 450 MT 3226 340 LS
3227 450 MT 3251 450 LS
3251 450 MT 3251 340 LS
3252 340 MT 3277 340 LS
3277 450 MT 3277 340 LS
3278 450 MT 3302 450 LS
3302 450 MT 3302 340 LS
3303 340 MT 3328 340 LS
3328 450 MT 3328 340 LS
3329 450 MT 3354 450 LS
3354 450 MT 3354 340 LS
3355 340 MT 3379 340 LS
3379 450 MT 3379 340 LS
3380 450 MT 3405 450 LS
3405 450 MT 3405 340 LS
3406 340 MT 3430 340 LS
3430 450 MT 3430 340 LS
3431 450 MT 3456 450 LS
3456 450 MT 3456 340 LS
3457 340 MT 3482 340 LS
3482 450 MT 3482 340 LS
3483 450 MT 3507 450 LS
3507 450 MT 3507 340 LS
3508 340 MT 3533 340 LS
3533 450 MT 3533 340 LS
3534 450 MT 3558 450 LS
3558 450 MT 3558 340 LS
3559 340 MT 3584 340 LS
3584 450 MT 3584 340 LS
3585 450 MT 3610 450 LS
3610 450 MT 3610 340 LS
3611 340 MT 3635 340 LS
3635 450 MT 3635 340 LS
3636 450 MT 3661 450 LS
3661 450 MT 3661 340 LS
3662 340 MT 3686 340 LS
3686 450 MT 3686 340 LS
3687 450 MT 3712 450 LS
3712 450 MT 3712 340 LS
3713 340 MT 3738 340 LS
3738 450 MT 3738 340 LS
3739 450 MT 3763 450 LS
3763 450 MT 3763 340 LS
3764 340 MT 3789 340 LS
3789 450 MT 3789 340 LS
3790 450 MT 3814 450 LS
3814 450 MT 3814 340 LS
3815 340 MT 3840 340 LS
3840 450 MT 3840 340 LS
3841 450 MT 3866 450 LS
3866 450 MT 3866 340 LS
3867 340 MT 3891 340 LS
3891 450 MT 3891 340 LS
3892 450 MT 3917 450 LS
3917 450 MT 3917 340 LS
3918 340 MT 3942 340 LS
3942 450 MT 3942 340 LS
3943 450 MT 3968 450 LS
3968 450 MT 3968 340 LS
3969 340 MT 3994 340 LS
3994 450 MT 3994 340 LS
3995 450 MT 4019 450 LS
4019 450 MT 4019 340 LS
4020 340 MT 4045 340 LS
4045 450 MT 4045 340 LS
4046 450 MT 4070 450 LS
4070 450 MT 4070 340 LS
4071 340 MT 4096 340 LS
4096 450 MT 4096 340 LS
4097 450 MT 4122 450 LS
4122 450 MT 4122 340 LS
4123 340 MT 4147 340 LS
4147 450 MT 4147 340 LS
4148 450 MT 4173 450 LS
4173 450 MT 4173 340 LS
4174 340 MT 4198 340 LS
4198 450 MT 4198 340 LS
4199 450 MT 4224 450 LS
4224 450 MT 4224 340 LS
4225 340 MT 4250 340 LS
4250 450 MT 4250 340 LS
4251 450 MT 4275 450 LS
4275 450 MT 4275 340 LS
4276 340 MT 4301 340 LS
4301 450 MT 4301 340 LS
4302 450 MT 4326 450 LS
4326 450 MT 4326 340 LS
4327 340 MT 4352 340 LS
4352 450 MT 4352 340 LS
4353 450 MT 4378 450 LS
4378 450 MT 4378 340 LS
4379 340 MT 4403 340 LS
4403 450 MT 4403 340 LS
4404 450 MT 4429 450 LS
4429 450 MT 4429 340 LS
4430 340 MT 4454 340 LS
4454 450 MT 4454 340 LS
4455 450 MT 4480 450 LS
4480 450 MT 4480 340 LS
4481 340 MT 4506 340 LS
4506 450 MT 4506 340 LS
4507 450 MT 4531 450 LS
4531 450 MT 4531 340 LS
4532 340 MT 4557 340 LS
4557 450 MT 4557 340 LS
4558 450 MT 4582 450 LS
4582 450 MT 4582 340 LS
4583 340 MT 4608 340 LS
4608 450 MT 4608 340 LS
4609 450 MT 4634 450 LS
4634 450 MT 4634 340 LS
4635 340 MT 4659 340 LS
4659 450 MT 4659 340 LS
4660 450 MT 4685 450 LS
4685 450 MT 4685 340 LS
4686 340 MT 4710 340 LS
4710 450 MT 4710 340 LS
4711 450 MT 4736 450 LS
4736 450 MT 4736 340 LS
4737 340 MT 4762 340 LS
4762 450 MT 4762 340 LS
4763 450 MT 4787 450 LS
4787 450 MT 4787 340 LS
4788 340 MT 4813 340 LS
4813 450 MT 4813 340 LS
4814 450 MT 4838 450 LS
4838 450 MT 4838 340 LS
4839 340 MT 4864 340 LS
4864 450 MT 4864 340 LS
4865 450 MT 4890 450 LS
4890 450 MT 4890 340 LS
4891 340 MT 4915 340 LS
4915 450 MT 4915 340 LS
4916 450 MT 4941 450 LS
4941 450 MT 4941 340 LS
4942 340 MT 4966 340 LS
4966 450 MT 4966 340 LS
4967 450 MT 4992 450 LS
4992 450 MT 4992 340 LS
4993 340 MT 5018 340 LS
5018 450 MT 5018 340 LS
5019 450 MT 5043 450 LS
5043 450 MT 5043 340 LS
5044 340 MT 5069 340 LS
5069 450 MT 5069 340 LS
5070 450 MT 5094 450 LS
5094 450 MT 5094 340 LS
5095 340 MT 5120 340 LS
5120 450 MT 5120 340 LS
5121 450 MT 5146 450 LS
5146 450 MT 5146 340 LS
5147 340 MT 5171 340 LS
5171 450 MT 5171 340 LS
5172 450 MT 5197 450 LS
5197 450 MT 5197 340 LS
5198 340 MT 5222 340 LS
5222 450 MT 5222 340 LS
5223 450 MT 5248 450 LS
5248 450 MT 5248 340 LS
5249 340 MT 5274 340 LS
5274 450 MT 5274 340 LS
5275 450 MT 5299 450 LS
5299 450 MT 5299 340 LS
5300 340 MT 5325 340 LS
5325 450 MT 5325 340 LS
5326 450 MT 5350 450 LS
5350 450 MT 5350 340 LS
5351 340 MT 5376 340 LS
5376 450 MT 5376 340 LS
5377 450 MT 5402 450 LS
5402 450 MT 5402 340 LS
5403 340 MT 5427 340 LS
5427 450 MT 5427 340 LS
5428 450 MT 5453 450 LS
5453 450 MT 5453 340 LS
5454 340 MT 5478 340 LS
5478 450 MT 5478 340 LS
5479 450 MT 5504 450 LS
5504 450 MT 5504 340 LS
5505 340 MT 5530 340 LS
5530 450 MT 5530 340 LS
5531 450 MT 5555 450 LS
5555 450 MT 5555 340 LS
5556 340 MT 5581 340 LS
5581 450 MT 5581 340 LS
5582 450 MT 5606 450 LS
5606 450 MT 5606 340 LS
5607 340 MT 5632 340 LS
5632 450 MT 5632 340 LS
5633 450 MT 5658 450 LS
5658 450 MT 5658 340 LS
5659 340 MT 5683 340 LS
5683 450 MT 5683 340 LS
5684 450 MT 5709 450 LS
5709 450 MT 5709 340 LS
5710 340 MT 5734 340 LS
5734 450 MT 5734 340 LS
5735 450 MT 5760 450 LS
5760 450 MT 5760 340 LS
5761 340 MT 5786 340 LS
5786 450 MT 5786 340 LS
5787 450 MT 5811 450 LS
5811 450 MT 5811 340 LS
5812 340 MT 5837 340 LS
5837 450 MT 5837 340 LS
5838 450 MT 5862 450 LS
5862 450 MT 5862 340 LS
5863 340 MT 5888 340 LS
5888 450 MT 5888 340 LS
5889 450 MT 5914 450 LS
5914 450 MT 5914 340 LS
5915 340 MT 5939 340 LS
5939 450 MT 5939 340 LS
5940 450 MT 5965 450 LS
5965 450 MT 5965 340 LS
5966 340 MT 5990 340 LS
5990 450 MT 5990 340 LS
5991 450 MT 6016 450 LS
6016 450 MT 6016 340 LS
6017 340 MT 6042 340 LS
6042 450 MT 6042 340 LS
6043 450 MT 6067 450 LS
6067 450 MT 6067 340 LS
6068 340 MT 6093 340 LS
6093 450 MT 6093 340 LS
6094 450 MT 6118 450 LS
6118 450 MT 6118 340 LS
6119 340 MT 6144 340 LS
6144 450 MT 6144 340 LS
6145 450 MT 6170 450 LS
6170 450 MT 6170 340 LS
6171 340 MT 6195 340 LS
6195 450 MT 6195 340 LS
6196 450 MT 6221 450 LS
6221 450 MT 6221 340 LS
6222 340 MT 6246 340 LS
6246 450 MT 6246 340 LS
6247 450 MT 6272 450 LS
6272 450 MT 6272 340 LS
6273 340 MT 6298 340 LS
6298 450 MT 6298 340 LS
6298 450 MT 6298 450 LS
(pc_out) 9999 LC 1141 647 WT TSE RSS
1683 498 MT 1697 498 LS
2195 498 MT 2209 498 LS
2707 498 MT 2721 498 LS
3219 498 MT 3233 498 LS
3731 498 MT 3745 498 LS
4243 498 MT 4257 498 LS
4755 498 MT 4769 498 LS
5267 498 MT 5281 498 LS
5779 498 MT 5793 498 LS
6291 498 MT 6305 498 LS
(002c) 1277 LC 1192 593 WT pop 0 originOffset 50 add RSS
1178 538 MT 1178 538 LT 2476 538 LT 2483 593 LT ST
1178 648 MT 1178 648 LT 2476 648 LT 2483 593 LT ST
(002e) 1303 LC 2497 593 WT pop 0 originOffset 50 add RSS
2483 593 MT 2483 593 LT 2490 538 LT 3807 538 LT 3814 593 LT ST
2483 593 MT 2483 593 LT 2490 648 LT 3807 648 LT 3814 593 LT ST
(0026) 24 LC 3828 593 WT pop 0 originOffset 50 add RSS
3814 593 MT 3814 593 LT 3821 538 LT 3859 538 LT 3866 593 LT ST
3814 593 MT 3814 593 LT 3821 648 LT 3859 648 LT 3866 593 LT ST
(0028) 1354 LC 3880 593 WT pop 0 originOffset 50 add RSS
3866 593 MT 3866 593 LT 3873 538 LT 5241 538 LT 5248 593 LT ST
3866 593 MT 3866 593 LT 3873 648 LT 5241 648 LT 5248 593 LT ST
(0026) 23 LC 5262 593 WT pop 0 originOffset 50 add RSS
5248 593 MT 5248 593 LT 5255 538 LT 5292 538 LT 5299 593 LT ST
5248 593 MT 5248 593 LT 5255 648 LT 5292 648 LT 5299 593 LT ST
(0028) 971 LC 5313 593 WT pop 0 originOffset 50 add RSS
5299 593 MT 5299 593 LT 5306 538 LT 6298 538 LT ST
5299 593 MT 5299 593 LT 5306 648 LT 6298 648 LT ST
(mem_address) 9999 LC 1141 845 WT TSE RSS
1683 696 MT 1697 696 LS
2195 696 MT 2209 696 LS
2707 696 MT 2721 696 LS
3219 696 MT 3233 696 LS
3731 696 MT 3745 696 LS
4243 696 MT 4257 696 LS
4755 696 MT 4769 696 LS
5267 696 MT 5281 696 LS
5779 696 MT 5793 696 LS
6291 696 MT 6305 696 LS
(002a) -3 LC 1192 791 WT pop 0 originOffset 50 add RSS
1178 736 MT 1178 736 LT 1196 736 LT 1203 791 LT ST
1178 846 MT 1178 846 LT 1196 846 LT 1203 791 LT ST
(0040) 1252 LC 1217 791 WT pop 0 originOffset 50 add RSS
1203 791 MT 1203 791 LT 1210 736 LT 2476 736 LT 2483 791 LT ST
1203 791 MT 1203 791 LT 1210 846 LT 2476 846 LT 2483 791 LT ST
(002c) 1355 LC 2497 791 WT pop 0 originOffset 50 add RSS
2483 791 MT 2483 791 LT 2490 736 LT 3859 736 LT 3866 791 LT ST
2483 791 MT 2483 791 LT 2490 846 LT 3859 846 LT 3866 791 LT ST
(0026) 2404 LC 3880 791 WT pop 0 originOffset 50 add RSS
3866 791 MT 3866 791 LT 3873 736 LT 6298 736 LT ST
3866 791 MT 3866 791 LT 3873 846 LT 6298 846 LT ST
(mem_read) 9999 LC 1141 1043 WT TSE RSS
1683 894 MT 1697 894 LS
2195 894 MT 2209 894 LS
2707 894 MT 2721 894 LS
3219 894 MT 3233 894 LS
3731 894 MT 3745 894 LS
4243 894 MT 4257 894 LS
4755 894 MT 4769 894 LS
5267 894 MT 5281 894 LS
5779 894 MT 5793 894 LS
6291 894 MT 6305 894 LS
1179 1044 MT 1203 1044 LS
1203 1044 MT 1203 934 LS
1204 934 MT 2381 934 LS
2381 1044 MT 2381 934 LS
2382 1044 MT 2483 1044 LS
2483 1044 MT 2483 934 LS
2484 934 MT 3661 934 LS
3661 1044 MT 3661 934 LS
3662 1044 MT 3866 1044 LS
3866 1044 MT 3866 934 LS
3867 934 MT 5043 934 LS
5043 1044 MT 5043 934 LS
5044 1044 MT 5299 1044 LS
5299 1044 MT 5299 934 LS
5300 934 MT 6298 934 LS
6298 934 MT 6298 934 LS
(mem_rdata) 9999 LC 1141 1241 WT TSE RSS
1683 1092 MT 1697 1092 LS
2195 1092 MT 2209 1092 LS
2707 1092 MT 2721 1092 LS
3219 1092 MT 3233 1092 LS
3731 1092 MT 3745 1092 LS
4243 1092 MT 4257 1092 LS
4755 1092 MT 4769 1092 LS
5267 1092 MT 5281 1092 LS
5779 1092 MT 5793 1092 LS
6291 1092 MT 6305 1092 LS
(6c07) 1124 LC 1192 1187 WT pop 0 originOffset 50 add RSS
1178 1132 MT 1178 1132 LT 2323 1132 LT 2330 1187 LT ST
1178 1242 MT 1178 1242 LT 2323 1242 LT 2330 1187 LT ST
(600d) 1252 LC 2344 1187 WT pop 0 originOffset 50 add RSS
2330 1187 MT 2330 1187 LT 2337 1132 LT 3603 1132 LT 3610 1187 LT ST
2330 1187 MT 2330 1187 LT 2337 1242 LT 3603 1242 LT 3610 1187 LT ST
(c1c0) 1354 LC 3624 1187 WT pop 0 originOffset 50 add RSS
3610 1187 MT 3610 1187 LT 3617 1132 LT 4985 1132 LT 4992 1187 LT ST
3610 1187 MT 3610 1187 LT 3617 1242 LT 4985 1242 LT 4992 1187 LT ST
(0fff) 1278 LC 5006 1187 WT pop 0 originOffset 50 add RSS
4992 1187 MT 4992 1187 LT 4999 1132 LT 6298 1132 LT ST
4992 1187 MT 4992 1187 LT 4999 1242 LT 6298 1242 LT ST
(mem_write) 9999 LC 1141 1439 WT TSE RSS
1683 1290 MT 1697 1290 LS
2195 1290 MT 2209 1290 LS
2707 1290 MT 2721 1290 LS
3219 1290 MT 3233 1290 LS
3731 1290 MT 3745 1290 LS
4243 1290 MT 4257 1290 LS
4755 1290 MT 4769 1290 LS
5267 1290 MT 5281 1290 LS
5779 1290 MT 5793 1290 LS
6291 1290 MT 6305 1290 LS
1179 1440 MT 6298 1440 LS
6298 1440 MT 6298 1440 LS
(mem_byte_enable) 9999 LC 1141 1637 WT TSE RSS
1683 1488 MT 1697 1488 LS
2195 1488 MT 2209 1488 LS
2707 1488 MT 2721 1488 LS
3219 1488 MT 3233 1488 LS
3731 1488 MT 3745 1488 LS
4243 1488 MT 4257 1488 LS
4755 1488 MT 4769 1488 LS
5267 1488 MT 5281 1488 LS
5779 1488 MT 5793 1488 LS
6291 1488 MT 6305 1488 LS
(3) 5092 LC 1192 1583 WT pop 0 originOffset 50 add RSS
1178 1528 MT 1178 1528 LT 6298 1528 LT ST
1178 1638 MT 1178 1638 LT 6298 1638 LT ST
(mem_wdata) 9999 LC 1141 1835 WT TSE RSS
1683 1686 MT 1697 1686 LS
2195 1686 MT 2209 1686 LS
2707 1686 MT 2721 1686 LS
3219 1686 MT 3233 1686 LS
3731 1686 MT 3745 1686 LS
4243 1686 MT 4257 1686 LS
4755 1686 MT 4769 1686 LS
5267 1686 MT 5281 1686 LS
5779 1686 MT 5793 1686 LS
6291 1686 MT 6305 1686 LS
(6c07) 1175 LC 1192 1781 WT pop 0 originOffset 50 add RSS
1178 1726 MT 1178 1726 LT 2374 1726 LT 2381 1781 LT ST
1178 1836 MT 1178 1836 LT 2374 1836 LT 2381 1781 LT ST
(600d) 1252 LC 2395 1781 WT pop 0 originOffset 50 add RSS
2381 1781 MT 2381 1781 LT 2388 1726 LT 3654 1726 LT 3661 1781 LT ST
2381 1781 MT 2381 1781 LT 2388 1836 LT 3654 1836 LT 3661 1781 LT ST
(c1c0) 1354 LC 3675 1781 WT pop 0 originOffset 50 add RSS
3661 1781 MT 3661 1781 LT 3668 1726 LT 5036 1726 LT 5043 1781 LT ST
3661 1781 MT 3661 1781 LT 3668 1836 LT 5036 1836 LT 5043 1781 LT ST
(0fff) 1227 LC 5057 1781 WT pop 0 originOffset 50 add RSS
5043 1781 MT 5043 1781 LT 5050 1726 LT 6298 1726 LT ST
5043 1781 MT 5043 1781 LT 5050 1836 LT 6298 1836 LT ST
(regfile) 9999 LC 1141 2033 WT TSE RSS
1683 1884 MT 1697 1884 LS
2195 1884 MT 2209 1884 LS
2707 1884 MT 2721 1884 LS
3219 1884 MT 3233 1884 LS
3731 1884 MT 3745 1884 LS
4243 1884 MT 4257 1884 LS
4755 1884 MT 4769 1884 LS
5267 1884 MT 5281 1884 LS
5779 1884 MT 5793 1884 LS
6291 1884 MT 6305 1884 LS
(0026 0004 0028 0004 00d1 0025 0033 0032) 1226 LC 1192 1979 WT pop 0 originOffset 50 add RSS
1178 1924 MT 1178 1924 LT 2425 1924 LT 2432 1979 LT ST
1178 2034 MT 1178 2034 LT 2425 2034 LT 2432 1979 LT ST
(0026 600d 0028 0004 00d1 0025 0033 0032) 3838 LC 2446 1979 WT pop 0 originOffset 50 add RSS
2432 1979 MT 2432 1979 LT 2439 1924 LT 6298 1924 LT ST
2432 1979 MT 2432 1979 LT 2439 2034 LT 6298 2034 LT ST
([7]) 9999 LC 1141 2231 WT TSE RSS
1683 2082 MT 1697 2082 LS
2195 2082 MT 2209 2082 LS
2707 2082 MT 2721 2082 LS
3219 2082 MT 3233 2082 LS
3731 2082 MT 3745 2082 LS
4243 2082 MT 4257 2082 LS
4755 2082 MT 4769 2082 LS
5267 2082 MT 5281 2082 LS
5779 2082 MT 5793 2082 LS
6291 2082 MT 6305 2082 LS
(0026) 5092 LC 1192 2177 WT pop 0 originOffset 50 add RSS
1178 2122 MT 1178 2122 LT 6298 2122 LT ST
1178 2232 MT 1178 2232 LT 6298 2232 LT ST
([6]) 9999 LC 1141 2429 WT TSE RSS
1683 2280 MT 1697 2280 LS
2195 2280 MT 2209 2280 LS
2707 2280 MT 2721 2280 LS
3219 2280 MT 3233 2280 LS
3731 2280 MT 3745 2280 LS
4243 2280 MT 4257 2280 LS
4755 2280 MT 4769 2280 LS
5267 2280 MT 5281 2280 LS
5779 2280 MT 5793 2280 LS
6291 2280 MT 6305 2280 LS
(0004) 1226 LC 1192 2375 WT pop 0 originOffset 50 add RSS
1178 2320 MT 1178 2320 LT 2425 2320 LT 2432 2375 LT ST
1178 2430 MT 1178 2430 LT 2425 2430 LT 2432 2375 LT ST
(600d) 3838 LC 2446 2375 WT pop 0 originOffset 50 add RSS
2432 2375 MT 2432 2375 LT 2439 2320 LT 6298 2320 LT ST
2432 2375 MT 2432 2375 LT 2439 2430 LT 6298 2430 LT ST
([5]) 9999 LC 1141 2627 WT TSE RSS
1683 2478 MT 1697 2478 LS
2195 2478 MT 2209 2478 LS
2707 2478 MT 2721 2478 LS
3219 2478 MT 3233 2478 LS
3731 2478 MT 3745 2478 LS
4243 2478 MT 4257 2478 LS
4755 2478 MT 4769 2478 LS
5267 2478 MT 5281 2478 LS
5779 2478 MT 5793 2478 LS
6291 2478 MT 6305 2478 LS
(0028) 5092 LC 1192 2573 WT pop 0 originOffset 50 add RSS
1178 2518 MT 1178 2518 LT 6298 2518 LT ST
1178 2628 MT 1178 2628 LT 6298 2628 LT ST
([4]) 9999 LC 1141 2825 WT TSE RSS
1683 2676 MT 1697 2676 LS
2195 2676 MT 2209 2676 LS
2707 2676 MT 2721 2676 LS
3219 2676 MT 3233 2676 LS
3731 2676 MT 3745 2676 LS
4243 2676 MT 4257 2676 LS
4755 2676 MT 4769 2676 LS
5267 2676 MT 5281 2676 LS
5779 2676 MT 5793 2676 LS
6291 2676 MT 6305 2676 LS
(0004) 5092 LC 1192 2771 WT pop 0 originOffset 50 add RSS
1178 2716 MT 1178 2716 LT 6298 2716 LT ST
1178 2826 MT 1178 2826 LT 6298 2826 LT ST
([3]) 9999 LC 1141 3023 WT TSE RSS
1683 2874 MT 1697 2874 LS
2195 2874 MT 2209 2874 LS
2707 2874 MT 2721 2874 LS
3219 2874 MT 3233 2874 LS
3731 2874 MT 3745 2874 LS
4243 2874 MT 4257 2874 LS
4755 2874 MT 4769 2874 LS
5267 2874 MT 5281 2874 LS
5779 2874 MT 5793 2874 LS
6291 2874 MT 6305 2874 LS
(00d1) 5092 LC 1192 2969 WT pop 0 originOffset 50 add RSS
1178 2914 MT 1178 2914 LT 6298 2914 LT ST
1178 3024 MT 1178 3024 LT 6298 3024 LT ST
([2]) 9999 LC 1141 3221 WT TSE RSS
1683 3072 MT 1697 3072 LS
2195 3072 MT 2209 3072 LS
2707 3072 MT 2721 3072 LS
3219 3072 MT 3233 3072 LS
3731 3072 MT 3745 3072 LS
4243 3072 MT 4257 3072 LS
4755 3072 MT 4769 3072 LS
5267 3072 MT 5281 3072 LS
5779 3072 MT 5793 3072 LS
6291 3072 MT 6305 3072 LS
(0025) 5092 LC 1192 3167 WT pop 0 originOffset 50 add RSS
1178 3112 MT 1178 3112 LT 6298 3112 LT ST
1178 3222 MT 1178 3222 LT 6298 3222 LT ST
([1]) 9999 LC 1141 3419 WT TSE RSS
1683 3270 MT 1697 3270 LS
2195 3270 MT 2209 3270 LS
2707 3270 MT 2721 3270 LS
3219 3270 MT 3233 3270 LS
3731 3270 MT 3745 3270 LS
4243 3270 MT 4257 3270 LS
4755 3270 MT 4769 3270 LS
5267 3270 MT 5281 3270 LS
5779 3270 MT 5793 3270 LS
6291 3270 MT 6305 3270 LS
(0033) 5092 LC 1192 3365 WT pop 0 originOffset 50 add RSS
1178 3310 MT 1178 3310 LT 6298 3310 LT ST
1178 3420 MT 1178 3420 LT 6298 3420 LT ST
([0]) 9999 LC 1141 3617 WT TSE RSS
1683 3468 MT 1697 3468 LS
2195 3468 MT 2209 3468 LS
2707 3468 MT 2721 3468 LS
3219 3468 MT 3233 3468 LS
3731 3468 MT 3745 3468 LS
4243 3468 MT 4257 3468 LS
4755 3468 MT 4769 3468 LS
5267 3468 MT 5281 3468 LS
5779 3468 MT 5793 3468 LS
6291 3468 MT 6305 3468 LS
(0032) 5092 LC 1192 3563 WT pop 0 originOffset 50 add RSS
1178 3508 MT 1178 3508 LT 6298 3508 LT ST
1178 3618 MT 1178 3618 LT 6298 3618 LT ST
% draw footer
(Entity:mp1_tb  Architecture:  Date: Wed Jan 27 22:34:13 CST 2016   Row: 1 Page: 1) 9999 LC 300 4799 WT TSW RSS
grestore
showpage
%%EOF
